1 0.816469 0.686845 0.271171 0.447092 0.337878
1 0.388387 0.473546 0.168431 0.170162 0.476173
0 0.802304 0.689466 0.296389 0.438036 0.716623
1 0.53627 0.377741 0.0364259 0.173975 0.819472
0 0.665162 0.578646 0.192092 0.409914 0.83178
0 0.311799 0.682078 0.259963 0.493804 0.858925
