1 0.815636 0.628095 0.0166205 0.0657143 0.347184
1 0.38658 0.714524 0.0196984 0.0766667 0.378399
1 0.372422 0.413095 0.0147738 0.0385714 0.385412
1 0.494306 0.63619 0.0160049 0.0571429 0.406892
1 0.259618 0.703333 0.0138504 0.0590476 0.464528
1 0.12173 0.251905 0.189289 0.374286 0.907169
