1 0.541322 0.422381 0.103765 0.193333 0.272733
0 0.435874 0.407143 0.0575451 0.269524 0.424818
1 0.583869 0.29619 0.067034 0.312381 0.443832
0 0.583716 0.3 0.0691766 0.329524 0.634002
0 0.707989 0.330714 0.0697888 0.37 0.741919
1 0.436639 0.407143 0.0584634 0.261905 0.759416
0 0.540098 0.416667 0.09397 0.186667 0.808786
0 0.346801 0.471429 0.0655035 0.273333 0.829696
1 0.707683 0.333095 0.070401 0.348095 0.868269
1 0.820631 0.27 0.0618304 0.337143 0.884279
1 0.267065 0.551905 0.0749924 0.361905 0.887645
