1 0.5983 0.659766 0.0448223 0.162202 0.262168
0 0.42473 0.527034 0.025966 0.0779347 0.297645
1 0.737403 0.526059 0.0188563 0.0613736 0.375388
1 0.328748 0.563322 0.0281298 0.11057 0.400755
1 0.653787 0.578178 0.0265842 0.102289 0.412173
1 0.116229 0.474184 0.0197836 0.0725767 0.423476
0 0.541267 0.544082 0.0222566 0.0672187 0.501911
0 0.726739 0.74379 0.051932 0.241598 0.534361
0 0.598609 0.654165 0.0429675 0.165611 0.5426
1 0.55796 0.780321 0.0574961 0.264978 0.640107
1 0.774189 0.608378 0.0287481 0.10716 0.673844
1 0.804637 0.566732 0.0247295 0.139795 0.69593
1 0.726121 0.748661 0.0605873 0.226985 0.71868
1 0.923338 0.733074 0.0667697 0.211398 0.776706
0 0.557496 0.777399 0.0565688 0.265952 0.806427
1 0.279289 0.565514 0.0534776 0.16074 0.847121
1 0.402473 0.795421 0.0488408 0.3283 0.861522
