0 0.361307 0.78113 0.0322185 0.0900383 0.268261
0 0.0986499 0.740661 0.0420374 0.121169 0.289807
1 0.0239337 0.719828 0.0319116 0.121648 0.309016
0 0.69147 0.752634 0.0420374 0.0895594 0.328882
1 0.181344 0.765565 0.0374348 0.0876437 0.331962
0 0.849033 0.760536 0.0380485 0.0756705 0.333903
0 0.548635 0.773228 0.0312979 0.104885 0.334679
0 0.738877 0.759339 0.0294569 0.0847701 0.348631
0 0.297637 0.768199 0.0380485 0.0785441 0.378383
1 0.471464 0.770115 0.0309911 0.106322 0.39265
0 0.649739 0.777299 0.0303774 0.0871648 0.420506
0 0.327708 0.77227 0.0294569 0.0972222 0.421023
1 0.922522 0.759579 0.0377416 0.0708812 0.425368
0 0.242559 0.771312 0.0469469 0.102969 0.438605
0 0.710034 0.749282 0.0239337 0.0761494 0.441982
0 0.516263 0.765326 0.0377416 0.0996169 0.483991
0 0.179196 0.762692 0.0392759 0.0866858 0.486619
0 0.41792 0.772988 0.033139 0.10249 0.526634
0 0.876649 0.762931 0.0288432 0.0680077 0.597323
0 0.471617 0.768678 0.0355937 0.108238 0.598973
1 0.17444 0.66978 0.0266953 0.140326 0.649067
1 0.392912 0.686063 0.0322185 0.156609 0.714405
1 0.972384 0.752874 0.0276158 0.0814176 0.727329
1 0.433569 0.684626 0.0270021 0.123084 0.815976
