1 0.268756 0.64351 0.0324174 0.0754808 0.491054
1 0.303334 0.641827 0.0169805 0.0471154 0.614785
1 0.259185 0.644712 0.0182155 0.0855769 0.706875
1 0.278172 0.641587 0.0191417 0.0591346 0.717368
1 0.582587 0.16875 0.0561902 0.195192 0.795276
