1 0.551002 0.682423 0.0248937 0.0982102 0.275198
1 0.921372 0.677604 0.0255009 0.0885727 0.278461
0 0.644657 0.649151 0.0221615 0.0463515 0.28683
0 0.473437 0.691831 0.023983 0.0894906 0.287611
1 0.527019 0.678293 0.0206436 0.0963745 0.350534
0 0.350182 0.621845 0.0258045 0.0569068 0.352331
0 0.352155 0.714319 0.0497875 0.188619 0.354021
1 0.292805 0.5771 0.0160899 0.0546122 0.365074
1 0.403764 0.711106 0.0394657 0.148233 0.377185
0 0.632969 0.722579 0.0255009 0.137219 0.384575
0 0.501973 0.686324 0.0245902 0.0986691 0.386835
0 0.321038 0.617485 0.0270188 0.0711335 0.406995
1 0.0546448 0.643185 0.0206436 0.112437 0.451036
1 0.352155 0.714089 0.0388585 0.178981 0.496168
0 0.550698 0.682653 0.0255009 0.100505 0.517222
1 0.954311 0.655347 0.0294475 0.0725103 0.534477
1 0.633424 0.723268 0.027626 0.128499 0.554484
1 0.108379 0.659936 0.0315726 0.134924 0.57104
1 0.670917 0.656953 0.0206436 0.0536944 0.577733
1 0.471767 0.692061 0.0194293 0.0862781 0.577935
1 0.319369 0.744149 0.0425015 0.162001 0.593492
1 0.501518 0.686095 0.0255009 0.108307 0.621594
0 0.577717 0.683341 0.0297511 0.115649 0.683124
0 0.127505 0.758834 0.0346084 0.134465 0.783528
0 0.438676 0.770307 0.0382514 0.149151 0.821606
