1 0.376892 0.602311 0.0185357 0.0770342 0.340726
1 0.162033 0.817525 0.0182268 0.0568127 0.472609
1 0.811863 0.606163 0.0160643 0.0751083 0.546009
1 0.397745 0.763361 0.0219339 0.0630717 0.773241
1 0.331943 0.735195 0.029966 0.100144 0.851146
