1 0.341977 0.747214 0.0146431 0.0431755 0.288029
1 0.456986 0.839601 0.0183038 0.049675 0.335451
1 0.466138 0.840761 0.0164735 0.0547818 0.337698
1 0.33496 0.748143 0.0152532 0.0468895 0.437696
1 0.450427 0.842154 0.0179988 0.0566388 0.460003
1 0.886974 0.870706 0.0167785 0.0580316 0.605161
1 0.431361 0.839369 0.0183038 0.0705664 0.683656
