1 0.934365 0.928636 0.0750117 0.118588 0.295381
0 0.18542 0.918829 0.0604782 0.102595 0.430664
1 0.184013 0.918527 0.0651664 0.102595 0.442876
1 0.954759 0.91898 0.0464135 0.118588 0.492886
1 0.905063 0.942517 0.052977 0.0980688 0.743248
1 0.855368 0.91717 0.0520394 0.105914 0.760669
1 0.436006 0.890616 0.0496953 0.0980688 0.803129
1 0.121894 0.920489 0.0665729 0.107121 0.821716
