1 0.938758 0.564804 0.0212528 0.0797894 0.259728
1 0.304251 0.410693 0.0279642 0.0777643 0.277099
1 0.21882 0.4113 0.026566 0.0708789 0.293015
1 0.77363 0.41778 0.0181767 0.0652086 0.369766
1 0.402125 0.41211 0.0279642 0.0870798 0.482179
1 0.141639 0.548603 0.026566 0.106521 0.495137
1 0.287192 0.412313 0.0218121 0.0785743 0.524031
1 0.254614 0.41373 0.026566 0.0692588 0.529646
1 0.447008 0.417578 0.0282438 0.0842446 0.542972
1 0.153384 0.379506 0.0243289 0.0688538 0.599961
1 0.194072 0.406845 0.0268456 0.0951802 0.642055
1 0.920721 0.568449 0.0232103 0.0773593 0.683185
1 0.356544 0.417173 0.0302013 0.0899149 0.763336
1 0.219659 0.565816 0.0254474 0.110976 0.78696
