1 0.713575 0.818224 0.0250377 0.0676374 0.289068
1 0.162142 0.796148 0.0165913 0.0582433 0.3328
1 0.838462 0.819399 0.0159879 0.0699859 0.428838
1 0.702564 0.813762 0.0187029 0.0662283 0.51162
1 0.723982 0.815641 0.0156863 0.0737435 0.613387
