1 0.108247 0.887512 0.0363857 0.104862 0.34889
1 0.581565 0.86368 0.01698 0.0667302 0.364462
1 0.812007 0.11511 0.0321407 0.0719733 0.375833
1 0.367344 0.855815 0.0136446 0.051001 0.400311
1 0.379776 0.857007 0.0178896 0.0619638 0.407901
1 0.348241 0.85653 0.0166768 0.0591039 0.420787
1 0.773044 0.880362 0.0203153 0.0877026 0.424616
1 0.17359 0.881554 0.0178896 0.0824595 0.446907
1 0.118557 0.887989 0.0151607 0.0981888 0.687477
1 0.0961189 0.887274 0.021225 0.101525 0.687685
