1 0.583333 0.159145 0.0790754 0.152019 0.271647
1 0.320712 0.271971 0.084854 0.312114 0.291447
1 0.758668 0.497625 0.168187 0.293112 0.359895
0 0.0822689 0.364133 0.112835 0.495487 0.396826
0 0.799574 0.689786 0.265815 0.574822 0.442098
0 0.54562 0.71924 0.242701 0.520665 0.57227
1 0.913017 0.388124 0.100973 0.445606 0.654101
0 0.271898 0.696437 0.255474 0.606176 0.686615
0 0.319799 0.261045 0.0909367 0.333967 0.70029
1 0.620286 0.371971 0.119526 0.203325 0.736217
1 0.282695 0.416865 0.135341 0.316865 0.753547
1 0.461679 0.341568 0.120438 0.245131 0.757122
1 0.72795 0.259145 0.129258 0.513539 0.855175
