1 0.771951 0.638323 0.0167815 0.0848007 0.27123
1 0.666167 0.660797 0.0179802 0.0824838 0.302429
1 0.741984 0.637627 0.0161822 0.0741427 0.371365
1 0.622565 0.655468 0.0194786 0.0681186 0.438423
1 0.834732 0.692539 0.0302667 0.125579 0.830678
1 0.87279 0.700185 0.0314654 0.130677 0.835671
1 0.694786 0.686284 0.02727 0.114921 0.849383
