1 0.367697 0.91525 0.0528594 0.1115 0.256168
0 0.747141 0.95575 0.0290572 0.0885 0.336933
1 0.784389 0.94475 0.0238022 0.1105 0.480837
1 0.750232 0.956 0.0228748 0.088 0.524925
1 0.325039 0.91675 0.0170015 0.0975 0.627936
1 0.418393 0.9195 0.0256569 0.12 0.655912
1 0.379907 0.91525 0.0222566 0.1215 0.709476
1 0.346677 0.9125 0.0238022 0.112 0.714587
1 0.610355 0.929 0.031221 0.134 0.776849
