1 0.497269 0.72104 0.0206311 0.11253 0.28498
1 0.435225 0.744444 0.0203277 0.0997636 0.307366
1 0.488774 0.582742 0.0224515 0.0666667 0.314397
1 0.355734 0.760993 0.0227549 0.0884161 0.31665
1 0.5223 0.583688 0.0239684 0.0846336 0.377279
