1 0.545386 0.810824 0.0270188 0.0574118 0.312129
1 0.476624 0.810118 0.0176078 0.0654118 0.387265
1 0.532028 0.811294 0.0185185 0.0564706 0.473582
1 0.55343 0.810824 0.0139648 0.0621176 0.528362
1 0.926381 0.122118 0.127201 0.228235 0.655799
