1 0.209068 0.682373 0.0492108 0.0932617 0.340377
1 0.636181 0.678467 0.0176416 0.0600586 0.494658
1 0.702259 0.673828 0.0154751 0.0585938 0.567981
1 0.724389 0.674072 0.0194986 0.0668945 0.588761
1 0.19251 0.685303 0.0204271 0.0942383 0.676002
1 0.223615 0.681152 0.0194986 0.105469 0.687515
1 0.0181058 0.674072 0.0318787 0.14502 0.804342
