1 0.911298 0.709191 0.0351145 0.164741 0.391388
1 0.290534 0.789302 0.0393893 0.194375 0.41769
1 0.0516031 0.802109 0.0335878 0.194877 0.573925
0 0.290382 0.788297 0.0415267 0.20442 0.598232
1 0.4 0.76896 0.0366412 0.213963 0.627274
1 0.439084 0.751381 0.0476336 0.187845 0.631811
1 0.602595 0.619789 0.0387786 0.174787 0.635747
1 0.20687 0.807885 0.0461069 0.243596 0.671071
1 0.82687 0.74008 0.0531298 0.252637 0.671243
1 0.317557 0.782772 0.0378626 0.205424 0.682169
1 0.145038 0.794073 0.0464122 0.260171 0.695545
1 0.249924 0.791813 0.0393893 0.218483 0.709696
1 0.107481 0.807383 0.0384733 0.223506 0.739565
1 0.366565 0.802863 0.0540458 0.237569 0.840441
1 0.495725 0.767705 0.0570992 0.225515 0.845694
