1 0.172409 0.608397 0.0246951 0.108634 0.398203
1 0.411433 0.618833 0.0283537 0.114326 0.746252
1 0.524543 0.635674 0.0289634 0.132827 0.768641
1 0.491159 0.656309 0.0341463 0.156072 0.778281
1 0.70061 0.721774 0.0841463 0.353416 0.875498
