1 0.487941 0.542471 0.0754484 0.0617761 0.273919
0 0.650897 0.724662 0.0562771 0.303571 0.3285
0 0.622294 0.717423 0.0337044 0.27751 0.397399
0 0.505102 0.675917 0.041744 0.232143 0.408134
1 0.583488 0.727799 0.0562771 0.277992 0.473272
1 0.543754 0.680985 0.054731 0.228764 0.547657
1 0.652752 0.72611 0.0500928 0.291988 0.606246
1 0.339981 0.649131 0.0312307 0.17471 0.686749
1 0.638837 0.561776 0.0884354 0.0694981 0.721305
1 0.963049 0.798263 0.0739023 0.361969 0.734864
1 0.764997 0.746622 0.0661719 0.287645 0.746373
1 0.909864 0.768581 0.0522573 0.292954 0.752892
1 0.367192 0.64334 0.0306122 0.184363 0.765887
1 0.74397 0.560811 0.0921459 0.0714286 0.775691
1 0.102505 0.741554 0.0491651 0.246622 0.780021
1 0.865646 0.763755 0.0652443 0.290058 0.807672
1 0.408627 0.656371 0.0386518 0.199807 0.82269
1 0.811534 0.754585 0.0757576 0.291023 0.828796
0 0.715677 0.731902 0.0578231 0.307432 0.829614
0 0.45671 0.661438 0.0544218 0.217664 0.846496
1 0.0578231 0.760135 0.0568955 0.244208 0.861674
0 0.583333 0.72611 0.0584416 0.272683 0.879859
