1 0.258357 0.259067 0.0267431 0.0505943 0.342098
0 0.94341 0.42868 0.091213 0.139896 0.491773
1 0.340019 0.842274 0.0659026 0.0789393 0.519755
0 0.825215 0.847912 0.086915 0.117647 0.625618
1 0.213945 0.835416 0.0305635 0.048156 0.642793
1 0.968243 0.815148 0.0444126 0.0630905 0.69872
0 0.931471 0.608961 0.074021 0.122524 0.736569
1 0.504776 0.48278 0.383954 0.229808 0.856162
