1 0.205469 0.76883 0.0192484 0.074846 0.278506
1 0.514818 0.757698 0.0171097 0.048792 0.279545
1 0.144821 0.762198 0.0171097 0.0767409 0.481516
1 0.599603 0.756277 0.0137489 0.0582662 0.49876
1 0.486862 0.755566 0.0143599 0.0549503 0.549705
