1 0.462628 0.698685 0.0391802 0.0596524 0.257368
1 0.803647 0.678722 0.0147679 0.0441522 0.319454
1 0.515521 0.892203 0.0268234 0.0709253 0.431267
1 0.808469 0.734852 0.0183846 0.0765618 0.588012
1 0.812538 0.850399 0.0180832 0.0981682 0.653561
1 0.251808 0.814937 0.0220012 0.0901832 0.719687
1 0.544605 0.851339 0.0150693 0.0784406 0.721217
