0 0.760024 0.872391 0.123329 0.204934 0.317246
1 0.0880923 0.653226 0.0212637 0.0711575 0.344129
0 0.861938 0.706831 0.0264277 0.112903 0.350706
1 0.175122 0.666746 0.0246051 0.0725806 0.356093
1 0.865431 0.705408 0.0370595 0.116698 0.450477
1 0.569563 0.760436 0.0370595 0.209677 0.480571
0 0.571081 0.75759 0.0340219 0.197343 0.618997
1 0.913882 0.718691 0.0422236 0.174573 0.708071
0 0.855559 0.848435 0.0744228 0.183586 0.813227
0 0.659022 0.837287 0.0665249 0.314991 0.866226
