1 0.31212 0.594316 0.0318955 0.099951 0.349407
1 0.549058 0.582068 0.0246051 0.11465 0.403657
1 0.327005 0.588927 0.0246051 0.11269 0.432187
1 0.302248 0.697697 0.0437424 0.0862322 0.433996
1 0.264733 0.684223 0.0410085 0.101421 0.525671
1 0.358445 0.584027 0.0267315 0.127389 0.614411
1 0.399909 0.606075 0.0331106 0.157766 0.643119
1 0.302096 0.598236 0.0246051 0.089172 0.647556
1 0.426185 0.609015 0.0407047 0.171485 0.748835
1 0.498329 0.61465 0.0300729 0.155316 0.763164
1 0.82093 0.585007 0.0513366 0.279275 0.815395
1 0.465219 0.61661 0.032503 0.143557 0.823236
1 0.608445 0.599951 0.0346294 0.153356 0.836626
1 0.720231 0.600931 0.0352369 0.189613 0.837445
