1 0.29014 0.590043 0.0283883 0.0805145 0.382991
1 0.608211 0.62363 0.0210623 0.0962363 0.441708
1 0.968254 0.595283 0.029304 0.130062 0.660644
1 0.904151 0.577418 0.0213675 0.0819438 0.697524
1 0.781746 0.755598 0.0744811 0.215341 0.792166
