1 0.140223 0.892692 0.0194081 0.0363861 0.256045
1 0.325813 0.903793 0.0237749 0.0413198 0.318166
1 0.418486 0.91736 0.0276565 0.0444033 0.377569
1 0.208151 0.904872 0.0242601 0.0391613 0.530111
1 0.517952 0.901018 0.0228045 0.0437866 0.559961
1 0.548035 0.923836 0.0286269 0.0444033 0.608467
