0 0.278174 0.716729 0.0273207 0.079194 0.254383
1 0.227569 0.726336 0.0235952 0.0843486 0.30475
1 0.190624 0.73477 0.0291835 0.109653 0.33603
1 0.242161 0.860825 0.0204905 0.0684161 0.350024
1 0.0124185 0.764995 0.0198696 0.148547 0.374901
1 0.333747 0.713215 0.0204905 0.0871603 0.395825
1 0.149953 0.762652 0.0353927 0.156982 0.400811
1 0.306427 0.715558 0.0235952 0.0937207 0.443737
0 0.307203 0.717901 0.028873 0.0946579 0.465066
1 0.681465 0.778819 0.032909 0.143393 0.484099
1 0.366812 0.839035 0.0164545 0.0698219 0.492975
0 0.63117 0.776242 0.0304253 0.134489 0.514472
1 0.732536 0.777413 0.0270102 0.134958 0.596549
0 0.484011 0.816307 0.0322881 0.141518 0.601319
1 0.632257 0.772493 0.0319776 0.134489 0.612707
1 0.484787 0.817713 0.0307358 0.133083 0.616011
0 0.53353 0.79522 0.0338404 0.155576 0.676414
1 0.707079 0.780459 0.0294939 0.139175 0.732681
1 0.0411363 0.771321 0.0394287 0.149016 0.742978
1 0.458864 0.797563 0.03353 0.151828 0.776679
1 0.421298 0.785614 0.0242161 0.111996 0.779106
1 0.532909 0.79358 0.0338404 0.144799 0.791682
1 0.0838249 0.773196 0.0347718 0.145267 0.801262
1 0.30891 0.932287 0.0285626 0.13074 0.810496
1 0.579323 0.788191 0.0353927 0.15089 0.862275
