1 0.313628 0.525382 0.0603039 0.111927 0.428195
1 0.470323 0.274618 0.0811966 0.163914 0.496778
0 0.470323 0.272324 0.0754986 0.166667 0.643321
1 0.596391 0.520184 0.0522317 0.129052 0.7295
1 0.545347 0.520184 0.0641026 0.134557 0.836329
1 0.381054 0.520031 0.0660019 0.129358 0.842327
1 0.45584 0.520336 0.0721747 0.133028 0.869827
