1 0.352959 0.725998 0.018914 0.0736692 0.319762
1 0.258542 0.743821 0.0198292 0.0750951 0.393584
1 0.134686 0.737405 0.0234899 0.105038 0.488702
1 0.322758 0.732652 0.0244051 0.0964829 0.540844
1 0.83252 0.753802 0.0396583 0.120722 0.571258
1 0.793167 0.783032 0.0292861 0.155418 0.673215
1 0.0401159 0.735741 0.0277608 0.106464 0.71037
1 0.0723002 0.734553 0.0292861 0.118346 0.727573
1 0.881483 0.757842 0.0308115 0.128802 0.797133
