1 0.989216 0.338923 0.0173147 0.0552669 0.273063
0 0.363457 0.601795 0.0555893 0.189891 0.274239
1 0.885328 0.312707 0.013062 0.042513 0.279319
1 0.376671 0.615021 0.0388821 0.186112 0.281455
1 0.373026 0.35026 0.0170109 0.0637695 0.284876
1 0.44517 0.35522 0.0197448 0.0803023 0.295968
1 0.10723 0.355456 0.0188335 0.076051 0.309959
1 0.359356 0.690364 0.0328068 0.136514 0.335343
1 0.700486 0.37435 0.0170109 0.0666037 0.342674
1 0.842193 0.31743 0.014277 0.0462919 0.384589
1 0.352217 0.498583 0.0203524 0.0562116 0.387915
1 0.226306 0.354039 0.0194411 0.0713274 0.411076
1 0.234508 0.857818 0.0789793 0.282475 0.429299
1 0.857685 0.352858 0.0185298 0.0632971 0.489234
1 0.0431349 0.526925 0.0309842 0.118564 0.523835
1 0.972205 0.333255 0.0160996 0.0533774 0.527661
1 0.796628 0.325697 0.0148846 0.0571564 0.600752
1 0.406744 0.619745 0.0334143 0.170052 0.663843
1 0.492861 0.582664 0.0379708 0.147851 0.697699
0 0.384872 0.858054 0.0935601 0.259329 0.756335
0 0.358748 0.692962 0.0340219 0.137931 0.79386
1 0.58627 0.541568 0.0431349 0.14974 0.796789
0 0.234812 0.855928 0.072904 0.274917 0.809448
0 0.476762 0.820265 0.0804982 0.268777 0.826029
0 0.5363 0.571327 0.0385784 0.148795 0.827211
