1 0.731336 0.937708 0.040894 0.0439527 0.25094
1 0.629339 0.92619 0.0432715 0.037284 0.259943
1 0.769377 0.900121 0.043747 0.0433465 0.282296
1 0.823823 0.952561 0.0233 0.0324341 0.382981
1 0.544223 0.863747 0.129815 0.0797211 0.657289
