1 0.40692 0.816905 0.033068 0.127143 0.50259
1 0.452388 0.82381 0.0235762 0.128571 0.518733
1 0.728108 0.846429 0.0263319 0.125238 0.725299
1 0.696418 0.839048 0.0296999 0.14 0.787975
1 0.37079 0.817381 0.033068 0.142381 0.798316
