0 0.366038 0.549215 0.0330655 0.109368 0.257899
1 0.212299 0.50737 0.0321384 0.112221 0.264261
1 0.279203 0.648835 0.0275031 0.0832145 0.319123
0 0.212917 0.506419 0.0333745 0.108417 0.326826
1 0.303152 0.648122 0.0203956 0.0751308 0.334681
0 0.529512 0.608654 0.0237948 0.0599144 0.361002
0 0.309796 0.533286 0.0237948 0.100333 0.366066
1 0.489648 0.712791 0.0621137 0.132192 0.375741
1 0.0330655 0.71612 0.065513 0.199715 0.4014
1 0.256489 0.546125 0.0333745 0.106039 0.422673
0 0.255562 0.545174 0.0333745 0.112696 0.465486
1 0.168418 0.471945 0.0333745 0.0851165 0.538505
0 0.33699 0.537803 0.0305933 0.0970043 0.578146
1 0.185414 0.637898 0.0321384 0.0746553 0.607487
1 0.764524 0.709463 0.0271941 0.121731 0.715618
1 0.558869 0.709938 0.0305933 0.138849 0.728651
1 0.471879 0.712078 0.0321384 0.139325 0.756075
1 0.0537701 0.727057 0.0370828 0.17689 0.759494
1 0.505253 0.716358 0.026576 0.133619 0.812662
1 0.361557 0.709938 0.0383189 0.161674 0.818389
1 0.0166873 0.718497 0.0296663 0.217784 0.82621
