1 0.176435 0.701352 0.0163984 0.0564944 0.279291
1 0.161707 0.717286 0.011236 0.0420087 0.365299
1 0.21075 0.683486 0.0127543 0.041043 0.426879
1 0.187367 0.687591 0.012147 0.0434573 0.505047
1 0.172943 0.712458 0.01488 0.0497344 0.524153
