1 0.452345 0.648547 0.0217852 0.119963 0.257886
1 0.867474 0.648079 0.025416 0.059044 0.267458
1 0.217852 0.675023 0.0205749 0.052015 0.280709
1 0.32708 0.502109 0.0175492 0.0688847 0.292581
1 0.306051 0.755389 0.0178517 0.0402999 0.325619
1 0.277156 0.502109 0.0236006 0.0773196 0.418987
1 0.650227 0.639644 0.0181543 0.0431115 0.446563
1 0.376399 0.811621 0.0193646 0.0749766 0.502016
1 0.503328 0.629335 0.0226929 0.111528 0.556067
