1 0.161574 0.762737 0.0188272 0.0776322 0.331814
1 0.884568 0.868268 0.0302469 0.18098 0.791015
1 0.916358 0.876031 0.041358 0.192625 0.827858
1 0.837654 0.868996 0.0382716 0.16982 0.844278
1 0.78642 0.876516 0.0314815 0.135371 0.845787
