1 0.523416 0.805176 0.013468 0.0385882 0.45443
1 0.549281 0.815059 0.0149985 0.0451765 0.456518
1 0.579584 0.865176 0.016835 0.0597647 0.47534
1 0.465412 0.899294 0.0186716 0.0649412 0.487358
1 0.436639 0.896471 0.0180594 0.0630588 0.666318
