1 0.50472 0.194955 0.0204019 0.0645922 0.26922
1 0.645097 0.929514 0.0179659 0.0627063 0.358586
1 0.224726 0.909712 0.0182704 0.0721358 0.438741
1 0.374239 0.348656 0.0194884 0.0749646 0.462766
1 0.474269 0.0372466 0.0185749 0.0744932 0.492003
1 0.394793 0.952145 0.0191839 0.0664781 0.516498
1 0.52299 0.938472 0.0185749 0.068364 0.523085
1 0.369062 0.334748 0.0188794 0.0905233 0.529938
1 0.350639 0.351249 0.0143118 0.0678925 0.614896
