1 0.547619 0.674857 0.0162826 0.0644084 0.265494
1 0.899078 0.699189 0.018126 0.0978053 0.400032
1 0.374962 0.642891 0.037788 0.0844466 0.554315
1 0.449002 0.685353 0.0267281 0.0939886 0.684066
1 0.880952 0.711832 0.0261137 0.124046 0.748464
1 0.836866 0.699189 0.0202765 0.111164 0.776961
