1 0.305977 0.77178 0.0191141 0.0625 0.307333
1 0.898817 0.76965 0.0257888 0.0932765 0.313948
1 0.0855583 0.797822 0.0163835 0.0710227 0.432369
1 0.32145 0.774148 0.0148665 0.0587121 0.442771
1 0.478155 0.794981 0.0169903 0.092803 0.55541
