1 0.317662 0.572887 0.137334 0.237892 0.369073
1 0.966131 0.510921 0.0182493 0.0693257 0.391724
0 0.188679 0.558405 0.0476338 0.234568 0.483178
1 0.193474 0.561491 0.0547479 0.233143 0.502534
1 0.125271 0.578822 0.0890813 0.4283 0.529551
0 0.125425 0.582146 0.0869162 0.436847 0.712574
1 0.704454 0.294397 0.0714507 0.140551 0.815315
1 0.756264 0.283001 0.0402103 0.139601 0.816283
1 0.27807 0.571463 0.0686669 0.256885 0.853423
1 0.35648 0.574074 0.0603155 0.28585 0.855156
