1 0.740385 0.161282 0.0279156 0.0660793 0.277067
0 0.950682 0.165932 0.0241935 0.061674 0.297307
0 0.740385 0.16373 0.0272953 0.0641214 0.304257
0 0.979373 0.283896 0.0381514 0.161527 0.318469
1 0.71495 0.169359 0.0210918 0.0783162 0.340772
1 0.78629 0.14978 0.0192308 0.041116 0.415467
0 0.979529 0.197014 0.0328784 0.114048 0.425945
1 0.951613 0.158835 0.0204715 0.0504161 0.461592
0 0.7866 0.26652 0.104218 0.182575 0.55291
0 0.89237 0.187959 0.0359802 0.103769 0.647665
1 0.923232 0.170093 0.0288462 0.0670583 0.654888
1 0.671681 0.160548 0.0654467 0.133138 0.67551
1 0.78567 0.269457 0.115385 0.17768 0.691659
