1 0.366717 0.757554 0.0302572 0.15012 0.676468
1 0.319365 0.754197 0.0323752 0.144365 0.697512
1 0.197731 0.772902 0.0251135 0.129976 0.728334
1 0.0860817 0.778657 0.0245083 0.101199 0.77944
1 0.152194 0.770983 0.0387292 0.131894 0.785567
