1 0.333995 0.624244 0.0290165 0.0851559 0.419285
1 0.453268 0.62308 0.0409285 0.0781759 0.52551
1 0.310476 0.599814 0.026573 0.105165 0.615225
1 0.466097 0.624942 0.0262676 0.0856212 0.621006
1 0.283903 0.6047 0.0241295 0.100977 0.745317
1 0.357208 0.620987 0.0247404 0.103769 0.769548
1 0.439065 0.624476 0.0284056 0.0772452 0.804388
