0 0.472442 0.461393 0.0788672 0.178115 0.26865
1 0.760962 0.558977 0.0852619 0.217906 0.325343
1 0.474726 0.463288 0.0791717 0.199905 0.750828
1 0.527253 0.452866 0.0551157 0.162009 0.759646
1 0.40271 0.481999 0.0758222 0.217432 0.818964
1 0.308313 0.691378 0.0977466 0.392705 0.849457
0 0.126827 0.688063 0.0928745 0.364282 0.878613
0 0.196407 0.68522 0.0767357 0.36523 0.894893
