1 0.514307 0.932707 0.023187 0.027281 0.325088
1 0.438086 0.917854 0.0374938 0.0418309 0.357538
1 0.324124 0.917248 0.0236803 0.0339497 0.432276
1 0.356931 0.917702 0.026147 0.0336466 0.536762
1 0.498273 0.929979 0.024667 0.0357684 0.572007
