1 0.666925 0.653477 0.0189089 0.0772182 0.253693
1 0.648481 0.654436 0.0179789 0.0829736 0.271885
0 0.683974 0.558273 0.0263484 0.0652278 0.282646
1 0.482641 0.641247 0.0204588 0.0709832 0.342624
1 0.691259 0.805995 0.0260384 0.0647482 0.375413
1 0.296497 0.58705 0.0176689 0.0642686 0.405417
1 0.656231 0.813909 0.0210787 0.0613909 0.414461
1 0.574551 0.62542 0.0176689 0.0613909 0.435841
0 0.878332 0.771223 0.0244885 0.100719 0.47007
0 0.690329 0.805036 0.0303782 0.0647482 0.495084
1 0.685059 0.644125 0.0241785 0.105516 0.496258
1 0.657006 0.73789 0.0226286 0.0954436 0.529989
1 0.0593614 0.584173 0.0145691 0.057554 0.541005
1 0.50682 0.629257 0.0192188 0.0767386 0.596913
1 0.273869 0.585851 0.0145691 0.0647482 0.662435
1 0.239926 0.759712 0.0229386 0.109353 0.736351
