1 0.0509159 0.86066 0.0223533 0.110421 0.272134
1 0.298044 0.833174 0.0180068 0.0697897 0.405688
1 0.21127 0.835086 0.0170754 0.083174 0.412548
1 0.14095 0.833413 0.0211115 0.0874761 0.425606
1 0.246352 0.84608 0.0220428 0.101338 0.523472
1 0.093294 0.858509 0.0307358 0.130019 0.744413
