1 0.330807 0.691525 0.0151607 0.0724432 0.260962
1 0.55564 0.685843 0.0178896 0.0743371 0.281189
1 0.519861 0.685133 0.0233475 0.0672349 0.309684
1 0.184961 0.716619 0.0291086 0.156723 0.521772
1 0.477865 0.68608 0.0175864 0.0719697 0.624784
1 0.452395 0.682765 0.0187993 0.0785985 0.714872
1 0.0298666 0.70786 0.0288053 0.142992 0.775906
