0 0.436125 0.869903 0.0403423 0.172816 0.467226
1 0.269407 0.883495 0.0314792 0.153398 0.472183
0 0.269866 0.885437 0.0323961 0.141748 0.492764
0 0.229982 0.890534 0.0437042 0.209223 0.499484
1 0.231204 0.886893 0.0418704 0.201942 0.620971
1 0.435055 0.869903 0.0394254 0.173786 0.726525
1 0.644407 0.831796 0.0357579 0.149029 0.745278
1 0.363081 0.875243 0.0440098 0.165049 0.764746
1 0.545844 0.879854 0.044621 0.204369 0.824901
