0 0.364871 0.760278 0.122498 0.0973725 0.332429
1 0.793136 0.851314 0.196378 0.189181 0.409978
0 0.857007 0.737094 0.101049 0.127048 0.487498
1 0.366301 0.762751 0.115825 0.0973725 0.644862
0 0.79266 0.853787 0.190658 0.185471 0.724202
