1 0.684065 0.556355 0.0319312 0.18801 0.29635
1 0.776942 0.53717 0.0389929 0.1506 0.401119
1 0.628032 0.469065 0.0316242 0.192806 0.425317
1 0.53623 0.445084 0.0230273 0.0681055 0.609533
1 0.328523 0.427578 0.0485109 0.149161 0.702509
1 0.767578 0.41271 0.0221062 0.113669 0.738878
