1 0.260342 0.268599 0.0236392 0.0599034 0.324951
0 0.347745 0.91715 0.0398134 0.163768 0.366025
0 0.392691 0.919807 0.0388802 0.147826 0.389006
1 0.393002 0.920531 0.0363919 0.146377 0.445737
1 0.438258 0.913527 0.0323484 0.154589 0.529404
1 0.465941 0.922947 0.0335925 0.141546 0.552058
1 0.1507 0.348792 0.0538103 0.148792 0.570355
1 0.330949 0.305314 0.0522551 0.165217 0.587642
1 0.419907 0.317391 0.0304821 0.12657 0.589248
1 0.389425 0.303382 0.037325 0.130435 0.763953
1 0.3479 0.91715 0.0357698 0.156039 0.808792
