1 0.719789 0.849161 0.0192606 0.0752998 0.289135
1 0.257844 0.845084 0.0205033 0.0633093 0.340945
1 0.498757 0.836451 0.0170861 0.0729017 0.380914
1 0.901988 0.848681 0.0177074 0.0724221 0.401558
1 0.894377 0.851559 0.0242311 0.0752998 0.475675
1 0.876204 0.853717 0.0195713 0.0729017 0.630061
1 0.788599 0.857554 0.0208139 0.0690648 0.630902
