1 0.74459 0.923893 0.0359646 0.102262 0.269084
1 0.543584 0.773563 0.0320024 0.16918 0.302954
1 0.346236 0.907634 0.107284 0.113101 0.355766
1 0.498628 0.868285 0.0420603 0.0777568 0.377096
1 0.555776 0.910462 0.0972265 0.0735155 0.418451
1 0.452606 0.933082 0.052423 0.113101 0.420725
0 0.453977 0.932375 0.0527278 0.12017 0.437351
1 0.779183 0.790528 0.0295642 0.141847 0.454782
1 0.190795 0.811263 0.05669 0.0768143 0.490433
1 0.729198 0.94722 0.053947 0.0885957 0.65487
1 0.651478 0.918944 0.053947 0.154571 0.683662
1 0.89043 0.873233 0.04968 0.189444 0.701267
1 0.789851 0.921301 0.0484608 0.133836 0.709714
1 0.181195 0.915881 0.045413 0.14279 0.714892
1 0.719902 0.775212 0.0310881 0.176249 0.802259
1 0.837854 0.794769 0.0402316 0.173893 0.839345
