1 0.371231 0.58862 0.0267692 0.200969 0.254574
1 0.481077 0.460048 0.0261538 0.0736078 0.26572
0 0.0826154 0.447215 0.0236923 0.0479419 0.266286
0 0.135385 0.391041 0.0258462 0.0953995 0.266528
0 0.516462 0.457869 0.0464615 0.0857143 0.267678
0 0.971692 0.589104 0.0295385 0.0624697 0.272647
1 0.314769 0.576513 0.0289231 0.17385 0.272771
0 0.638615 0.447942 0.0292308 0.0668281 0.2785
0 0.477538 0.410654 0.0332308 0.0513317 0.279604
0 0.841692 0.497821 0.0323077 0.112349 0.282885
0 0.317385 0.427361 0.0292308 0.094431 0.31597
0 0.449385 0.619128 0.0403077 0.217433 0.332933
0 0.383538 0.374334 0.0267692 0.0716707 0.334515
0 0.94 0.582809 0.0356923 0.053753 0.341315
0 0.509538 0.415254 0.0215385 0.0469734 0.341878
0 0.922615 0.516465 0.0335385 0.131235 0.351011
0 0.420615 0.382082 0.0246154 0.0677966 0.363984
0 0.896308 0.542373 0.0313846 0.0823245 0.372365
0 0.337692 0.592494 0.0569231 0.224213 0.419073
0 0.501538 0.457869 0.032 0.0760291 0.420721
1 0.443385 0.613801 0.0375385 0.2 0.422661
1 0.774 0.713559 0.0692308 0.253269 0.432683
0 0.726462 0.513317 0.0387692 0.11816 0.436661
0 0.607077 0.454722 0.0381538 0.107506 0.444489
1 0.0869231 0.53293 0.0384615 0.155448 0.471836
0 0.972923 0.76586 0.0498462 0.305569 0.490576
0 0.681846 0.490315 0.0283077 0.131235 0.510646
1 0.732615 0.516949 0.0295385 0.113801 0.521606
0 0.111077 0.446247 0.0203077 0.0566586 0.532194
1 0.970615 0.767797 0.0532308 0.299758 0.543374
0 0.178154 0.554964 0.048 0.179177 0.555703
1 0.136154 0.388136 0.0236923 0.0953995 0.567447
0 0.532769 0.459322 0.0366154 0.103148 0.581119
0 0.0863077 0.530508 0.0446154 0.158354 0.590249
1 0.282769 0.589346 0.0584615 0.171429 0.594163
0 0.567692 0.468039 0.0307692 0.10799 0.610464
0 0.230154 0.564165 0.0443077 0.185956 0.611712
0 0.259077 0.556659 0.0313846 0.189346 0.632598
1 0.0121538 0.496852 0.0218462 0.17724 0.635539
1 0.0430769 0.515012 0.0381538 0.16707 0.637136
1 0.812769 0.717191 0.0366154 0.232446 0.673666
0 0.401846 0.612591 0.0516923 0.219855 0.675087
0 0.359231 0.434625 0.0298462 0.0769976 0.676332
1 0.841077 0.499516 0.0298462 0.0973366 0.693744
0 0.280308 0.584746 0.0492308 0.185472 0.699386
1 0.402308 0.612107 0.0532308 0.213075 0.70063
0 0.703385 0.701453 0.0603077 0.249395 0.703712
1 0.474308 0.632203 0.0446154 0.225182 0.706869
0 0.618154 0.673123 0.0615385 0.246005 0.707341
1 0.617077 0.678935 0.0704615 0.22954 0.715281
0 0.280615 0.397094 0.04 0.100726 0.718578
1 0.753538 0.698789 0.0455385 0.26247 0.722042
1 0.878154 0.747458 0.0627692 0.258111 0.731952
1 0.702615 0.703874 0.0673846 0.248426 0.737231
1 0.177077 0.555448 0.0458462 0.172397 0.74716
1 0.766923 0.516223 0.028 0.101695 0.750451
1 0.229385 0.564165 0.0452308 0.190799 0.757206
1 0.843846 0.710169 0.0390769 0.247458 0.768454
1 0.131385 0.538983 0.0412308 0.179177 0.787214
1 0.543077 0.661017 0.0467692 0.211138 0.787817
1 0.340923 0.595642 0.0627692 0.215981 0.789309
1 0.507846 0.633898 0.0292308 0.201453 0.792563
1 0.655692 0.66707 0.0344615 0.205811 0.793012
1 0.577692 0.643584 0.0323077 0.239225 0.797855
1 0.880615 0.498305 0.0338462 0.110412 0.817251
1 0.934615 0.736804 0.0667692 0.258111 0.843534
