1 0.241101 0.845172 0.0483724 0.124884 0.260923
0 0.054457 0.614902 0.0432005 0.107242 0.274983
0 0.131731 0.615831 0.0219045 0.0580316 0.286138
1 0.680103 0.647632 0.0386371 0.144847 0.296064
0 0.8777 0.607707 0.0346821 0.134633 0.312995
1 0.101765 0.753946 0.0471555 0.23584 0.314969
0 0.808792 0.609331 0.0374201 0.127669 0.315197
0 0.167326 0.600279 0.0298144 0.0947075 0.319414
1 0.522665 0.754875 0.0578035 0.210771 0.354264
0 0.241558 0.849814 0.0480681 0.134169 0.366486
0 0.567235 0.686397 0.0392455 0.137883 0.374764
1 0.132948 0.88974 0.0778826 0.189879 0.405496
1 0.485397 0.865599 0.0301186 0.116527 0.406656
0 0.455887 0.737233 0.0514147 0.170845 0.437491
0 0.28491 0.887187 0.0605415 0.181987 0.438244
0 0.0555218 0.786212 0.0441132 0.203807 0.460596
0 0.200791 0.892526 0.0626711 0.168524 0.464304
0 0.203681 0.592386 0.0337694 0.091922 0.510452
0 0.148464 0.722145 0.042592 0.17688 0.513353
1 0.612869 0.83078 0.0410709 0.147168 0.543292
1 0.454518 0.737929 0.0529358 0.169452 0.54991
0 0.737755 0.595172 0.0346821 0.090065 0.552496
0 0.445239 0.8974 0.0416793 0.168059 0.562226
1 0.055826 0.785747 0.0422878 0.207521 0.573136
0 0.200639 0.724002 0.0404624 0.17688 0.582088
1 0.148312 0.722609 0.0428963 0.171309 0.629681
1 0.245817 0.701718 0.029206 0.120241 0.62973
1 0.201552 0.721913 0.0368117 0.169916 0.644062
1 0.202921 0.893222 0.0657134 0.167131 0.665291
0 0.244904 0.701253 0.027989 0.127669 0.673288
1 0.446912 0.900418 0.0407667 0.159239 0.693332
1 0.28704 0.890669 0.0635838 0.187094 0.741794
1 0.373441 0.85376 0.0641923 0.25441 0.785854
0 0.130362 0.890669 0.0763614 0.178737 0.846347
