1 0.420791 0.600513 0.0147858 0.0713619 0.369395
1 0.43799 0.596782 0.0214243 0.0657649 0.433187
1 0.305673 0.594216 0.020519 0.0625 0.441992
1 0.448401 0.592584 0.0150875 0.0638993 0.452167
1 0.373114 0.586287 0.0171998 0.056903 0.519702
1 0.297978 0.593983 0.0147858 0.0685634 0.523473
1 0.317894 0.596548 0.0178033 0.0690299 0.610861
1 0.656608 0.608209 0.0283645 0.0587687 0.633752
1 0.410531 0.599813 0.0165963 0.073694 0.643435
1 0.428485 0.600746 0.0211225 0.068097 0.690045
1 0.208057 0.589785 0.0202173 0.0834888 0.701012
1 0.751961 0.625933 0.0259505 0.125933 0.804034
1 0.860441 0.640159 0.0268558 0.126399 0.858412
1 0.93271 0.646688 0.033796 0.165578 0.862313
