1 0.633068 0.553666 0.0492505 0.144226 0.264488
0 0.0435913 0.654528 0.0871826 0.458074 0.291193
0 0.326552 0.560134 0.0425206 0.168663 0.301851
1 0.673906 0.536416 0.018966 0.117393 0.369745
1 0.616243 0.547437 0.0290609 0.123143 0.43857
1 0.579229 0.540249 0.0266136 0.112602 0.464389
1 0.69792 0.582175 0.0431325 0.192621 0.483742
1 0.409758 0.547197 0.0162129 0.0785817 0.560539
1 0.326094 0.562051 0.0391557 0.158122 0.61376
1 0.269043 0.581696 0.0437443 0.197413 0.628785
0 0.0978893 0.652132 0.0568981 0.401533 0.653918
1 0.0991129 0.650455 0.0550627 0.400096 0.69867
1 0.753288 0.598946 0.0437443 0.276953 0.716966
1 0.381309 0.546478 0.02539 0.104935 0.737106
1 0.953197 0.609727 0.0807586 0.426929 0.82414
1 0.0449679 0.65884 0.0887121 0.45999 0.833895
1 0.199449 0.616435 0.0373203 0.250599 0.834579
1 0.883604 0.616914 0.0651575 0.38093 0.855364
