1 0.534142 0.803172 0.0200659 0.0886194 0.329743
1 0.888589 0.891791 0.0209644 0.111007 0.361896
1 0.653339 0.860541 0.0236598 0.0643657 0.47743
1 0.815214 0.878965 0.0245583 0.108675 0.49202
1 0.838724 0.888759 0.0218628 0.112407 0.587395
1 0.743037 0.858675 0.0281521 0.0811567 0.613257
0 0.322402 0.832323 0.0775681 0.23181 0.626205
1 0.560048 0.821595 0.0245583 0.0834888 0.649274
1 0.806379 0.876399 0.0242588 0.102612 0.726175
1 0.619647 0.837687 0.0287511 0.0895522 0.729759
1 0.710842 0.864039 0.0212639 0.104944 0.750814
1 0.908955 0.892724 0.0245583 0.11847 0.756393
1 0.866277 0.892724 0.0230608 0.112873 0.784281
1 0.949236 0.897388 0.0242588 0.11847 0.798104
