1 0.745463 0.695621 0.0154265 0.0899247 0.270353
1 0.900181 0.710452 0.0175439 0.0856874 0.275526
1 0.922565 0.778719 0.0284332 0.131827 0.28508
1 0.88294 0.717279 0.0169389 0.0710923 0.308567
0 0.861464 0.784605 0.0344828 0.142655 0.43717
1 0.815638 0.709275 0.0257108 0.119115 0.497138
1 0.86101 0.784605 0.0359952 0.140772 0.63496
