1 0.373319 0.567587 0.0216993 0.0706268 0.529116
1 0.507029 0.581151 0.0354523 0.095884 0.543488
1 0.20217 0.52783 0.021088 0.0734331 0.595309
1 0.624389 0.640786 0.0574572 0.158092 0.680057
1 0.155562 0.558466 0.0348411 0.148737 0.683909
1 0.336491 0.563143 0.0250611 0.0720299 0.775443
1 0.459505 0.609682 0.0351467 0.145463 0.810158
1 0.701711 0.646165 0.042176 0.171656 0.830665
