1 0.371646 0.623157 0.0115854 0.0375654 0.251719
1 0.161585 0.627199 0.0176829 0.0589634 0.318509
1 0.533384 0.690204 0.0277439 0.0737042 0.326936
1 0.122561 0.639563 0.0176829 0.0675226 0.398577
1 0.180793 0.718973 0.0164634 0.0627675 0.400169
1 0.841006 0.776034 0.0179878 0.0760818 0.498772
1 0.632622 0.72135 0.022561 0.0646695 0.534195
1 0.0675305 0.911793 0.0253049 0.103186 0.586079
