1 0.233859 0.832297 0.0215217 0.0598086 0.260318
1 0.244468 0.8311 0.0360715 0.0583732 0.277965
0 0.730676 0.79067 0.0330403 0.117225 0.436965
1 0.730221 0.792584 0.0321309 0.121053 0.454582
1 0.768112 0.757895 0.0284935 0.100478 0.473117
1 0.676114 0.77823 0.0233404 0.133493 0.48129
1 0.910427 0.729187 0.0166717 0.0794258 0.50429
1 0.701728 0.780861 0.027281 0.14067 0.547812
1 0.570627 0.759809 0.0342528 0.121531 0.623398
1 0.257502 0.832057 0.0306153 0.0574163 0.630038
1 0.893149 0.713636 0.014853 0.109569 0.672322
1 0.148227 0.827034 0.0345559 0.0789474 0.702391
1 0.111094 0.838038 0.037284 0.0751196 0.705821
1 0.0219764 0.823445 0.0360715 0.101435 0.713728
1 0.644286 0.770813 0.0300091 0.130144 0.748533
1 0.202486 0.819617 0.029706 0.0842105 0.762049
1 0.93786 0.708852 0.0230373 0.107656 0.785146
1 0.606396 0.785646 0.0281904 0.132057 0.794145
