0 0.431629 0.909002 0.0360333 0.147932 0.339693
0 0.353557 0.876642 0.0326455 0.162044 0.36527
0 0.602094 0.905109 0.0369572 0.154745 0.368386
1 0.649985 0.928224 0.0335694 0.0948905 0.392808
0 0.766862 0.944039 0.0468124 0.107056 0.398747
1 0.492917 0.900973 0.0298737 0.155231 0.399714
1 0.2915 0.632603 0.0243302 0.0554745 0.409726
0 0.491377 0.89635 0.0341854 0.16253 0.412059
1 0.575608 0.905353 0.0425008 0.159124 0.420028
1 0.353403 0.882482 0.0329535 0.159124 0.459254
1 0.533415 0.910949 0.0388051 0.150852 0.479437
1 0.898984 0.93236 0.0578996 0.128467 0.494395
1 0.431013 0.906569 0.0372652 0.157664 0.512424
0 0.575146 0.903406 0.0384971 0.157178 0.570747
1 0.315984 0.892457 0.0271019 0.146959 0.607499
