0 0.0897162 0.800521 0.11596 0.255088 0.294123
1 0.537382 0.619262 0.0463839 0.122575 0.421453
0 0.894873 0.568623 0.0430272 0.239943 0.485864
1 0.826823 0.570989 0.0454684 0.204922 0.563983
0 0.575526 0.619262 0.0549283 0.122575 0.587554
1 0.649069 0.596072 0.0353982 0.0676763 0.601349
0 0.351694 0.704922 0.0570644 0.184098 0.644108
0 0.826518 0.571226 0.0472994 0.207288 0.684328
1 0.574306 0.620445 0.0500458 0.115476 0.7105
1 0.896247 0.576905 0.0482148 0.222433 0.768766
1 0.0857492 0.799574 0.115349 0.271178 0.768787
1 0.420507 0.662802 0.106195 0.522007 0.787832
0 0.275557 0.660672 0.112908 0.495977 0.894567
0 0.185536 0.740653 0.121453 0.363464 0.903455
