1 0.609423 0.83496 0.0647637 0.142259 0.453692
1 0.0813382 0.788935 0.0263966 0.147838 0.563022
1 0.391651 0.818224 0.0294659 0.13854 0.587872
1 0.576888 0.515342 0.0316145 0.125058 0.589732
1 0.126611 0.791957 0.0352977 0.155742 0.619488
1 0.480356 0.827522 0.0306937 0.108787 0.697775
1 0.551719 0.827755 0.0506446 0.127848 0.730856
1 0.89733 0.857043 0.0537139 0.192004 0.734659
1 0.796194 0.836588 0.0497238 0.132497 0.744036
1 0.407612 0.822873 0.0509515 0.121804 0.761051
1 0.490332 0.52464 0.043892 0.112041 0.769339
1 0.541743 0.50093 0.0417434 0.153882 0.781371
1 0.334561 0.808926 0.0300798 0.142259 0.788601
1 0.459331 0.826127 0.0260896 0.116225 0.791462
1 0.221148 0.796606 0.0334561 0.16132 0.796603
1 0.516575 0.82636 0.0380602 0.119479 0.796756
1 0.302947 0.834263 0.0331492 0.119479 0.799589
1 0.366482 0.827987 0.0343769 0.120874 0.802052
1 0.591928 0.834496 0.0408226 0.121804 0.83246
1 0.184316 0.796141 0.0334561 0.16318 0.84679
1 0.256599 0.831474 0.0331492 0.112041 0.854594
1 0.743861 0.811715 0.0445058 0.176662 0.858978
1 0.637968 0.833566 0.0432781 0.119014 0.866603
1 0.694291 0.808461 0.0466544 0.182241 0.86775
