1 0.564157 0.642315 0.0298689 0.112903 0.721829
1 0.594483 0.63686 0.0332216 0.131404 0.777468
1 0.814081 0.728416 0.095093 0.360057 0.829636
1 0.325663 0.643738 0.0557757 0.164137 0.839288
1 0.258001 0.652277 0.036879 0.178368 0.879204
