1 0.636053 0.760342 0.0198573 0.0561103 0.35966
1 0.114024 0.770804 0.0189265 0.0760818 0.432566
1 0.670648 0.768426 0.0176854 0.0713267 0.483724
1 0.88551 0.806942 0.0316475 0.140751 0.508941
1 0.089668 0.77223 0.0173751 0.0713267 0.519768
1 0.394508 0.772706 0.0220292 0.0789349 0.541438
