1 0.498009 0.884954 0.0183767 0.0643518 0.298071
1 0.686677 0.890741 0.0165391 0.0675926 0.328573
1 0.535528 0.880556 0.0192956 0.0592593 0.356844
1 0.563093 0.883333 0.018683 0.0583333 0.379565
1 0.612557 0.923843 0.0238897 0.0782407 0.380996
1 0.721286 0.86875 0.0183767 0.0625 0.496614
1 0.410107 0.88912 0.0177642 0.0532407 0.526737
1 0.37856 0.884954 0.0177642 0.0662037 0.589742
1 0.738744 0.872454 0.0171516 0.0662037 0.609887
