1 0.439752 0.806429 0.0184681 0.0680952 0.305347
1 0.401605 0.800476 0.0239177 0.0657143 0.330676
1 0.203754 0.805714 0.0187708 0.0685714 0.343143
1 0.298819 0.813095 0.0187708 0.0785714 0.364669
1 0.376779 0.796905 0.0202846 0.0738095 0.383997
1 0.420375 0.8 0.0208901 0.0695238 0.384681
1 0.259915 0.831429 0.0142295 0.0685714 0.533423
