1 0.799502 0.446359 0.0224159 0.0567961 0.272052
1 0.962017 0.236408 0.0323786 0.068932 0.272233
1 0.233966 0.657039 0.0214819 0.113107 0.283372
1 0.800125 0.929369 0.016812 0.0849515 0.296201
1 0.377335 0.88034 0.0242839 0.13932 0.323697
1 0.827366 0.23568 0.015878 0.0703883 0.333359
1 0.0759651 0.651456 0.016812 0.0621359 0.348112
1 0.602895 0.924272 0.0245953 0.126214 0.394346
1 0.521015 0.918204 0.0239726 0.12767 0.407554
1 0.43929 0.864563 0.0242839 0.114563 0.432623
1 0.811955 0.234223 0.0199253 0.0684466 0.447015
1 0.962017 0.232282 0.0161893 0.065534 0.498008
1 0.98599 0.236893 0.0224159 0.0786408 0.560978
1 0.938667 0.235194 0.0161893 0.0781553 0.593497
1 0.369085 0.895388 0.0289539 0.134466 0.599425
1 0.496887 0.874272 0.0273973 0.104854 0.60461
1 0.470423 0.867233 0.0249066 0.115049 0.706306
