1 0.333488 0.701489 0.0516868 0.126321 0.258716
1 0.575054 0.685399 0.0315692 0.0979827 0.27723
1 0.470907 0.666186 0.0324977 0.121037 0.286039
0 0.377902 0.68804 0.0340452 0.115754 0.438886
1 0.378675 0.690442 0.0343547 0.112872 0.5645
1 0.419839 0.686359 0.0281647 0.115274 0.587525
1 0.347106 0.701729 0.0232126 0.114313 0.690497
1 0.320025 0.705812 0.0222841 0.118636 0.743063
