1 0.501227 0.886761 0.0171779 0.0562648 0.488084
1 0.535736 0.889125 0.0168712 0.0619385 0.529354
1 0.577301 0.912766 0.0165644 0.0666667 0.535322
1 0.384049 0.875414 0.0122699 0.0543735 0.536437
1 0.312423 0.895745 0.0168712 0.0780142 0.708329
1 0.478988 0.908274 0.0174847 0.093617 0.720267
1 0.415184 0.88156 0.0150307 0.0638298 0.733878
1 0.0342025 0.850355 0.0273006 0.0553191 0.781654
