1 0.986457 0.578551 0.0233918 0.136673 0.282089
1 0.299169 0.512403 0.0178516 0.0695525 0.300682
0 0.930902 0.570525 0.0304709 0.134241 0.392924
1 0.976454 0.582685 0.0298553 0.139105 0.453872
1 0.224223 0.508268 0.0280086 0.0846303 0.492877
1 0.932441 0.571984 0.0243152 0.135214 0.498731
1 0.131425 0.500973 0.0209295 0.0710117 0.582062
1 0.949061 0.587792 0.0243152 0.118191 0.622286
1 0.166051 0.503161 0.0218529 0.0812257 0.703628
