0 0.373788 0.568465 0.144084 0.503304 0.274489
0 0.607093 0.554883 0.171793 0.412996 0.571222
0 0.297589 0.565712 0.132447 0.508811 0.749265
0 0.208784 0.526248 0.178166 0.546623 0.807666
1 0.844001 0.526615 0.181214 0.41373 0.814902
0 0.434469 0.517254 0.18343 0.593979 0.817517
0 0.121502 0.508076 0.127182 0.424376 0.830472
