1 0.668343 0.293949 0.306034 0.49289 0.267481
0 0.41978 0.317398 0.28113 0.497428 0.268075
1 0.454741 0.316641 0.215038 0.451135 0.711185
0 0.662835 0.295008 0.288314 0.502269 0.7336
1 0.334052 0.322088 0.173851 0.39062 0.786165
