1 0.450576 0.745645 0.0357793 0.110143 0.263075
1 0.890691 0.76665 0.0281989 0.159324 0.400332
1 0.72362 0.819928 0.0469982 0.196209 0.542368
1 0.246058 0.764344 0.0203153 0.11168 0.616699
1 0.522438 0.712346 0.0266828 0.071209 0.62836
1 0.187841 0.787654 0.0251668 0.0957992 0.679963
1 0.551243 0.737705 0.02547 0.123975 0.761991
