1 0.750926 0.902403 0.0259259 0.0941638 0.293254
1 0.777778 0.902648 0.0197531 0.0799411 0.392193
1 0.907716 0.892349 0.0395062 0.171162 0.520698
1 0.847994 0.920304 0.029321 0.11231 0.7846
1 0.209259 0.884502 0.0246914 0.125061 0.791914
1 0.983025 0.88156 0.0320988 0.160373 0.812528
