1 0.861603 0.668055 0.0264057 0.0710436 0.280346
0 0.122088 0.793974 0.036036 0.0592847 0.282672
1 0.89593 0.701127 0.0298229 0.066634 0.288774
0 0.930258 0.768006 0.0332401 0.0730034 0.293501
1 0.623796 0.738364 0.0292016 0.0783929 0.295301
0 0.705188 0.88878 0.0509475 0.144047 0.304197
0 0.650823 0.759677 0.0465983 0.120039 0.305293
1 0.883194 0.773395 0.0267164 0.0818226 0.31264
0 0.849487 0.759187 0.0406959 0.099461 0.32364
0 0.62333 0.739098 0.0276483 0.0690838 0.339184
0 0.591177 0.72195 0.0329295 0.0867222 0.341583
0 0.157502 0.911318 0.0385213 0.155806 0.354104
0 0.407114 0.764086 0.0444237 0.102401 0.378226
0 0.132495 0.906663 0.0357254 0.161195 0.385589
0 0.86968 0.902254 0.0810811 0.190593 0.392078
1 0.167754 0.677609 0.027959 0.0783929 0.395441
0 0.894998 0.699657 0.0310655 0.0656541 0.405592
0 0.0312209 0.905194 0.0543647 0.165115 0.414283
0 0.140572 0.743263 0.0357254 0.0636943 0.420076
1 0.0897794 0.907888 0.0546754 0.158746 0.425212
0 0.233147 0.744733 0.0351041 0.0705537 0.439724
0 0.645231 0.907153 0.0540541 0.174914 0.472759
0 0.860516 0.66683 0.027959 0.0656541 0.486772
0 0.262193 0.912788 0.0509475 0.156786 0.487227
1 0.371544 0.904949 0.0428705 0.165605 0.490605
0 0.57813 0.797893 0.0403852 0.0759432 0.518059
1 0.263125 0.916463 0.0615098 0.162175 0.520466
1 0.646163 0.905928 0.0497049 0.171485 0.526919
0 0.100808 0.786624 0.0276483 0.0612445 0.529154
1 0.932277 0.906418 0.0652376 0.173444 0.530538
1 0.0683442 0.784174 0.0323082 0.0749633 0.536081
0 0.207052 0.911073 0.054986 0.163155 0.536785
1 0.206897 0.916708 0.0608885 0.161685 0.56197
0 0.372165 0.907153 0.0422491 0.175894 0.59458
0 0.563995 0.741548 0.0357254 0.0700637 0.612196
0 0.0893135 0.905684 0.054986 0.159236 0.618869
0 0.425443 0.906908 0.0686549 0.172464 0.685971
1 0.0315315 0.906663 0.0599565 0.163155 0.694842
1 0.0163094 0.787359 0.0307549 0.0813327 0.719721
0 0.586207 0.911073 0.0621311 0.170995 0.802994
1 0.758621 0.909358 0.0671016 0.173444 0.846689
