1 0.155593 0.50508 0.0616635 0.117303 0.320247
1 0.739962 0.0451047 0.211281 0.0902094 0.326272
1 0.481836 0.222752 0.0803059 0.115456 0.400414
1 0.265057 0.044335 0.195507 0.0886699 0.477415
0 0.480641 0.221829 0.0855641 0.119766 0.545112
1 0.749044 0.222445 0.102294 0.15117 0.568723
1 0.222275 0.226909 0.0879541 0.179803 0.80558
