1 0.138114 0.793208 0.0500303 0.112881 0.252794
1 0.360218 0.785246 0.0242571 0.0725995 0.331111
1 0.902062 0.846604 0.021225 0.0660422 0.462136
1 0.884172 0.844028 0.0187993 0.0693208 0.585898
1 0.119315 0.793208 0.0245603 0.108197 0.689407
1 0.146301 0.794848 0.0251668 0.0992974 0.779383
