1 0.377706 0.804229 0.0170068 0.0631841 0.258538
1 0.822511 0.866169 0.0420532 0.181095 0.277068
1 0.180427 0.843035 0.0609153 0.248259 0.354393
1 0.748299 0.812189 0.017316 0.0860697 0.429617
1 0.722171 0.809702 0.0225727 0.09801 0.495965
