1 0.727075 0.534349 0.0932546 0.259797 0.319385
1 0.830432 0.571843 0.0519117 0.247702 0.341862
1 0.237333 0.572569 0.0543985 0.24238 0.392404
1 0.682934 0.33672 0.0317066 0.145138 0.456707
0 0.84613 0.390905 0.0851725 0.156749 0.483054
1 0.693659 0.531447 0.0705626 0.257862 0.484231
1 0.783028 0.546928 0.0895244 0.257862 0.489353
1 0.39027 0.538462 0.0556419 0.222545 0.518042
0 0.235468 0.572569 0.0531551 0.243348 0.520433
1 0.85157 0.590711 0.0755362 0.274794 0.528347
0 0.69055 0.531447 0.0730494 0.2627 0.581993
1 0.442027 0.296565 0.026733 0.132559 0.599366
0 0.729406 0.53701 0.0836183 0.255443 0.612403
0 0.443736 0.295597 0.0276655 0.122883 0.632065
0 0.184333 0.597242 0.0553311 0.279149 0.640176
1 0.947933 0.642235 0.101647 0.330431 0.68069
1 0.451508 0.515481 0.0730494 0.228834 0.705428
0 0.68309 0.333817 0.0351259 0.145138 0.74402
0 0.13724 0.620948 0.0749145 0.324625 0.766415
0 0.452751 0.514998 0.0674542 0.223029 0.767943
0 0.520205 0.508466 0.0724277 0.22835 0.786054
1 0.416071 0.29463 0.0264221 0.123851 0.803155
0 0.390581 0.53701 0.0593721 0.212869 0.804546
0 0.860429 0.596759 0.0907678 0.277213 0.818013
0 0.336494 0.546444 0.0606155 0.235607 0.830761
0 0.275723 0.558539 0.0596829 0.261732 0.844637
0 0.638638 0.524915 0.0705626 0.226415 0.849096
0 0.782251 0.545235 0.0898352 0.249637 0.861214
0 0.0705626 0.67731 0.136773 0.337687 0.883106
0 0.585017 0.521529 0.0652782 0.212869 0.898467
