1 0.148345 0.765397 0.0245976 0.0658204 0.264329
1 0.780595 0.778796 0.0239903 0.0728726 0.290824
1 0.772548 0.777386 0.0188278 0.0756935 0.303917
1 0.887033 0.776916 0.0145764 0.0606488 0.335099
1 0.222593 0.767278 0.0182205 0.0714622 0.377105
1 0.466444 0.795722 0.0340115 0.115186 0.386159
1 0.0417552 0.765867 0.0191315 0.0761636 0.491018
1 0.246735 0.767278 0.0197388 0.0648801 0.493314
1 0.0935317 0.764457 0.0170058 0.0771039 0.519565
1 0.17522 0.771744 0.0176131 0.0785143 0.539193
1 0.20331 0.767513 0.0191315 0.070992 0.559019
1 0.156544 0.767748 0.0191315 0.0808651 0.585135
1 0.711661 0.775035 0.0179168 0.0719323 0.626114
1 0.0645308 0.767983 0.0203462 0.0672308 0.687853
1 0.116915 0.769394 0.0200425 0.0794546 0.693957
1 0.738081 0.781617 0.0185241 0.0747532 0.702911
