1 0.570444 0.894109 0.0217458 0.087424 0.255384
1 0.800306 0.906265 0.0183767 0.0808789 0.369799
1 0.760184 0.921692 0.0177642 0.084619 0.610173
1 0.780245 0.9072 0.0174579 0.0790089 0.627636
1 0.59709 0.892006 0.0229709 0.100047 0.634205
0 0.213936 0.88359 0.067075 0.177653 0.657172
1 0.739357 0.915849 0.0196018 0.0888266 0.662751
1 0.65268 0.92216 0.0226646 0.0733988 0.678034
1 0.620214 0.889434 0.0251149 0.106124 0.733301
1 0.71317 0.919355 0.0223583 0.109864 0.767874
0 0.351761 0.927536 0.0425727 0.0935016 0.81331
