1 0.603904 0.681882 0.0174174 0.0621176 0.253031
1 0.886036 0.582353 0.0657658 0.0635294 0.336846
1 0.168168 0.904941 0.0174174 0.0621176 0.391786
1 0.462012 0.787529 0.0153153 0.0654118 0.43096
1 0.259459 0.872235 0.0222222 0.0804706 0.594184
