1 0.917546 0.511401 0.163099 0.977197 0.253281
1 0.332982 0.916865 0.0147724 0.0427553 0.353228
1 0.399005 0.908789 0.0135665 0.0513064 0.406952
1 0.446639 0.935629 0.0171842 0.0622328 0.534495
1 0.308713 0.93658 0.0162798 0.0584323 0.563873
1 0.518541 0.954394 0.0162798 0.0655582 0.578193
1 0.561351 0.949644 0.0150739 0.0598575 0.594466
1 0.533012 0.96247 0.0174857 0.0665083 0.602701
1 0.458245 0.935154 0.0156768 0.0603325 0.647804
