0 0.887389 0.512258 0.0386622 0.104196 0.254336
1 0.889383 0.511787 0.037128 0.0947666 0.310147
1 0.0765572 0.458039 0.0150353 0.0655351 0.339264
0 0.340595 0.537247 0.0417306 0.171146 0.354033
0 0.904265 0.712636 0.0613685 0.371051 0.415889
0 0.289046 0.503536 0.044799 0.102782 0.419505
0 0.207732 0.4967 0.0380485 0.11174 0.473748
0 0.0869899 0.767327 0.0303774 0.230552 0.541424
0 0.112611 0.716879 0.0472538 0.404055 0.551733
1 0.938018 0.576851 0.0417306 0.197548 0.59533
1 0.194845 0.746582 0.033139 0.335219 0.620344
0 0.250997 0.516266 0.0362074 0.0933522 0.629266
1 0.905492 0.713343 0.0589138 0.374352 0.690829
0 0.155416 0.73338 0.0567659 0.413484 0.808498
0 0.828628 0.737859 0.0641301 0.350778 0.840727
0 0.23903 0.749882 0.0767106 0.370108 0.870065
