1 0.724944 0.395607 0.0434298 0.188231 0.339715
1 0.840757 0.373841 0.0690423 0.201129 0.638211
0 0.724944 0.398025 0.0473274 0.193873 0.697742
0 0.680401 0.406288 0.0417595 0.207175 0.794889
0 0.607739 0.459694 0.0679287 0.264006 0.874428
