1 0.736061 0.588581 0.0309091 0.141447 0.379753
1 0.394697 0.541588 0.0166667 0.0784774 0.496387
1 0.938485 0.541353 0.0230303 0.101504 0.6571
1 0.913182 0.544408 0.019697 0.0916353 0.696876
1 0.442576 0.635103 0.0281818 0.174342 0.72325
1 0.308788 0.564145 0.0321212 0.143327 0.813146
1 0.682424 0.622415 0.0551515 0.196898 0.86329
