1 0.00669915 0.809401 0.0133983 0.0556595 0.276462
1 0.698386 0.88073 0.0137028 0.0486436 0.276532
1 0.894488 0.889149 0.0204019 0.0449018 0.299656
1 0.865104 0.80449 0.0146163 0.0449018 0.315957
1 0.0639464 0.835126 0.0152253 0.0491113 0.382742
1 0.800548 0.857811 0.0121803 0.0430309 0.467947
1 0.0296894 0.82507 0.0149208 0.0477081 0.469319
1 0.27634 0.912067 0.0137028 0.0458372 0.496086
1 0.35475 0.950421 0.0194884 0.070159 0.535577
1 0.0971376 0.851497 0.0140073 0.0519177 0.54607
1 0.238581 0.908559 0.0137028 0.0565949 0.552917
1 0.406516 0.955332 0.0188794 0.0575304 0.555266
1 0.420219 0.956034 0.0158343 0.0608045 0.592032
1 0.651949 0.933583 0.0152253 0.0636109 0.602616
1 0.612668 0.947147 0.0152253 0.0645463 0.620995
1 0.572929 0.945042 0.0161389 0.0687559 0.648248
1 0.185445 0.890552 0.0140073 0.059869 0.659681
1 0.311054 0.934051 0.0155298 0.0636109 0.669219
1 0.497412 0.953929 0.0173569 0.0678204 0.674989
1 0.531973 0.959074 0.0140073 0.065014 0.679629
