1 0.437462 0.303146 0.0172623 0.0514776 0.254415
1 0.199425 0.901573 0.0166566 0.0662536 0.347116
1 0.331163 0.548141 0.0245306 0.0819828 0.423506
1 0.117505 0.214252 0.0514839 0.188275 0.526201
1 0.24576 0.561487 0.0372501 0.108675 0.756247
1 0.183828 0.219018 0.0629921 0.252145 0.846536
