0 0.600093 0.434572 0.0984673 0.192203 0.503442
0 0.388063 0.433212 0.0831398 0.187066 0.607484
1 0.386205 0.435328 0.0915002 0.188274 0.777488
1 0.673943 0.445754 0.0696702 0.158356 0.81242
1 0.600557 0.435781 0.118904 0.187972 0.830116
1 0.520901 0.134482 0.213191 0.211544 0.87066
1 0.472364 0.435932 0.0901068 0.185252 0.882581
