1 0.584611 0.654265 0.0147149 0.0734597 0.365491
1 0.677498 0.679384 0.0171674 0.0943128 0.37066
1 0.482986 0.68436 0.0518087 0.103318 0.39926
1 0.417842 0.685071 0.0496628 0.110427 0.452079
0 0.75 0.078673 0.24862 0.150711 0.48084
1 0.393777 0.684123 0.0254445 0.104739 0.540804
1 0.36634 0.68981 0.0196199 0.0905213 0.731627
1 0.496934 0.684834 0.0208461 0.0985782 0.767958
1 0.405733 0.68436 0.0223789 0.109005 0.77362
1 0.433476 0.683649 0.0245248 0.106635 0.81624
1 0.469497 0.682701 0.0211527 0.100948 0.824905
