0 0.768158 0.604485 0.0223721 0.0973282 0.261152
1 0.643273 0.548664 0.055164 0.115458 0.291085
0 0.625958 0.755248 0.049954 0.225191 0.379733
1 0.986209 0.634303 0.0251302 0.142653 0.46932
1 0.296047 0.482347 0.0281949 0.100191 0.485762
1 0.256512 0.482109 0.0202268 0.0892176 0.498811
1 0.728011 0.61021 0.0278884 0.101145 0.688294
1 0.625958 0.757156 0.059148 0.224237 0.691159
1 0.767852 0.607347 0.0254367 0.101145 0.746194
0 0.159516 0.824189 0.0695679 0.306775 0.849315
0 0.217285 0.829914 0.0717131 0.306775 0.849545
1 0.669476 0.755725 0.0475023 0.214695 0.861974
0 0.873889 0.762166 0.0726325 0.249523 0.893139
