0 0.347416 0.45715 0.0721139 0.124527 0.318738
1 0.345559 0.640625 0.0646859 0.237689 0.377954
0 0.345559 0.643466 0.0665429 0.244318 0.620117
1 0.351284 0.454309 0.0656144 0.116004 0.671263
1 0.879294 0.400331 0.0284742 0.110322 0.714889
0 0.407768 0.640862 0.0653049 0.228693 0.768166
