1 0.546575 0.47151 0.0191781 0.0645774 0.378594
1 0.564231 0.488367 0.0191781 0.0821462 0.382014
0 0.639269 0.533238 0.0480974 0.169991 0.528314
0 0.469711 0.539886 0.0383562 0.110161 0.558859
1 0.467276 0.540836 0.0359209 0.125356 0.668739
1 0.455708 0.470798 0.0322679 0.12773 0.675418
1 0.416895 0.534188 0.0459665 0.133903 0.770048
1 0.334399 0.531102 0.0575342 0.143875 0.821838
