1 0.194522 0.787967 0.0186741 0.069869 0.347192
1 0.631653 0.831878 0.0140056 0.0781174 0.425936
1 0.577965 0.834304 0.0255213 0.0955847 0.479126
1 0.79723 0.803493 0.0233427 0.0873362 0.563521
1 0.611267 0.828481 0.0192966 0.0907327 0.688661
