0 0.321339 0.550602 0.0325407 0.124819 0.345195
1 0.321965 0.557831 0.0356696 0.131566 0.468136
1 0.444305 0.763133 0.105131 0.200964 0.521549
1 0.357947 0.556626 0.0306633 0.121446 0.588946
0 0.442115 0.760964 0.104506 0.194699 0.70507
