1 0.329722 0.749069 0.0296002 0.0512104 0.339268
1 0.287763 0.747207 0.0268538 0.0549348 0.4377
1 0.318584 0.75 0.0305157 0.0521415 0.553495
1 0.365121 0.753492 0.0186146 0.0451583 0.609829
1 0.34559 0.750698 0.0216662 0.0498138 0.624346
1 0.398535 0.759777 0.0238023 0.0530726 0.727245
