0 0.56485 0.591287 0.0419799 0.123348 0.334279
1 0.565006 0.592511 0.0372807 0.13069 0.383246
1 0.954731 0.575135 0.0372807 0.143906 0.541637
0 0.91839 0.60279 0.0447995 0.207048 0.779066
0 0.87688 0.601077 0.0494987 0.207538 0.814519
1 0.830357 0.605482 0.0460526 0.223201 0.819502
1 0.785088 0.598385 0.0526316 0.238375 0.821981
1 0.729793 0.601077 0.0629699 0.221243 0.84541
