1 0.104976 0.85535 0.0382282 0.143466 0.263922
1 0.583131 0.875473 0.023665 0.09375 0.323963
1 0.637591 0.866004 0.0336772 0.112689 0.414191
1 0.345722 0.863636 0.037318 0.142992 0.497793
1 0.608617 0.875 0.0273058 0.10322 0.667423
1 0.670661 0.860085 0.0336772 0.12358 0.754347
1 0.453883 0.863873 0.0430825 0.143466 0.773552
1 0.491353 0.760417 0.0415655 0.149621 0.843282
