1 0.579336 0.733444 0.014178 0.0392621 0.341943
1 0.58733 0.78122 0.015083 0.0449385 0.436737
1 0.558371 0.722327 0.0126697 0.0425733 0.468375
1 0.571644 0.790681 0.0120664 0.0487228 0.510985
1 0.546154 0.808657 0.0165913 0.0704825 0.72203
