1 0.180134 0.831387 0.0151883 0.0625876 0.272482
1 0.605407 0.829752 0.0309842 0.0695936 0.510655
1 0.561817 0.828818 0.0167072 0.0667912 0.574226
1 0.615431 0.831387 0.0206561 0.0663241 0.584309
1 0.5726 0.831387 0.0212637 0.0681924 0.724463
1 0.506683 0.83092 0.0188335 0.0728631 0.735197
1 0.636239 0.834423 0.0203524 0.0667912 0.735342
1 0.595686 0.829285 0.0200486 0.0677254 0.761633
