1 0.199547 0.39524 0.0166163 0.0699953 0.284386
1 0.183686 0.4972 0.0247734 0.0732618 0.340812
1 0.373867 0.370275 0.0256798 0.0713952 0.372984
1 0.193505 0.496967 0.018429 0.0709286 0.478299
1 0.174169 0.497434 0.0160121 0.075595 0.628024
1 0.429305 0.417172 0.0163142 0.0727951 0.639843
