0 0.303228 0.833494 0.0862818 0.21332 0.261038
0 0.559901 0.751689 0.0328988 0.157819 0.402001
1 0.946617 0.807432 0.106766 0.278958 0.420221
1 0.5973 0.735039 0.0319677 0.132239 0.431196
0 0.596679 0.739624 0.0307263 0.137548 0.486025
1 0.376164 0.738176 0.0391061 0.144305 0.562155
1 0.55928 0.75 0.0360025 0.148649 0.655177
0 0.509777 0.75193 0.0412787 0.162162 0.761768
1 0.468498 0.734797 0.031347 0.148166 0.84302
0 0.962911 0.811776 0.0710739 0.279923 0.844477
1 0.907511 0.804537 0.0546245 0.274131 0.891981
