0 0.838744 0.336941 0.0217458 0.107294 0.274626
1 0.288515 0.352235 0.0177642 0.072 0.315578
1 0.474732 0.375059 0.0183767 0.0611765 0.442591
1 0.748392 0.311765 0.0168453 0.088 0.50772
1 0.111485 0.356706 0.0159265 0.0451765 0.511455
1 0.349158 0.367529 0.0153139 0.0743529 0.546825
1 0.51072 0.383294 0.018683 0.0738824 0.567399
1 0.239357 0.562588 0.0162328 0.0663529 0.585001
1 0.0274119 0.348706 0.0150077 0.0781176 0.58791
1 0.163553 0.578118 0.0226646 0.0597647 0.612797
1 0.821286 0.406588 0.0229709 0.116706 0.671077
1 0.598469 0.737882 0.0367534 0.197647 0.768837
