0 0.556981 0.837034 0.0311641 0.131318 0.306655
1 0.556218 0.831601 0.0339138 0.130846 0.319443
1 0.406661 0.667218 0.0281088 0.047709 0.358636
0 0.448976 0.8453 0.0809655 0.13368 0.598557
1 0.567522 0.672178 0.0204705 0.085026 0.606314
0 0.533456 0.780113 0.0384968 0.16769 0.610024
1 0.736328 0.692726 0.030553 0.124232 0.722649
0 0.356401 0.823571 0.0944088 0.124232 0.778851
1 0.913841 0.682806 0.0378857 0.184695 0.812757
