1 0.0312972 0.85768 0.0160266 0.0958196 0.273527
1 0.252797 0.832785 0.0193529 0.050728 0.27756
1 0.523133 0.716299 0.0120956 0.041334 0.297574
1 0.0486846 0.723344 0.0187481 0.0563645 0.321086
1 0.112791 0.685298 0.0780163 0.0817285 0.364467
1 0.403538 0.831846 0.0323556 0.132457 0.465852
1 0.759752 0.768436 0.0148171 0.0695162 0.560744
1 0.513456 0.807891 0.0157242 0.0911226 0.566926
1 0.533414 0.810005 0.0205624 0.0962893 0.65253
1 0.205624 0.866839 0.0278198 0.119775 0.669149
1 0.142879 0.865195 0.0275174 0.130578 0.762432
1 0.293771 0.830907 0.0202601 0.100517 0.781559
1 0.109162 0.874824 0.0332628 0.134805 0.792072
1 0.580738 0.848286 0.0208648 0.108032 0.802203
