1 0.197231 0.761244 0.0387692 0.157895 0.266662
1 0.532615 0.801675 0.0344615 0.119139 0.316487
1 0.260154 0.760048 0.044 0.155502 0.323945
0 0.531077 0.798565 0.0338462 0.119617 0.374888
0 0.260154 0.758373 0.0483077 0.158852 0.388479
1 0.384769 0.826316 0.0316923 0.0880383 0.403633
1 0.481231 0.810766 0.032 0.130622 0.458821
1 0.608769 0.81866 0.0298462 0.133971 0.474418
0 0.480462 0.80933 0.0329231 0.141148 0.483082
0 0.198308 0.763158 0.0433846 0.158852 0.492236
0 0.168308 0.746412 0.0326154 0.156938 0.514105
1 0.313385 0.436603 0.0409231 0.155502 0.544265
1 0.250769 0.484689 0.0430769 0.091866 0.634438
1 0.268154 0.430622 0.0483077 0.162679 0.647398
1 0.943692 0.39067 0.0830769 0.191866 0.670263
1 0.426308 0.820574 0.0501538 0.126316 0.773669
1 0.592154 0.87201 0.0433846 0.0760766 0.778898
1 0.800923 0.389474 0.0750769 0.177033 0.787998
1 0.867692 0.377512 0.0763077 0.177033 0.805198
