0 0.464589 0.357642 0.0547686 0.043148 0.421713
1 0.709868 0.118353 0.0533522 0.0543908 0.475571
0 0.48135 0.349134 0.0580737 0.0607718 0.529094
0 0.432483 0.412792 0.0651558 0.0932847 0.567175
1 0.162653 0.211486 0.136449 0.198724 0.661561
0 0.487016 0.411273 0.0656279 0.0957156 0.678037
0 0.528093 0.359313 0.0590179 0.0890307 0.744096
1 0.398489 0.131723 0.0491029 0.053783 0.766576
