1 0.623479 0.58076 0.0158151 0.0451306 0.445433
1 0.158303 0.597387 0.0288929 0.0774347 0.483857
1 0.183698 0.92304 0.0206813 0.0655582 0.498441
1 0.470651 0.905226 0.024635 0.105938 0.549177
1 0.264142 0.720903 0.0155109 0.0935867 0.597779
1 0.61101 0.873159 0.0206813 0.0807601 0.62857
1 0.4118 0.916865 0.0304136 0.0845606 0.661406
1 0.185067 0.72304 0.0228102 0.0836105 0.673258
1 0.446472 0.911401 0.0279805 0.0954869 0.766845
