1 0.387849 0.393243 0.0135011 0.0600657 0.360236
1 0.461491 0.394181 0.0159558 0.0722665 0.360263
1 0.138846 0.393712 0.0144216 0.0628813 0.461899
1 0.188095 0.390896 0.0141148 0.0685124 0.557105
1 0.33676 0.392069 0.015649 0.0699202 0.603069
