1 0.727534 0.490019 0.0529501 0.274715 0.447622
1 0.095764 0.405894 0.03177 0.11597 0.514011
1 0.678064 0.552994 0.088351 0.321768 0.525427
0 0.726778 0.488593 0.0508321 0.264259 0.556027
1 0.352799 0.533032 0.0526475 0.326521 0.571832
1 0.24826 0.47885 0.0626324 0.261882 0.586305
0 0.248109 0.478375 0.0599092 0.263783 0.596906
0 0.676853 0.552519 0.0774584 0.331274 0.71403
0 0.871104 0.487643 0.0532526 0.213878 0.714051
1 0.129198 0.723622 0.151891 0.544201 0.802227
1 0.573525 0.646625 0.123147 0.502376 0.812201
1 0.0523449 0.537548 0.0816944 0.310836 0.819797
0 0.88941 0.709363 0.109228 0.571768 0.841161
1 0.286536 0.608365 0.0829047 0.384981 0.84302
