1 0.62523 0.675226 0.0159216 0.0532573 0.263775
1 0.630894 0.716358 0.0192897 0.0480266 0.287032
1 0.71188 0.704232 0.0183711 0.0485021 0.326964
1 0.649571 0.685212 0.0235762 0.0998573 0.378311
1 0.650337 0.710889 0.0183711 0.0532573 0.452338
1 0.738977 0.716833 0.0186773 0.0575369 0.474796
1 0.602266 0.683072 0.0171464 0.0784593 0.495961
1 0.676822 0.717546 0.0168402 0.0494532 0.515457
1 0.704378 0.703519 0.0174525 0.0565858 0.519249
1 0.594458 0.698288 0.0217391 0.0727532 0.540606
0 0.221372 0.615549 0.0300061 0.162149 0.573675
0 0.245101 0.667855 0.0352113 0.186876 0.640857
1 0.557563 0.692582 0.0202082 0.0575369 0.654835
0 0.19259 0.616738 0.0355175 0.175939 0.657444
1 0.247244 0.665953 0.0358236 0.183072 0.703179
1 0.114666 0.584879 0.0352113 0.138849 0.763249
1 0.316442 0.763671 0.0443968 0.191155 0.840095
