1 0.589226 0.824694 0.0177533 0.108388 0.436215
1 0.285124 0.672479 0.0345883 0.066918 0.440688
1 0.598102 0.828935 0.026936 0.110273 0.523016
1 0.271962 0.854618 0.0278543 0.0956645 0.637333
1 0.609887 0.833176 0.0241812 0.123468 0.737363
