1 0.222175 0.430993 0.0871664 0.0847458 0.284479
1 0.665105 0.646893 0.114424 0.167877 0.67824
0 0.866127 0.742938 0.124077 0.338983 0.71978
1 0.867263 0.740718 0.118399 0.346651 0.807696
0 0.507808 0.593019 0.201306 0.633979 0.819786
0 0.732538 0.729419 0.207836 0.367635 0.835451
0 0.273708 0.649314 0.279387 0.551251 0.862139
