1 0.585392 0.52424 0.0200741 0.0722433 0.326657
1 0.625695 0.582937 0.0160593 0.0413498 0.351309
1 0.749537 0.600998 0.0142063 0.0461027 0.421542
1 0.932983 0.588165 0.0315009 0.0860266 0.614024
1 0.236875 0.498574 0.0284126 0.123574 0.670612
1 0.14546 0.38403 0.0210006 0.11692 0.670767
1 0.738728 0.877852 0.0339716 0.226236 0.815273
