1 0.113992 0.542871 0.0217858 0.0691615 0.251303
1 0.773857 0.60019 0.0220927 0.0691615 0.29552
0 0.0929733 0.770962 0.0300706 0.145429 0.324119
1 0.731359 0.705827 0.0223995 0.0596874 0.341266
1 0.704971 0.58361 0.0230132 0.0757935 0.411744
1 0.123197 0.716722 0.0359006 0.074846 0.434377
1 0.68564 0.716485 0.0236269 0.0648982 0.523326
1 0.800245 0.611558 0.0196379 0.063477 0.531412
1 0.837987 0.598768 0.0177969 0.070109 0.557333
1 0.673059 0.591189 0.0193311 0.0871625 0.570058
1 0.626726 0.894837 0.0242406 0.0691615 0.650981
1 0.793035 0.818333 0.0365143 0.0819517 0.762518
1 0.160786 0.886547 0.0343664 0.089531 0.782697
