1 0.749771 0.974832 0.0176775 0.0503356 0.268394
1 0.115971 0.62464 0.0246876 0.0997124 0.27844
1 0.090826 0.915388 0.0158488 0.0599233 0.328704
1 0.475922 0.942474 0.0124962 0.0575264 0.349787
1 0.748705 0.699904 0.0216397 0.05465 0.36346
1 0.797623 0.924976 0.0140201 0.0608821 0.443079
1 0.53947 0.852828 0.0164584 0.0594439 0.48085
