1 0.106952 0.707136 0.0698333 0.17443 0.284216
1 0.179302 0.707879 0.0339729 0.167988 0.292718
1 0.446367 0.65337 0.0232778 0.0520317 0.296077
1 0.870871 0.724727 0.0638566 0.159068 0.309404
0 0.208399 0.707136 0.0336584 0.159564 0.325525
1 0.757628 0.728196 0.0248506 0.108523 0.368342
0 0.439918 0.728692 0.0330293 0.118434 0.409864
0 0.0489148 0.692765 0.036804 0.157582 0.454284
1 0.0500157 0.694004 0.0377477 0.155104 0.464263
1 0.208242 0.703667 0.0364895 0.166501 0.485555
1 0.605851 0.726462 0.0301982 0.112983 0.505338
1 0.56826 0.703667 0.0298836 0.141724 0.515135
1 0.331236 0.724975 0.0352312 0.132805 0.515204
1 0.729632 0.722993 0.0254797 0.12884 0.552105
1 0.156024 0.703419 0.0301982 0.15114 0.596405
1 0.701478 0.719524 0.0358603 0.142716 0.607501
1 0.502988 0.717542 0.0364895 0.148662 0.612563
1 0.296949 0.654113 0.024536 0.0624381 0.629451
1 0.468229 0.713082 0.031771 0.163528 0.634916
1 0.666719 0.714073 0.0324001 0.141724 0.65089
1 0.538691 0.726462 0.031771 0.130823 0.657027
1 0.40453 0.732161 0.0308273 0.11447 0.680593
1 0.127556 0.711348 0.0324001 0.148167 0.727262
1 0.292545 0.732904 0.0301982 0.114965 0.738027
1 0.81425 0.721506 0.0286254 0.134787 0.742417
1 0.439132 0.732408 0.0320856 0.116947 0.746782
1 0.362693 0.704906 0.0339729 0.156095 0.754196
1 0.945895 0.727948 0.0283108 0.136769 0.755166
1 0.640138 0.731169 0.0301982 0.109514 0.75656
1 0.841774 0.725223 0.0289399 0.139247 0.783629
1 0.255269 0.707384 0.0324001 0.150149 0.800587
1 0.0898081 0.704163 0.0349166 0.1556 0.813838
1 0.783737 0.722993 0.0292545 0.124876 0.816346
1 0.916483 0.726214 0.0279962 0.139247 0.859
1 0.883139 0.725719 0.0311419 0.146184 0.86462
