1 0.836406 0.4856 0.0168971 0.0457979 0.254559
1 0.729954 0.499764 0.0147465 0.0542965 0.372923
1 0.235484 0.472144 0.0138249 0.0509915 0.388825
1 0.475115 0.470963 0.0144393 0.0486308 0.402582
1 0.521659 0.506846 0.0141321 0.0646837 0.412333
1 0.525499 0.518414 0.0168971 0.0793201 0.443441
1 0.654071 0.553352 0.0196621 0.0982059 0.455917
1 0.532412 0.534467 0.0172043 0.0793201 0.55967
1 0.614439 0.573182 0.0208909 0.088763 0.609279
1 0.752995 0.640699 0.0227343 0.121813 0.623674
1 0.773426 0.622285 0.0199693 0.0915958 0.686541
