1 0.886072 0.812016 0.0231612 0.0862403 0.265201
1 0.179812 0.863857 0.0178404 0.0755814 0.346761
0 0.916432 0.814196 0.0175274 0.061531 0.378072
1 0.186385 0.854651 0.0184664 0.0697674 0.386539
1 0.210485 0.852713 0.0247261 0.0891473 0.389233
1 0.230986 0.921269 0.0225352 0.11095 0.500086
0 0.896088 0.809835 0.0256651 0.0847868 0.525754
1 0.502034 0.951793 0.0187793 0.0799419 0.660459
1 0.398905 0.911579 0.0253521 0.0993217 0.675579
1 0.894836 0.812016 0.0231612 0.0804264 0.679415
1 0.639437 0.950339 0.0250391 0.0847868 0.715698
1 0.571518 0.938953 0.028795 0.112403 0.775021
