1 0.648906 0.608354 0.0140625 0.0638821 0.250698
0 0.341094 0.490909 0.0196875 0.0471744 0.262639
1 0.900156 0.822113 0.0265625 0.0982801 0.271459
0 0.40875 0.679607 0.030625 0.107125 0.280367
0 0.810313 0.942998 0.029375 0.103194 0.284715
1 0.3625 0.676904 0.044375 0.0958231 0.290326
1 0.947656 0.820639 0.0234375 0.102211 0.326149
1 0.41 0.676167 0.031875 0.0982801 0.332202
1 0.87 0.583538 0.013125 0.046683 0.378684
1 0.527969 0.709091 0.0190625 0.0953317 0.39218
1 0.812813 0.677641 0.018125 0.0963145 0.432984
0 0.0826562 0.297297 0.0228125 0.0599509 0.437666
1 0.672656 0.667568 0.0190625 0.0565111 0.455471
1 0.799531 0.742506 0.0221875 0.0884521 0.461377
1 0.597969 0.597543 0.0184375 0.0717445 0.483312
0 0.277187 0.59484 0.029375 0.0909091 0.496618
1 0.938125 0.677641 0.019375 0.0570025 0.505762
1 0.329844 0.696069 0.0615625 0.113514 0.515735
0 0.223594 0.572236 0.0334375 0.10172 0.591478
1 0.921094 0.821867 0.0265625 0.0889435 0.603176
1 0.623438 0.60688 0.025625 0.0894349 0.645221
1 0.850156 0.737838 0.0240625 0.0791155 0.646447
1 0.253125 0.704177 0.075625 0.158231 0.657162
1 0.763594 0.691646 0.0246875 0.124324 0.659072
1 0.438125 0.79656 0.043125 0.114005 0.663234
0 0.259531 0.573956 0.0346875 0.0619165 0.695217
1 0.247344 0.461179 0.0215625 0.0948403 0.700425
1 0.960625 0.760934 0.02625 0.0918919 0.765289
