0 0.632594 0.502874 0.0659174 0.491379 0.756493
0 0.776731 0.463123 0.136087 0.57567 0.7963
0 0.693044 0.488985 0.12181 0.532567 0.82196
0 0.477825 0.480603 0.0990279 0.589559 0.824985
1 0.274301 0.537596 0.185905 0.666188 0.833521
0 0.377126 0.492098 0.105407 0.527299 0.841759
1 0.168894 0.485153 0.106318 0.574713 0.874324
0 0.56288 0.504789 0.0947752 0.468391 0.883082
