1 0.450713 0.403846 0.0142591 0.0355404 0.378578
0 0.484501 0.760224 0.034098 0.12999 0.401439
1 0.538903 0.634372 0.0238686 0.0856865 0.442705
1 0.529603 0.527507 0.0145691 0.0540409 0.446602
1 0.609733 0.639484 0.016739 0.0754625 0.570746
1 0.483416 0.760711 0.0275883 0.131938 0.584278
1 0.506355 0.586904 0.016429 0.070594 0.60404
1 0.463267 0.629747 0.0207688 0.0900682 0.640224
1 0.458153 0.75998 0.0272784 0.133398 0.670148
1 0.567886 0.716894 0.016739 0.0793573 0.681284
1 0.634532 0.803311 0.0260384 0.124635 0.848426
