1 0.27672 0.761085 0.0202703 0.0523585 0.333022
1 0.933815 0.761792 0.0175061 0.0490566 0.345317
1 0.248772 0.748349 0.0159705 0.0438679 0.412078
1 0.535012 0.8125 0.022113 0.0721698 0.549119
1 0.192875 0.839387 0.0190418 0.0853774 0.564452
1 0.516585 0.814387 0.0202703 0.0731132 0.606036
1 0.252303 0.833726 0.0193489 0.0740566 0.707972
