1 0.0141436 0.797395 0.024557 0.209358 0.297386
1 0.529686 0.744332 0.020516 0.102267 0.307167
1 0.433945 0.773275 0.0292198 0.147612 0.322482
1 0.406124 0.73396 0.016475 0.0979257 0.361896
1 0.0839291 0.750121 0.0416537 0.130246 0.500795
1 0.0340379 0.738784 0.0276655 0.127834 0.529903
0 0.432857 0.771346 0.0295306 0.146647 0.56344
1 0.35732 0.746261 0.0258004 0.114809 0.592694
1 0.546783 0.762663 0.0273547 0.108056 0.636052
1 0.594964 0.749879 0.0341933 0.128799 0.648034
1 0.742928 0.777135 0.026733 0.129281 0.700331
1 0.332297 0.744332 0.026733 0.108056 0.712566
0 0.461921 0.769657 0.0323283 0.148095 0.748724
1 0.497202 0.765316 0.0313957 0.116257 0.756399
1 0.303855 0.75808 0.0419646 0.135552 0.756946
1 0.380323 0.746503 0.0258004 0.111433 0.78443
