1 0.873856 0.711566 0.014338 0.0618753 0.257659
1 0.851739 0.715136 0.0146431 0.0604474 0.515278
1 0.708054 0.778439 0.0183038 0.0699667 0.552421
1 0.386974 0.692527 0.0228798 0.0542599 0.578375
1 0.810098 0.744169 0.0149481 0.065207 0.582685
1 0.644295 0.691337 0.0146431 0.0594955 0.675769
