1 0.0956402 0.722276 0.0365367 0.114786 0.336845
0 0.125883 0.730302 0.0276328 0.102626 0.47546
0 0.0397605 0.726654 0.0389929 0.13716 0.490893
0 0.153669 0.716683 0.0408351 0.145428 0.704704
0 0.0959472 0.722519 0.0371508 0.120136 0.71384
0 0.178846 0.748298 0.0334664 0.120136 0.750494
1 0.514123 0.825875 0.101627 0.289883 0.897749
