0 0.0686881 0.685499 0.0829208 0.257517 0.2521
0 0.0694616 0.679437 0.03125 0.258002 0.278822
0 0.0929765 0.502425 0.0572401 0.117362 0.291115
1 0.0112933 0.49418 0.0207302 0.13579 0.306325
1 0.240254 0.497818 0.101176 0.0703201 0.306512
1 0.986541 0.704656 0.0232054 0.410281 0.30886
0 0.126856 0.488846 0.0668317 0.099903 0.3169
1 0.965656 0.581959 0.0346535 0.179437 0.368787
0 0.135984 0.673375 0.0349629 0.262367 0.375669
0 0.0307859 0.535887 0.041151 0.120272 0.421806
1 0.167079 0.525461 0.0315594 0.085839 0.429171
1 0.129177 0.488361 0.0553837 0.099903 0.444794
1 0.118502 0.483996 0.0977723 0.13967 0.44533
1 0.478032 0.399127 0.0693069 0.172648 0.592741
1 0.228187 0.685742 0.0547649 0.224054 0.636421
0 0.187809 0.682347 0.0414604 0.244423 0.666366
0 0.156869 0.677498 0.0346535 0.242483 0.670056
1 0.574876 0.637003 0.0761139 0.293404 0.696897
0 0.420328 0.384578 0.0516708 0.155189 0.700319
0 0.0409963 0.688894 0.0485767 0.225509 0.742618
0 0.227413 0.685499 0.0563119 0.228419 0.791676
1 0.637376 0.659069 0.0563119 0.210475 0.800542
0 0.102877 0.681135 0.044245 0.254607 0.804979
1 0.337407 0.643792 0.0993193 0.343841 0.815853
1 0.84638 0.545344 0.0776609 0.3516 0.816518
1 0.915377 0.675558 0.0869431 0.480116 0.850921
1 0.694462 0.638458 0.0603342 0.306014 0.853332
1 0.412748 0.658584 0.0717822 0.391853 0.856017
