1 0.278849 0.649524 0.0208142 0.0647619 0.291413
0 0.585399 0.692619 0.0358127 0.201429 0.366296
1 0.86884 0.731905 0.12764 0.352381 0.381706
1 0.522498 0.68619 0.03367 0.190476 0.382581
1 0.931895 0.69881 0.0254056 0.318571 0.388401
1 0.585553 0.694524 0.0385675 0.194762 0.409454
0 0.554484 0.694286 0.0364249 0.205714 0.543196
1 0.554943 0.693571 0.0367309 0.19 0.615018
1 0.421641 0.639286 0.0149985 0.0785714 0.651375
0 0.77487 0.762143 0.0774411 0.325238 0.849348
1 0.630242 0.687619 0.0446893 0.197143 0.868326
1 0.830579 0.757381 0.0676462 0.36619 0.870766
1 0.894092 0.710238 0.0618304 0.348095 0.889565
