0 0.187634 0.274315 0.329354 0.475921 0.416764
0 0.67386 0.753069 0.280686 0.286119 0.54882
1 0.895317 0.761804 0.145087 0.265817 0.670241
0 0.211815 0.741737 0.350781 0.386213 0.778624
0 0.788644 0.285647 0.325375 0.504249 0.865092
