0 0.341664 0.52923 0.0408412 0.256179 0.363596
1 0.343493 0.529705 0.0475465 0.232414 0.516214
1 0.375495 0.528517 0.048156 0.224335 0.725331
1 0.302347 0.531369 0.0420603 0.228137 0.804492
1 0.173728 0.525665 0.0658336 0.294677 0.86844
1 0.423347 0.527567 0.0499848 0.235741 0.868847
1 0.258153 0.532557 0.0670527 0.277091 0.873941
