1 0.465169 0.477622 0.024427 0.0741259 0.307689
1 0.358414 0.59324 0.0292521 0.159907 0.513483
1 0.325392 0.582751 0.035585 0.171562 0.709081
1 0.5 0.502564 0.0386007 0.112821 0.720213
1 0.829011 0.491608 0.0404101 0.145921 0.757302
1 0.208233 0.501865 0.037696 0.112354 0.801378
1 0.6443 0.604196 0.0473462 0.181818 0.846505
1 0.584741 0.595804 0.0404101 0.184615 0.859882
