1 0.220725 0.697534 0.0343866 0.100097 0.252817
1 0.266884 0.702611 0.0195167 0.0996132 0.288985
0 0.339994 0.696325 0.0368649 0.142166 0.40526
1 0.379337 0.698501 0.0387237 0.128143 0.505034
1 0.339374 0.697776 0.0319083 0.135397 0.678984
1 0.233581 0.698985 0.0254027 0.0991296 0.708543
1 0.203841 0.699952 0.0223048 0.0962282 0.7433
1 0.0957249 0.709623 0.0223048 0.106867 0.812961
1 0.171623 0.701161 0.0254027 0.10735 0.86469
