1 0.174726 0.709363 0.0325426 0.0736692 0.269875
1 0.768856 0.692966 0.053528 0.111217 0.405136
1 0.664994 0.677994 0.0264599 0.104087 0.727009
1 0.0550487 0.687262 0.0322384 0.129278 0.768403
1 0.748023 0.690352 0.0240268 0.111692 0.780236
1 0.844282 0.700095 0.0310219 0.119772 0.781111
1 0.778893 0.691302 0.0243309 0.118346 0.83559
