1 0.243884 0.834055 0.0329206 0.133718 0.275164
1 0.254455 0.835498 0.0202356 0.111592 0.564934
1 0.366808 0.843915 0.0305044 0.117845 0.599302
1 0.233162 0.835738 0.0229538 0.128427 0.770864
1 0.160526 0.852573 0.0335246 0.162097 0.781343
1 0.858502 0.819144 0.0226518 0.106782 0.796221
1 0.828451 0.820827 0.0211416 0.108225 0.81341
