0 0.860248 0.426285 0.042236 0.127061 0.271207
1 0.665994 0.404947 0.0512422 0.0795344 0.286049
0 0.808385 0.383851 0.0298137 0.0761397 0.405707
1 0.353106 0.38967 0.0279503 0.0693501 0.406996
0 0.795342 0.397187 0.0490683 0.0795344 0.469339
1 0.627795 0.392823 0.0326087 0.0766246 0.473797
1 0.661646 0.439137 0.0586957 0.110087 0.487431
0 0.765062 0.441562 0.065528 0.140155 0.496872
1 0.819721 0.700049 0.0736025 0.271096 0.50319
1 0.0978261 0.494423 0.0645963 0.265276 0.504269
1 0.59736 0.399612 0.034472 0.0940834 0.567036
1 0.762422 0.445926 0.0645963 0.125606 0.567787
1 0.808696 0.385063 0.0273292 0.0766246 0.633053
1 0.715373 0.442047 0.0555901 0.147915 0.651985
1 0.534317 0.551649 0.0537267 0.266246 0.653994
1 0.306366 0.691319 0.0798137 0.227449 0.702628
1 0.644099 0.666828 0.0732919 0.309408 0.727056
1 0.914907 0.427013 0.0440994 0.103298 0.730277
1 0.859006 0.411736 0.0465838 0.100873 0.731535
1 0.386957 0.440349 0.0347826 0.155189 0.743746
0 0.307609 0.689864 0.0897516 0.227449 0.759477
0 0.534783 0.550436 0.0540373 0.265761 0.759644
0 0.645652 0.665373 0.0813665 0.303589 0.760128
1 0.979814 0.556014 0.0378882 0.257517 0.797495
1 0.451242 0.665616 0.0937888 0.230359 0.800773
1 0.83323 0.523763 0.0496894 0.197866 0.82803
1 0.457609 0.458778 0.0568323 0.174588 0.86203
