0 0.779497 0.711889 0.0346307 0.142857 0.273832
1 0.239504 0.730825 0.0389212 0.191275 0.360229
1 0.199663 0.732982 0.0425988 0.189837 0.375643
0 0.200276 0.734899 0.0438247 0.189837 0.455548
1 0.521606 0.66395 0.0171621 0.0680729 0.471013
1 0.354735 0.719319 0.0352436 0.159636 0.589417
1 0.252682 0.757191 0.0297272 0.150048 0.636656
1 0.0901011 0.731304 0.0404536 0.180729 0.666306
0 0.0894882 0.729386 0.0429053 0.190316 0.670783
1 0.779497 0.713087 0.0309531 0.136625 0.679734
0 0.234753 0.724353 0.0343242 0.19559 0.72338
1 0.284401 0.720997 0.0318725 0.161074 0.762547
1 0.811983 0.714046 0.0303402 0.141419 0.793376
1 0.130555 0.732742 0.036776 0.182646 0.813972
1 0.982072 0.75791 0.0334048 0.174497 0.816388
1 0.166565 0.727229 0.0358566 0.173538 0.820159
