1 0.13527 0.644529 0.0149953 0.0707119 0.253312
1 0.81084 0.634735 0.0328023 0.0702341 0.283272
1 0.798657 0.634496 0.0171821 0.0697563 0.516351
1 0.765073 0.638796 0.0212434 0.0688008 0.602694
1 0.822555 0.634496 0.0199938 0.0774009 0.620476
1 0.110122 0.641185 0.024055 0.0840898 0.667677
1 0.494533 0.607023 0.022493 0.0740564 0.669452
1 0.7393 0.638079 0.0184317 0.0673674 0.6811
1 0.866292 0.658863 0.0231178 0.10989 0.803838
