1 0.374885 0.662857 0.0227203 0.113333 0.3765
1 0.655051 0.651905 0.0285539 0.1 0.396846
1 0.664108 0.647857 0.0141234 0.0995238 0.419653
1 0.64323 0.654524 0.0270187 0.0871429 0.714334
1 0.332054 0.657857 0.0285539 0.118571 0.805295
