1 0.381348 0.631352 0.024623 0.0594439 0.297798
1 0.537704 0.630872 0.0233918 0.075743 0.310174
1 0.420129 0.631831 0.0233918 0.0623202 0.322557
1 0.293475 0.653164 0.0200062 0.0925216 0.32716
1 0.469067 0.630872 0.0258541 0.0623202 0.354612
1 0.178978 0.636865 0.0175439 0.0666347 0.398645
1 0.394275 0.631831 0.0196984 0.0680729 0.547207
1 0.15374 0.638543 0.0169283 0.0728667 0.614835
1 0.637581 0.182407 0.238535 0.288111 0.648972
1 0.856725 0.65652 0.0323176 0.170182 0.7596
1 0.731918 0.651246 0.0313943 0.126079 0.789475
1 0.0981841 0.637105 0.0270853 0.106424 0.799207
1 0.653278 0.641419 0.0267775 0.123682 0.804235
1 0.934595 0.666826 0.0372422 0.174497 0.847401
1 0.0470914 0.635427 0.0313943 0.119367 0.866449
