0 0.737391 0.577849 0.0333126 0.102652 0.456458
1 0.736768 0.57613 0.0320672 0.105108 0.464536
0 0.276308 0.569499 0.0239726 0.0692534 0.470568
1 0.678549 0.578831 0.0252179 0.0859528 0.559823
1 0.462329 0.545432 0.01868 0.095776 0.575628
1 0.437422 0.54666 0.0180573 0.0785855 0.609992
