1 0.226356 0.709459 0.0177628 0.0300983 0.406314
1 0.509842 0.941953 0.0432069 0.0927518 0.442294
1 0.81469 0.630375 0.0278445 0.0402334 0.453399
1 0.240518 0.648342 0.0192031 0.0313268 0.465422
1 0.244119 0.712224 0.0216035 0.0399263 0.489116
1 0.205713 0.650031 0.0196831 0.0316339 0.530709
1 0.569611 0.961763 0.0408065 0.0611179 0.553156
1 0.43735 0.906787 0.0288046 0.0598894 0.580483
1 0.346135 0.832463 0.0259241 0.0519042 0.62407
1 0.405905 0.903256 0.0283245 0.0546683 0.694142
1 0.299088 0.940264 0.0326452 0.0709459 0.725543
