1 0.401394 0.732591 0.0266586 0.103742 0.2728
0 0.700242 0.757698 0.0263557 0.096163 0.28814
0 0.598304 0.757224 0.0278703 0.109427 0.341229
0 0.81233 0.518948 0.0215086 0.0857414 0.371085
1 0.685095 0.758171 0.0251439 0.101847 0.424636
1 0.627689 0.765277 0.0242351 0.0980578 0.476915
0 0.62784 0.761724 0.0269615 0.0824254 0.521104
0 0.686004 0.757224 0.0275674 0.0980578 0.648729
0 0.660254 0.759119 0.0299909 0.0933207 0.659664
1 0.597849 0.759119 0.0281733 0.119848 0.670731
