1 0.283594 0.397338 0.150903 0.427757 0.375107
1 0.165901 0.313451 0.0477502 0.204848 0.401633
1 0.657331 0.474335 0.0945822 0.715779 0.481586
0 0.164677 0.314639 0.0483624 0.209125 0.668067
0 0.582032 0.504515 0.246403 0.943441 0.73699
1 0.0186716 0.365257 0.0312213 0.342681 0.76983
0 0.306091 0.393298 0.108356 0.485266 0.821379
0 0.402816 0.486454 0.145087 0.822719 0.855254
1 0.229721 0.39924 0.0853994 0.438213 0.883472
1 0.108815 0.355989 0.0719314 0.375475 0.908058
