1 0.0313168 0.409848 0.0180263 0.0946717 0.257073
1 0.421937 0.371789 0.0244424 0.0623216 0.31615
1 0.398258 0.368459 0.0174152 0.0642245 0.43985
1 0.0595784 0.411989 0.0219982 0.100856 0.672337
1 0.0421632 0.414129 0.020776 0.0918173 0.681268
