1 0.763198 0.830092 0.0205648 0.0607681 0.291428
1 0.735727 0.825474 0.0263966 0.0709772 0.556114
1 0.364334 0.793388 0.0362185 0.137093 0.605559
1 0.106047 0.736266 0.0267035 0.126884 0.68736
1 0.14426 0.737482 0.0288521 0.142927 0.741527
