1 0.66953 0.583453 0.116637 0.225729 0.288162
0 0.534659 0.499044 0.0307414 0.0683883 0.470308
1 0.138336 0.719034 0.0886076 0.457676 0.487125
1 0.694846 0.577953 0.0545509 0.217599 0.543563
0 0.501658 0.644189 0.0479204 0.230512 0.567585
1 0.34991 0.650406 0.0626884 0.318508 0.5687
1 0.535262 0.501435 0.0289331 0.0674319 0.569217
1 0.0681133 0.728121 0.074141 0.469154 0.671482
1 0.443791 0.633429 0.0611814 0.318986 0.694282
1 0.639241 0.590626 0.0536468 0.244859 0.712933
1 0.597951 0.609278 0.0385775 0.235294 0.720937
1 0.733574 0.569106 0.0289331 0.192253 0.736296
0 0.553797 0.637255 0.0533454 0.224295 0.766943
1 0.762658 0.566714 0.0340567 0.195122 0.775624
1 0.501658 0.647537 0.0467149 0.221903 0.782003
1 0.306058 0.713773 0.0479204 0.31516 0.818195
0 0.444093 0.628407 0.0635925 0.312769 0.83056
0 0.136377 0.716404 0.0955395 0.44285 0.834364
0 0.382158 0.705404 0.053044 0.238164 0.867639
0 0.224231 0.713056 0.0976492 0.371114 0.907069
