1 0.524909 0.617328 0.018226 0.0901794 0.561008
1 0.737242 0.588527 0.0200486 0.0590179 0.571486
1 0.460207 0.628659 0.0157959 0.0712937 0.609159
1 0.52901 0.733947 0.0276428 0.101511 0.675286
1 0.488761 0.748111 0.0243013 0.100567 0.734772
