1 0.457495 0.791587 0.0186242 0.0565589 0.260355
1 0.36137 0.801331 0.0228297 0.0798479 0.26961
1 0.499399 0.781369 0.0117152 0.0342205 0.290038
1 0.0764494 0.822481 0.0285371 0.125951 0.431399
1 0.791379 0.812025 0.0195254 0.0936312 0.457038
1 0.13863 0.839354 0.0249324 0.11597 0.478667
1 0.626464 0.811787 0.0165215 0.0731939 0.483335
1 0.634275 0.811312 0.0249324 0.0798479 0.5376
1 0.285221 0.819154 0.0231301 0.110741 0.615983
1 0.762391 0.813451 0.0204266 0.0907795 0.62247
1 0.649144 0.811787 0.019225 0.0741445 0.62316
1 0.706218 0.82058 0.0174227 0.102186 0.624215
1 0.728747 0.814639 0.0216281 0.111217 0.635219
1 0.203515 0.830086 0.0249324 0.143061 0.663783
1 0.677531 0.827709 0.0219285 0.10884 0.696428
1 0.311205 0.802994 0.0234305 0.09173 0.81884
