1 0.404615 0.832678 0.0223597 0.036578 0.29797
1 0.242388 0.79731 0.0242626 0.0323458 0.341752
1 0.0749286 0.757709 0.0214082 0.0317412 0.346996
1 0.440295 0.847037 0.0233111 0.0344619 0.384613
1 0.497383 0.797763 0.0233111 0.0332527 0.386356
1 0.697193 0.769952 0.0242626 0.0332527 0.445744
1 0.159848 0.793077 0.0228354 0.0353688 0.517249
