0 0.500716 0.275748 0.0954654 0.217008 0.58935
1 0.662768 0.587402 0.0568019 0.166299 0.700404
1 0.499761 0.277953 0.102148 0.220787 0.819896
1 0.611933 0.591024 0.09642 0.174803 0.868744
1 0.488544 0.592756 0.0997613 0.173228 0.878064
