1 0.398483 0.485156 0.0370258 0.156927 0.257398
1 0.130653 0.470547 0.0294385 0.139962 0.400123
1 0.489378 0.537465 0.0798179 0.254948 0.466096
1 0.533232 0.432375 0.0254932 0.0975495 0.609017
0 0.487405 0.53935 0.0795144 0.254948 0.638753
1 0.214871 0.455938 0.029742 0.132422 0.691658
1 0.688771 0.42295 0.0239757 0.0824694 0.696086
1 0.744613 0.410697 0.0257967 0.103205 0.789577
1 0.355083 0.492224 0.0497724 0.159755 0.820187
