0 0.119595 0.390379 0.160811 0.149854 0.274021
0 0.242342 0.3793 0.188288 0.176093 0.281205
0 0.471396 0.361079 0.18964 0.150729 0.362545
1 0.468468 0.36414 0.196396 0.144023 0.36434
1 0.243919 0.377114 0.186937 0.172886 0.450745
1 0.671171 0.331778 0.184685 0.255977 0.485599
0 0.672523 0.332216 0.18018 0.25277 0.520429
1 0.471622 0.780321 0.145946 0.279009 0.539381
0 0.809685 0.288484 0.128378 0.242274 0.564418
