27 0.254858 0.527585 0.0212257 0.123319 0.315411
18 0.469208 0.702828 0.345889 0.478442 0.338376
28 0.469955 0.713723 0.346188 0.476124 0.340733
21 0.467414 0.710478 0.344096 0.479833 0.357355
19 0.467414 0.710941 0.344096 0.477979 0.365733
27 0.252466 0.496291 0.0170404 0.0607325 0.435973
0 0.254111 0.637228 0.261883 0.678257 0.879909
0 0.657997 0.514835 0.292377 0.912842 0.952547
