2 0.082716 0.807473 0.0469136 0.0385531 0.350089
2 0.227315 0.822228 0.0256173 0.078534 0.388904
2 0.206019 0.804855 0.0373457 0.0371252 0.401706
13 0.156173 0.855545 0.0351852 0.0547358 0.444399
2 0.0311728 0.824607 0.0185185 0.0585436 0.481236
2 0.0651235 0.821276 0.0808642 0.0623513 0.539728
2 0.251852 0.817468 0.0296296 0.0566397 0.575678
0 0.227006 0.824369 0.025 0.0885293 0.595142
2 0.608951 0.800809 0.0493827 0.0242742 0.680004
0 0.174383 0.823417 0.0283951 0.107568 0.687322
2 0.944753 0.814136 0.0728395 0.0585436 0.84148
2 0.133025 0.823179 0.0679012 0.0594955 0.846079
