0 0.205683 0.480989 0.0160593 0.0579848 0.258748
0 0.363959 0.538973 0.0176035 0.0237643 0.262717
0 0.148548 0.489068 0.0154416 0.0617871 0.262926
0 0.618901 0.484316 0.00988264 0.0142586 0.277887
0 0.870908 0.469344 0.0154416 0.0261407 0.30268
0 0.92866 0.533745 0.0123533 0.0256654 0.316622
0 0.753552 0.497148 0.00988264 0.0209125 0.359288
0 0.897004 0.53327 0.0120445 0.0218631 0.422473
0 0.927579 0.589116 0.0386041 0.0888783 0.423429
0 0.866275 0.53826 0.0105003 0.0175856 0.491047
25 0.0395306 0.426806 0.0549722 0.0446768 0.521839
0 0.0697962 0.528517 0.0586782 0.122624 0.525872
0 0.58462 0.526854 0.0172946 0.0632129 0.579407
25 0.306671 0.527567 0.0463249 0.146388 0.622025
0 0.624923 0.582224 0.0157505 0.0294677 0.627734
0 0.749228 0.601473 0.0142063 0.0327947 0.664957
0 0.239345 0.502139 0.0253243 0.125 0.705051
0 0.145151 0.389734 0.01853 0.115019 0.706457
0 0.738573 0.877852 0.0324274 0.243346 0.891227
