0 0.391996 0.877201 0.0202507 0.0270188 0.253668
0 0.619817 0.874772 0.0139826 0.0215543 0.259352
0 0.434426 0.874924 0.0163934 0.0255009 0.2666
0 0.471794 0.873558 0.0168756 0.0245902 0.283434
2 0.70974 0.917274 0.146577 0.0494839 0.308961
2 0.786885 0.92031 0.306654 0.0555556 0.642801
2 0.524831 0.894353 0.13838 0.0400729 0.663449
2 0.274349 0.88054 0.155256 0.0385549 0.695479
2 0.0863067 0.881907 0.099325 0.0346084 0.758799
2 0.385728 0.93048 0.183221 0.0564663 0.83838
