17 0.0586869 0.957473 0.0764943 0.0732547 0.345488
0 0.300248 0.894789 0.012078 0.058997 0.362265
0 0.112883 0.904376 0.0108393 0.0358899 0.379685
0 0.102354 0.921829 0.0250852 0.0599803 0.474232
17 0.0961598 0.957227 0.0572933 0.0757129 0.56887
0 0.312945 0.894543 0.0108393 0.0594887 0.581335
17 0.446113 0.935595 0.0572933 0.0983284 0.735826
