0 0.505929 0.828418 0.0559441 0.0791199 0.268386
56 0.0434783 0.798923 0.0735786 0.134363 0.294472
0 0.224384 0.662921 0.0741867 0.226592 0.295929
0 0.158863 0.769897 0.118273 0.18867 0.334256
56 0.518091 0.691011 0.0443904 0.11236 0.399206
56 0.207814 0.779728 0.0629371 0.169007 0.440259
56 0.422165 0.755618 0.0574643 0.147004 0.476908
60 0.393585 0.731742 0.109152 0.151685 0.587206
60 0.0982061 0.790262 0.0960778 0.146067 0.635262
