2 0.676983 0.854951 0.0691106 0.0437006 0.266663
7 0.0769231 0.866109 0.0348558 0.0455602 0.368335
2 0.0776743 0.866341 0.0327524 0.0460251 0.460579
13 0.883564 0.84728 0.0471755 0.0255695 0.461399
2 0.129507 0.868898 0.0546875 0.0529986 0.64764
74 0.851863 0.382845 0.00961538 0.0348675 0.651725
74 0.809946 0.381683 0.023137 0.0344026 0.827584
