0 0.62116 0.472249 0.0273038 0.121531 0.250668
0 0.110922 0.443062 0.0139621 0.0526316 0.26064
0 0.229134 0.510048 0.0269935 0.0507177 0.264774
0 0.172975 0.717943 0.0394043 0.0885167 0.272339
0 0.228824 0.744498 0.0238908 0.0650718 0.285063
0 0.168011 0.751914 0.124418 0.149761 0.321493
0 0.901334 0.526794 0.0490226 0.220096 0.353646
0 0.302048 0.625359 0.042507 0.0956938 0.484838
25 0.572913 0.507177 0.0394043 0.125359 0.524419
0 0.774744 0.554067 0.0428172 0.18756 0.54064
0 0.846416 0.510526 0.0415762 0.166507 0.551609
0 0.253801 0.473206 0.0322681 0.0880383 0.5695
0 0.812907 0.561962 0.0527459 0.167943 0.606133
25 0.411108 0.527034 0.0856345 0.115311 0.62426
0 0.4305 0.658373 0.0524356 0.167464 0.629554
0 0.950047 0.518421 0.0651567 0.243541 0.638408
0 0.374186 0.645455 0.0819113 0.202871 0.701526
0 0.204002 0.763876 0.0598821 0.118182 0.753034
0 0.704623 0.549761 0.0452994 0.205742 0.776463
0 0.665374 0.633014 0.0760161 0.243062 0.8393
0 0.135743 0.73756 0.0555383 0.197608 0.842273
25 0.803134 0.449043 0.0915296 0.0866029 0.843777
0 0.55197 0.583014 0.062054 0.216746 0.870733
25 0.279553 0.705981 0.0943221 0.111483 0.89977
