0 0.780259 0.492091 0.03122 0.0249921 0.274918
0 0.620557 0.366656 0.0211335 0.0151851 0.315568
0 0.579011 0.378361 0.0139289 0.0227776 0.34041
0 0.254083 0.492407 0.0240154 0.0281556 0.349295
0 0.56292 0.416166 0.0153698 0.023094 0.358319
0 0.28194 0.709902 0.0288184 0.0335337 0.387508
0 0.967819 0.466308 0.0134486 0.0259412 0.412501
0 0.414505 0.442581 0.0134486 0.0215122 0.412975
0 0.260327 0.7031 0.0182517 0.0344828 0.440515
0 0.509366 0.777918 0.0264169 0.024043 0.468871
0 0.790106 0.495255 0.0153698 0.0199304 0.489239
0 0.771374 0.489877 0.0163305 0.0281556 0.600612
0 0.45341 0.76479 0.0220941 0.0370136 0.618274
0 0.394573 0.35068 0.0158501 0.0237267 0.683744
0 0.584294 0.532268 0.0206532 0.0313192 0.71793
0 0.560279 0.529579 0.0235351 0.0379627 0.744843
