33 0.695474 0.52101 0.085966 0.0760151 0.434552
0 0.736786 0.588999 0.0191373 0.0505194 0.714855
0 0.459903 0.631728 0.0194411 0.0670444 0.79303
0 0.524909 0.622757 0.0188335 0.0812087 0.817271
0 0.529921 0.735836 0.032503 0.100567 0.838384
0 0.488305 0.75 0.0239976 0.104344 0.851388
