0 0.455856 0.56974 0.0166869 0.093617 0.302411
0 0.504703 0.582033 0.0197209 0.0813239 0.478603
0 0.277154 0.569031 0.0185073 0.098818 0.610449
0 0.543538 0.576832 0.0245752 0.0926714 0.623816
0 0.297785 0.573286 0.0233617 0.0827423 0.744738
