0 0.348912 0.434363 0.0101134 0.015444 0.333644
0 0.808765 0.58832 0.0226785 0.0492278 0.356817
0 0.498161 0.574324 0.0260496 0.03861 0.39111
0 0.603279 0.585907 0.0217591 0.0357143 0.413673
0 0.815967 0.510135 0.013791 0.0733591 0.653187
8 0.542599 0.500965 0.0468894 0.0820463 0.669891
0 0.806313 0.645753 0.036163 0.112934 0.682203
0 0.471345 0.629585 0.0263561 0.116313 0.722977
0 0.76969 0.644064 0.0272755 0.125965 0.725379
8 0.68909 0.449566 0.0376954 0.0593629 0.735233
0 0.656758 0.576737 0.0134845 0.0849421 0.772807
0 0.526969 0.639237 0.0278884 0.124035 0.810584
0 0.554245 0.640203 0.0346307 0.129826 0.830907
