25 0.0292317 0.633333 0.0284665 0.0335697 0.250261
0 0.245791 0.72435 0.0238751 0.108747 0.417125
0 0.479645 0.6513 0.00918274 0.0297872 0.434095
0 0.0786654 0.700709 0.0165289 0.0813239 0.463906
25 0.195592 0.602364 0.0410162 0.0794326 0.52074
0 0.212427 0.701891 0.0177533 0.0969267 0.52946
0 0.844812 0.661466 0.020202 0.0983452 0.588714
0 0.73768 0.66643 0.0153046 0.0713948 0.594295
0 0.106214 0.706383 0.0312213 0.117258 0.654479
0 0.265381 0.718676 0.0244873 0.104965 0.668162
0 0.0332109 0.721513 0.0211203 0.135225 0.675432
0 0.0515764 0.734515 0.0352005 0.144208 0.757304
0 0.50903 0.675177 0.0232629 0.0794326 0.786389
0 0.161769 0.722695 0.0266299 0.137589 0.796421
