4 0.765817 0.527027 0.249693 0.596965 0.475418
0 0.824785 0.75486 0.0279484 0.0350877 0.490922
0 0.76336 0.72973 0.0353194 0.0521574 0.518865
0 0.726505 0.727122 0.0242629 0.0526316 0.633513
0 0.85519 0.745377 0.0322482 0.0455192 0.64046
0 0.691032 0.745614 0.0214988 0.0422001 0.642418
8 0.767045 0.523471 0.24785 0.579422 0.824066
