2 0.953342 0.848272 0.092701 0.107161 0.318887
2 0.763474 0.85979 0.149061 0.145218 0.671352
74 0.526178 0.255383 0.0200185 0.0410616 0.732858
1 0.0726825 0.872058 0.0991685 0.132699 0.747348
0 0.671389 0.851527 0.0197105 0.090636 0.824357
2 0.505236 0.911617 0.177703 0.140711 0.824774
