0 0.684536 0.775096 0.00634249 0.0282027 0.272159
0 0.384627 0.891013 0.0443975 0.142447 0.425284
2 0.840079 0.904398 0.12232 0.122371 0.537642
3 0.803081 0.720602 0.0712776 0.0607075 0.592489
0 0.50604 0.814532 0.0166113 0.08413 0.727052
0 0.493053 0.815727 0.0184234 0.084608 0.727677
