0 0.635414 0.791509 0.0578613 0.182075 0.266417
27 0.891851 0.860142 0.014541 0.0985849 0.270282
0 0.871251 0.814387 0.0508937 0.260849 0.283958
0 0.247955 0.791038 0.0281733 0.103774 0.298987
0 0.665859 0.681368 0.0284762 0.101415 0.331673
0 0.798091 0.742453 0.0360497 0.174528 0.337768
25 0.821872 0.528302 0.0472584 0.0292453 0.405989
0 0.726447 0.710141 0.0351409 0.136321 0.414387
0 0.948955 0.829009 0.0433202 0.231604 0.421702
0 0.27113 0.745519 0.0272645 0.0570755 0.431992
0 0.677976 0.831368 0.0617995 0.208962 0.44698
0 0.327779 0.776179 0.0448349 0.0938679 0.452335
13 0.279915 0.800236 0.160557 0.0891509 0.527785
0 0.208876 0.591509 0.0190851 0.0698113 0.58262
0 0.199788 0.80566 0.024538 0.0830189 0.591387
0 0.906998 0.840802 0.0672523 0.208019 0.625247
0 0.31854 0.638915 0.0190851 0.0778302 0.713428
0 0.120872 0.791981 0.0218116 0.10566 0.737929
0 0.75053 0.793868 0.0675553 0.273585 0.800526
0 0.825204 0.817453 0.0624053 0.253774 0.845103
