0 0.687141 0.849501 0.0151286 0.0527817 0.29149
0 0.290772 0.854018 0.012708 0.0494532 0.326267
0 0.309682 0.857347 0.0111952 0.0494532 0.342947
0 0.70711 0.849738 0.0151286 0.0618165 0.345855
0 0.277458 0.872325 0.0175492 0.062292 0.381289
14 0.15764 0.0727532 0.0163389 0.0247266 0.382055
74 0.624508 0.535426 0.0163389 0.0237756 0.428132
0 0.255825 0.856396 0.0142209 0.0599144 0.518989
0 0.821029 0.844032 0.0130106 0.0551593 0.520255
0 0.859909 0.841655 0.0133132 0.0551593 0.547536
0 0.555219 0.859486 0.0175492 0.0708512 0.555902
0 0.809077 0.845221 0.0133132 0.0527817 0.584834
5 0.495008 0.833333 0.0217852 0.0461246 0.63778
1 0.276551 0.896339 0.0580938 0.0494532 0.682388
0 0.958396 0.844032 0.0178517 0.0599144 0.702565
0 0.873374 0.843319 0.0111952 0.0565858 0.747372
2 0.0892587 0.882549 0.118003 0.163576 0.797872
0 0.840393 0.859486 0.019062 0.0917737 0.811003
