2 0.644515 0.872637 0.035865 0.0316635 0.28122
2 0.908228 0.792297 0.0274262 0.0259924 0.290927
2 0.679777 0.855624 0.0334539 0.0297732 0.291768
2 0.693791 0.835066 0.0271248 0.0217391 0.355192
2 0.948162 0.744093 0.021097 0.0203214 0.394699
2 0.635775 0.886342 0.0400844 0.0316635 0.406188
2 0.92179 0.77741 0.0370705 0.036862 0.41677
2 0.879445 0.851607 0.0355636 0.0302457 0.419389
2 0.659132 0.865076 0.0283303 0.0326087 0.420021
2 0.714436 0.828686 0.0334539 0.028828 0.425047
2 0.611513 0.89603 0.0470163 0.0359168 0.437293
2 0.947408 0.812854 0.0298373 0.026465 0.467064
2 0.816908 0.836957 0.0370705 0.0255198 0.506648
2 0.208107 0.853261 0.0346594 0.0326087 0.513191
2 0.890295 0.845699 0.0355636 0.028828 0.525789
7 0.116486 0.847354 0.0587703 0.0586011 0.60224
2 0.788577 0.851843 0.0400844 0.0259924 0.603018
2 0.143611 0.885161 0.0443038 0.0283554 0.608839
2 0.171187 0.871456 0.0337553 0.0293006 0.610656
2 0.83921 0.869329 0.0310428 0.0307183 0.623029
2 0.859102 0.861767 0.0322483 0.0316635 0.632037
2 0.897679 0.801749 0.0388788 0.0326087 0.638864
