10 0.780252 0.778613 0.0138206 0.057711 0.303239
7 0.925215 0.721872 0.148956 0.173133 0.376679
2 0.204238 0.765034 0.253071 0.128516 0.494115
0 0.0687961 0.747333 0.029484 0.0892338 0.540853
2 0.0297912 0.765519 0.0589681 0.101358 0.626952
25 0.556204 0.684772 0.0472973 0.0368574 0.823406
0 0.539773 0.75582 0.0297912 0.136275 0.850513
