13 0.885137 0.848048 0.0482364 0.0269517 0.321052
7 0.0734097 0.865009 0.0358758 0.0460037 0.423894
74 0.853934 0.384758 0.00934579 0.0325279 0.431163
2 0.128279 0.868959 0.0545674 0.0557621 0.481459
7 0.127977 0.868959 0.0539644 0.0548327 0.522419
2 0.553361 0.86408 0.0569792 0.0469331 0.535547
2 0.678173 0.856877 0.0696412 0.045539 0.669954
74 0.811125 0.3829 0.0220078 0.0334572 0.828801
