56 0.79375 0.834327 0.130114 0.270957 0.276866
58 0.434517 0.657529 0.0480114 0.0683353 0.364821
58 0.34304 0.652761 0.0872159 0.140644 0.367424
58 0.461648 0.641438 0.0244318 0.0655542 0.432
58 0.656392 0.659118 0.0883523 0.143822 0.740364
58 0.538352 0.650179 0.0477273 0.0655542 0.798731
