13 0.62133 0.77106 0.126483 0.111992 0.397875
13 0.935041 0.771556 0.121174 0.157582 0.705809
0 0.74391 0.77775 0.0549656 0.118434 0.728089
0 0.828232 0.762389 0.0430981 0.230426 0.83723
0 0.27639 0.644202 0.0518426 0.200198 0.840178
17 0.268894 0.730922 0.188007 0.240833 0.936908
