0 0.429608 0.693265 0.0151281 0.0863836 0.350097
0 0.365391 0.82162 0.0682309 0.131284 0.359465
0 0.559741 0.693753 0.0191417 0.0990727 0.407701
0 0.557116 0.733773 0.0169805 0.0863836 0.484574
0 0.0856746 0.677648 0.0182155 0.0727184 0.496845
0 0.361994 0.727672 0.0200679 0.108346 0.594298
0 0.0622106 0.691069 0.0194504 0.0829673 0.610589
0 0.0214572 0.710347 0.0342698 0.101025 0.62184
0 0.529639 0.741093 0.0157456 0.10981 0.623249
0 0.460019 0.716447 0.0154369 0.104441 0.743863
0 0.384687 0.822352 0.0370485 0.121035 0.812731
0 0.239734 0.702294 0.0182155 0.0839434 0.818815
0 0.197283 0.713031 0.0216116 0.11225 0.827056
0 0.346558 0.82162 0.0324174 0.138116 0.848643
