75 0.652758 0.544813 0.0206506 0.0174274 0.297413
13 0.426733 0.676556 0.323338 0.304149 0.297982
75 0.101697 0.610788 0.0274399 0.0298755 0.365204
58 0.651485 0.51473 0.0684583 0.0784232 0.646128
58 0.111598 0.566805 0.0891089 0.122822 0.741372
57 0.425318 0.670747 0.323338 0.292531 0.761457
56 0.762942 0.677593 0.103536 0.245643 0.924821
