9 0.695263 0.591968 0.00941391 0.0480038 0.335693
9 0.678712 0.584125 0.0109323 0.0437262 0.340389
2 0.83556 0.705799 0.0555724 0.0313688 0.548451
2 0.679623 0.704848 0.0570908 0.0294677 0.560326
2 0.941239 0.709125 0.051321 0.026616 0.581496
2 0.325843 0.693203 0.0668084 0.043251 0.716345
2 0.775433 0.706036 0.0476769 0.0270913 0.729505
2 0.556483 0.701046 0.0604312 0.0342205 0.743433
2 0.0891285 0.704373 0.101124 0.0646388 0.754537
2 0.493471 0.697956 0.0655937 0.0356464 0.802567
2 0.422107 0.69558 0.0655937 0.0375475 0.802798
2 0.230489 0.699382 0.0886729 0.0480038 0.833865
