8 0.0954758 0.441461 0.0804992 0.053701 0.30949
8 0.639626 0.583212 0.160998 0.0875665 0.312307
8 0.468643 0.450653 0.1117 0.0401548 0.313327
0 0.154602 0.402274 0.0234009 0.0430576 0.33062
8 0.381903 0.709966 0.726365 0.181422 0.344539
0 0.79688 0.465167 0.0318253 0.0836962 0.363892
8 0.568955 0.546928 0.324181 0.156265 0.376499
0 0.275819 0.389695 0.0274571 0.0430576 0.381826
0 0.238066 0.409773 0.0380655 0.05612 0.389919
8 0.729953 0.499758 0.189392 0.102564 0.393023
0 0.217785 0.390421 0.0193448 0.0445089 0.395413
8 0.211076 0.520319 0.405928 0.0730527 0.409211
0 0.620749 0.499516 0.0446178 0.107886 0.420184
0 0.779563 0.531447 0.0290172 0.0856313 0.426577
0 0.735101 0.418239 0.0218409 0.0362845 0.430463
8 0.414509 0.358249 0.0290172 0.0179003 0.456829
0 0.463651 0.419207 0.0193448 0.0498307 0.477832
0 0.49532 0.488873 0.048986 0.0711176 0.481398
8 0.327613 0.640058 0.621529 0.138365 0.493112
8 0.281903 0.57402 0.537597 0.100145 0.502848
0 0.363183 0.458878 0.0355694 0.0778907 0.526292
0 0.337129 0.428882 0.025273 0.0759555 0.5442
8 0.907956 0.539913 0.135413 0.0474117 0.547217
8 0.488924 0.383648 0.0736349 0.0232221 0.557303
0 0.179563 0.410256 0.024649 0.0483793 0.582708
0 0.757566 0.407837 0.0230889 0.0483793 0.610643
0 0.299844 0.463716 0.0330733 0.0856313 0.666154
0 0.332761 0.460813 0.0402496 0.0836962 0.667364
0 0.291264 0.422109 0.0308892 0.0778907 0.671225
0 0.662871 0.440493 0.0439938 0.0624093 0.675873
0 0.395164 0.423561 0.0396256 0.0614417 0.676663
0 0.827613 0.470972 0.0477379 0.10208 0.682152
0 0.606084 0.522013 0.0702028 0.11611 0.715214
0 0.0455538 0.367925 0.024337 0.132075 0.753507
0 0.93947 0.690856 0.0979719 0.217707 0.768572
0 0.700936 0.44896 0.0308892 0.0686986 0.769693
0 0.753198 0.57402 0.0848674 0.229802 0.805664
0 0.936349 0.484277 0.0605304 0.0899855 0.807756
0 0.823557 0.623367 0.121373 0.21045 0.846105
