0 0.0235003 0.516772 0.0111317 0.0456976 0.261056
8 0.275819 0.199562 0.0160792 0.0131259 0.283282
8 0.253401 0.20175 0.0176252 0.0106952 0.300279
8 0.154762 0.203452 0.0238095 0.0189597 0.359367
8 0.183055 0.200778 0.0204082 0.0194458 0.436975
6 0.335343 0.324745 0.295918 0.112786 0.691079
