0 0.398378 0.78229 0.0200382 0.0384733 0.411336
0 0.413645 0.784122 0.0219466 0.0396947 0.566521
0 0.159351 0.787634 0.0505725 0.0577099 0.701019
0 0.194179 0.784427 0.0305344 0.058626 0.708499
74 0.478531 0.201069 0.0505725 0.0375573 0.742322
74 0.387166 0.204427 0.0415076 0.0418321 0.819568
