0 0.511219 0.566169 0.0321407 0.0620789 0.26234
0 0.757126 0.635707 0.055185 0.149182 0.323338
0 0.897968 0.631136 0.0833839 0.0851781 0.3251
0 0.54245 0.540664 0.0448757 0.0928778 0.338275
0 0.476349 0.612608 0.0545785 0.145332 0.346137
0 0.439812 0.559432 0.0336568 0.104427 0.3761
56 0.425409 0.64076 0.0363857 0.0899904 0.376309
0 0.590813 0.683109 0.060946 0.111165 0.383726
0 0.992268 0.615496 0.0154639 0.0827719 0.428479
0 0.215888 0.615736 0.04245 0.0948027 0.434249
0 0.67829 0.663138 0.055185 0.113571 0.434654
56 0.355367 0.666747 0.0600364 0.099615 0.455593
56 0.535173 0.633542 0.05094 0.103465 0.457527
0 0.735143 0.656641 0.0773196 0.108277 0.458063
0 0.411765 0.566169 0.0357793 0.0736285 0.503064
56 0.410097 0.648701 0.0512432 0.102984 0.523535
56 0.249545 0.669394 0.0642814 0.117421 0.547425
0 0.14812 0.614774 0.035476 0.0909528 0.59143
0 0.110673 0.615014 0.0278957 0.0885467 0.596669
25 0.721195 0.551251 0.0560946 0.0437921 0.617741
0 0.0210734 0.617661 0.0403275 0.0919153 0.65818
56 0.303366 0.667469 0.0585203 0.109721 0.690292
0 0.0742874 0.597931 0.0303214 0.122714 0.721487
56 0.199515 0.669153 0.0473014 0.119827 0.80102
