0 0.68161 0.656147 0.0223378 0.137541 0.30723
0 0.240973 0.623881 0.0192778 0.0626472 0.308574
0 0.20716 0.632831 0.0220318 0.0843147 0.321354
0 0.903458 0.654263 0.0260098 0.134715 0.344649
0 0.627601 0.635422 0.0238678 0.0998587 0.400515
0 0.217564 0.632595 0.0171359 0.0800754 0.436
0 0.163709 0.638012 0.0238678 0.104098 0.437761
0 0.926408 0.652143 0.0406977 0.144607 0.492692
0 0.953947 0.649317 0.0290698 0.152143 0.578705
0 0.392289 0.65544 0.0275398 0.140838 0.65844
0 0.451193 0.648139 0.0272338 0.105511 0.669233
0 0.304468 0.635186 0.0226438 0.10504 0.686528
0 0.877295 0.661564 0.0342717 0.170984 0.702098
0 0.32604 0.638719 0.0229498 0.0979746 0.709112
0 0.421359 0.655911 0.0214198 0.138012 0.725111
0 0.695991 0.656618 0.0425337 0.146962 0.729968
0 0.0296818 0.642252 0.0318237 0.125765 0.737582
0 0.647032 0.640132 0.0296818 0.115874 0.752869
0 0.184364 0.636599 0.0253978 0.108808 0.759519
0 0.0566095 0.640603 0.0293758 0.130005 0.776364
0 0.774174 0.660151 0.0287638 0.1691 0.776649
0 0.48011 0.640603 0.0195838 0.119642 0.805075
0 0.844247 0.662035 0.0379437 0.167216 0.805537
0 0.727509 0.650966 0.0376377 0.162977 0.820571
0 0.80661 0.65968 0.0361077 0.167216 0.84486
