56 0.127131 0.688807 0.0769605 0.0731857 0.251861
56 0.0915733 0.64468 0.0555285 0.0175277 0.254211
56 0.299805 0.666667 0.0657574 0.0289053 0.273809
56 0.233804 0.645603 0.0594252 0.0162977 0.338287
56 0.61471 0.646371 0.0565027 0.0153752 0.370929
56 0.208232 0.700338 0.0706284 0.0987085 0.396055
56 0.163419 0.645295 0.0618607 0.0175277 0.433812
56 0.697029 0.646218 0.063322 0.0162977 0.444617
56 0.802241 0.677429 0.0701413 0.0492005 0.493652
56 0.961033 0.678352 0.0711154 0.0485855 0.549563
56 0.885046 0.677429 0.0720896 0.0522755 0.569001
56 0.723332 0.701722 0.0759864 0.101476 0.613121
56 0.294204 0.730935 0.109109 0.103321 0.806629
56 0.638578 0.727706 0.108134 0.112239 0.842639
