0 0.556105 0.666745 0.0185471 0.0588789 0.2656
0 0.0992272 0.674517 0.0222566 0.110221 0.325174
0 0.563988 0.666039 0.0188563 0.0612341 0.416928
17 0.433385 0.669807 0.0321484 0.116816 0.698239
0 0.549923 0.666745 0.0123648 0.0588789 0.703464
0 0.575734 0.666745 0.0151468 0.0617051 0.732031
0 0.504328 0.67334 0.0157651 0.0777202 0.764705
0 0.0670788 0.671691 0.0321484 0.12341 0.812491
