8 0.687176 0.715341 0.178626 0.0681277 0.264217
2 0.856031 0.497142 0.0296183 0.03192 0.279473
8 0.665496 0.514531 0.0534351 0.0323964 0.281506
8 0.233435 0.745355 0.380763 0.130062 0.312361
2 0.879542 0.505717 0.0345038 0.0357313 0.378326
2 0.947481 0.520486 0.103206 0.0566937 0.495418
8 0.834809 0.587661 0.161221 0.049071 0.572193
0 0.737863 0.701525 0.0552672 0.0595522 0.63972
0 0.676641 0.715102 0.048855 0.0533587 0.69569
0 0.892672 0.533826 0.0174046 0.0633635 0.7088
0 0.218168 0.645545 0.0351145 0.179133 0.855115
0 0.268702 0.650786 0.0445802 0.186756 0.903163
0 0.0456489 0.651977 0.0680916 0.120534 0.917079
