17 0.875351 0.77886 0.0230601 0.0516318 0.280299
17 0.83484 0.791768 0.0623247 0.0754993 0.670336
17 0.58258 0.852411 0.0669991 0.188018 0.774463
0 0.243534 0.85509 0.0570271 0.162202 0.776593
0 0.297601 0.837068 0.0361483 0.148563 0.791964
0 0.491742 0.836094 0.0436273 0.137847 0.792238
