0 0.516857 0.518555 0.0550572 0.177734 0.250059
0 0.788741 0.853516 0.0290752 0.0546875 0.29305
0 0.801578 0.861572 0.0207238 0.0512695 0.459904
0 0.206465 0.491699 0.0163934 0.0722656 0.505416
0 0.781163 0.84668 0.0133003 0.0507812 0.619312
0 0.767708 0.856689 0.01794 0.034668 0.674934
0 0.445252 0.916016 0.0293845 0.0996094 0.716001
0 0.399165 0.831055 0.0163934 0.0517578 0.721961
0 0.550263 0.905762 0.0352614 0.134766 0.776175
0 0.41494 0.833252 0.0151562 0.0522461 0.785056
0 0.578101 0.931885 0.0266007 0.0874023 0.799358
0 0.613981 0.908691 0.03588 0.135742 0.869626
