28 0.752867 0.736264 0.022933 0.0410893 0.434055
74 0.256789 0.414477 0.057936 0.116101 0.521822
0 0.288775 0.720019 0.0356065 0.150979 0.763313
0 0.728123 0.722647 0.0295715 0.145724 0.857302
0 0.570006 0.712613 0.026554 0.133301 0.858097
