0 0.378909 0.66019 0.0134887 0.0549763 0.267057
0 0.538473 0.670853 0.0113427 0.0507109 0.285461
0 0.722716 0.0777251 0.0726548 0.15545 0.353213
0 0.456928 0.684834 0.0217658 0.0909953 0.395175
0 0.583538 0.656635 0.0131821 0.0725119 0.463358
0 0.433323 0.688389 0.0272839 0.0914692 0.490936
13 0.782342 0.724645 0.0564071 0.056872 0.493193
0 0.389025 0.686493 0.0196199 0.0962085 0.58829
0 0.495095 0.68436 0.020233 0.0985782 0.649464
0 0.677652 0.681991 0.0180871 0.0909953 0.650007
0 0.408032 0.688626 0.0214592 0.100474 0.656711
0 0.469191 0.683649 0.0205395 0.0952607 0.743253
0 0.366186 0.689573 0.0223789 0.0881517 0.767204
