13 0.98412 0.73062 0.0305273 0.0406977 0.350526
0 0.609467 0.733527 0.0243602 0.130814 0.374634
0 0.219396 0.750484 0.0317607 0.106589 0.394519
0 0.3284 0.72093 0.0265187 0.0910853 0.40384
0 0.539932 0.731105 0.0252852 0.0881783 0.494084
0 0.436324 0.758236 0.0394696 0.11531 0.589053
13 0.911348 0.757994 0.0872649 0.0750969 0.626687
0 0.386216 0.750242 0.0286772 0.106105 0.752813
0 0.580944 0.738372 0.0363861 0.142442 0.774512
0 0.409189 0.763566 0.0357694 0.0988372 0.797401
