0 0.688813 0.806059 0.012979 0.038645 0.262117
0 0.0407911 0.821565 0.0173053 0.0725191 0.583496
2 0.132571 0.807968 0.0327565 0.0357824 0.591867
2 0.0695303 0.817987 0.0562423 0.0710878 0.606477
2 0.0999691 0.815363 0.0318294 0.0639313 0.612864
0 0.282138 0.823712 0.0179234 0.0949427 0.616627
2 0.0177689 0.82896 0.0355377 0.0710878 0.657314
9 0.248455 0.612118 0.0191595 0.0477099 0.676525
2 0.23115 0.815601 0.114957 0.081584 0.737024
2 0.463535 0.811546 0.0642769 0.0687023 0.743128
2 0.650494 0.816794 0.118047 0.0839695 0.744138
2 0.17398 0.812023 0.0562423 0.0667939 0.800915
2 0.326329 0.834685 0.0772559 0.111164 0.807011
2 0.397868 0.849952 0.128863 0.138836 0.855481
2 0.811032 0.865697 0.154821 0.142653 0.86037
2 0.715544 0.852338 0.12021 0.124523 0.864549
2 0.916564 0.879294 0.1644 0.174618 0.877894
2 0.527967 0.837786 0.101669 0.114504 0.895586
