8 0.289482 0.713984 0.201273 0.0370718 0.319804
2 0.325553 0.53191 0.0381934 0.0276865 0.385328
0 0.109579 0.673627 0.0415277 0.176912 0.471671
0 0.081843 0.677616 0.0363747 0.193336 0.614774
0 0.230373 0.648053 0.0260685 0.122947 0.666127
0 0.434829 0.75176 0.0500152 0.172689 0.69194
0 0.050773 0.683717 0.0366778 0.200845 0.726897
0 0.175962 0.63984 0.0312216 0.152511 0.751787
