14 0.556112 0.651015 0.025781 0.0316187 0.278655
14 0.642554 0.554507 0.0136488 0.023596 0.283047
14 0.453746 0.507079 0.0175918 0.0250118 0.285222
14 0.448286 0.555923 0.0248711 0.017933 0.298917
14 0.658022 0.59698 0.0166818 0.0188768 0.315259
14 0.612223 0.554979 0.0239612 0.0273714 0.345222
14 0.507279 0.54908 0.0221413 0.024068 0.406362
14 0.611162 0.625531 0.0200182 0.029731 0.48088
14 0.407795 0.550496 0.0300273 0.0268995 0.489833
14 0.326964 0.524776 0.018805 0.0198207 0.493151
14 0.415833 0.572912 0.0272975 0.0292591 0.497097
14 0.0894753 0.734545 0.0303306 0.0353941 0.576874
14 0.669548 0.645823 0.0239612 0.0438886 0.577724
14 0.678344 0.58235 0.0239612 0.0339783 0.583239
14 0.340613 0.600519 0.0279042 0.0221803 0.607669
14 0.285108 0.587541 0.029724 0.0264276 0.619217
14 0.756294 0.583294 0.0203215 0.0330345 0.626673
14 0.178344 0.590845 0.0345769 0.0254837 0.626908
14 0.47983 0.611373 0.0327571 0.029731 0.707604
14 0.405823 0.633554 0.0339703 0.0306748 0.736064
14 0.498787 0.666352 0.0846224 0.0821142 0.748646
14 0.819381 0.711656 0.0451926 0.083058 0.813375
14 0.14407 0.737376 0.0612678 0.0542709 0.824933
14 0.691083 0.713308 0.0585381 0.126003 0.848045
14 0.234304 0.670599 0.0730968 0.0792827 0.870221
