0 0.518065 0.850476 0.0342927 0.16 0.284486
58 0.518218 0.853095 0.0333742 0.158571 0.352443
0 0.427587 0.805714 0.0223515 0.13619 0.405598
0 0.23913 0.745952 0.0122474 0.0480952 0.423443
0 0.69703 0.843333 0.0327618 0.153333 0.431989
0 0.196418 0.776667 0.0211268 0.0885714 0.647515
0 0.450245 0.821429 0.0223515 0.129524 0.72589
0 0.406614 0.81619 0.0318432 0.129524 0.784207
0 0.373393 0.817381 0.0339865 0.14619 0.816111
