0 0.54867 0.474652 0.0280152 0.0306028 0.443598
0 0.796771 0.121329 0.17284 0.130757 0.587974
0 0.543447 0.555641 0.0185185 0.0318393 0.588124
0 0.501187 0.4966 0.0270655 0.0380216 0.725076
0 0.466049 0.570634 0.0185185 0.0309119 0.727443
0 0.204179 0.130139 0.147198 0.130448 0.875932
