19 0.275433 0.408444 0.0838142 0.27704 0.260548
19 0.546007 0.740512 0.0722745 0.334915 0.266914
18 0.385363 0.326139 0.0534467 0.205408 0.269478
18 0.870635 0.531784 0.0601275 0.117647 0.276228
18 0.463104 0.346063 0.0449438 0.191176 0.284826
18 0.506073 0.733159 0.0428181 0.337287 0.294258
19 0.481931 0.71703 0.0619496 0.332543 0.309046
19 0.0566353 0.487666 0.0671121 0.309298 0.314447
18 0.531582 0.334677 0.089584 0.212998 0.345971
18 0.864865 0.319972 0.0528394 0.217742 0.354589
18 0.945339 0.512097 0.040085 0.186433 0.37351
18 0.440024 0.349383 0.0722745 0.198767 0.414717
19 0.118433 0.614801 0.0576981 0.318786 0.417747
19 0.217735 0.675996 0.0461585 0.29981 0.435866
18 0.687367 0.32519 0.0476769 0.221537 0.450088
19 0.363195 0.723672 0.0668084 0.327799 0.460287
19 0.306104 0.730313 0.0704525 0.315465 0.471463
18 0.505314 0.337761 0.0491953 0.219165 0.472202
18 0.477984 0.71537 0.0528394 0.327324 0.480207
18 0.55618 0.333254 0.0476769 0.19592 0.491539
18 0.848466 0.36741 0.0844215 0.315465 0.553089
18 0.649711 0.354839 0.0543577 0.210626 0.561983
18 0.796386 0.321869 0.0543577 0.251898 0.565181
18 0.757364 0.33278 0.0595202 0.261385 0.615218
18 0.592165 0.360531 0.0473732 0.206831 0.63409
18 0.550258 0.741224 0.0704525 0.328748 0.640437
19 0.254176 0.723435 0.0589128 0.337761 0.640731
19 0.41649 0.703985 0.0744002 0.354839 0.643256
18 0.711965 0.310247 0.0428181 0.213472 0.652336
19 0.169147 0.668643 0.0728819 0.34203 0.671809
18 0.676283 0.674099 0.0631643 0.327324 0.732069
18 0.921348 0.624763 0.0825995 0.357685 0.760875
18 0.841937 0.67149 0.0853325 0.313567 0.772143
18 0.778925 0.690228 0.0753113 0.337761 0.773451
18 0.730944 0.685484 0.0558761 0.344402 0.778827
18 0.609475 0.739801 0.0680231 0.33444 0.796921
