0 0.461269 0.379174 0.0387308 0.047966 0.251431
0 0.484368 0.352307 0.0513299 0.0464481 0.299913
8 0.482268 0.458865 0.158189 0.140559 0.348656
0 0.487634 0.342441 0.0354643 0.0297511 0.36831
0 0.525665 0.355343 0.0424638 0.0555556 0.585965
0 0.510499 0.380237 0.0662623 0.0579842 0.611945
0 0.440271 0.423497 0.0583294 0.0831815 0.617653
0 0.484834 0.420158 0.065329 0.0862174 0.668227
8 0.802613 0.367942 0.391974 0.250759 0.696323
0 0.163089 0.218124 0.117126 0.194596 0.790116
