17 0.25284 0.847526 0.0285539 0.0775452 0.292939
13 0.0583359 0.897954 0.0343875 0.0451951 0.322709
0 0.235032 0.801618 0.0285539 0.0599429 0.370255
17 0.218299 0.849191 0.0245625 0.0780209 0.391606
0 0.238256 0.7745 0.0165797 0.036156 0.53135
0 0.739945 0.837536 0.0337734 0.123216 0.616913
0 0.815781 0.851808 0.0350015 0.117507 0.777302
0 0.847559 0.838963 0.0285539 0.104186 0.77984
0 0.782469 0.837774 0.0267117 0.127498 0.795513
