18 0.735138 0.620339 0.0810388 0.115254 0.365125
19 0.23326 0.543099 0.00969962 0.0246973 0.36883
17 0.735138 0.619855 0.080413 0.115254 0.396981
0 0.0952753 0.516465 0.0178348 0.0469734 0.448946
17 0.806164 0.623729 0.113579 0.195642 0.475203
19 0.806477 0.624213 0.114205 0.194673 0.49387
18 0.906602 0.650121 0.107947 0.137046 0.538625
19 0.488579 0.57724 0.0347309 0.0484262 0.550501
0 0.864205 0.488862 0.0100125 0.0392252 0.582312
0 0.895807 0.485472 0.0137672 0.0430993 0.615648
0 0.792553 0.491768 0.0112641 0.0489104 0.616669
19 0.326502 0.613559 0.14174 0.113317 0.626505
18 0.961827 0.66368 0.0757196 0.127361 0.644245
19 0.735763 0.619855 0.0829161 0.11816 0.648097
19 0.648936 0.69201 0.10388 0.116223 0.710838
19 0.541145 0.582567 0.045995 0.064891 0.757687
19 0.454631 0.640678 0.097622 0.115254 0.788098
19 0.391583 0.692252 0.106696 0.181598 0.821888
19 0.550375 0.706053 0.106383 0.188862 0.858344
19 0.0739987 0.613559 0.0847935 0.168523 0.909544
