0 0.547589 0.675576 0.00777605 0.0220696 0.283465
0 0.406532 0.754537 0.0161742 0.0220696 0.291412
0 0.382893 0.794262 0.0758942 0.0387445 0.342725
0 0.574184 0.675821 0.00870918 0.0205983 0.370906
0 0.218351 0.751839 0.0255054 0.0343306 0.43764
0 0.383359 0.743502 0.0152411 0.0284453 0.516281
0 0.496423 0.747425 0.0199067 0.0274644 0.555142
0 0.159409 0.753065 0.0214619 0.0377636 0.561224
0 0.278227 0.874693 0.13717 0.0495341 0.621293
0 0.53577 0.752084 0.0376361 0.0436488 0.713675
0 0.0382582 0.790829 0.0354588 0.0456106 0.7547
