0 0.377532 0.549545 0.0699816 0.0756343 0.252844
8 0.902701 0.44495 0.014733 0.0234562 0.259376
0 0.873542 0.499282 0.0491099 0.0306367 0.259776
0 0.38275 0.511249 0.0466544 0.0804213 0.279728
8 0.873695 0.497128 0.0254758 0.0282432 0.292454
8 0.588858 0.349449 0.123696 0.439445 0.354011
8 0.118631 0.597176 0.234193 0.0502633 0.366965
8 0.731584 0.535902 0.133517 0.0416467 0.367381
8 0.439533 0.552657 0.0509515 0.0234562 0.373553
8 0.873235 0.502154 0.0552486 0.0325515 0.392338
0 0.873542 0.495692 0.0141191 0.0263284 0.477193
8 0.496624 0.556008 0.0693677 0.0368597 0.552518
8 0.141958 0.491383 0.0273174 0.0263284 0.598145
8 0.601596 0.557922 0.0693677 0.0684538 0.664521
8 0.377839 0.562231 0.0773481 0.0493059 0.672974
0 0.468386 0.501197 0.0104359 0.0536142 0.731267
0 0.287139 0.508617 0.0199509 0.0952609 0.734729
0 0.370166 0.521781 0.0233272 0.0718047 0.746992
0 0.523174 0.495452 0.0174954 0.0804213 0.753819
8 0.731123 0.365486 0.130755 0.383437 0.759445
0 0.449202 0.49641 0.0187231 0.09191 0.77924
8 0.310927 0.590235 0.144874 0.087123 0.789724
0 0.394874 0.501436 0.0254758 0.0847295 0.789861
0 0.831799 0.571805 0.0325353 0.0751556 0.792883
0 0.172652 0.532073 0.0156538 0.0837721 0.793338
8 0.811541 0.612494 0.149785 0.0636668 0.821662
0 0.26949 0.501675 0.0282382 0.100527 0.833982
0 0.315838 0.509095 0.0276243 0.10675 0.850896
0 0.428637 0.50383 0.0254758 0.0847295 0.851701
