0 0.875856 0.785232 0.0143124 0.0434363 0.253758
0 0.803671 0.767857 0.0149347 0.0530888 0.261159
0 0.841786 0.753137 0.0152458 0.0854247 0.309931
0 0.856876 0.751448 0.0130678 0.0714286 0.33896
0 0.805849 0.823118 0.0136901 0.0497104 0.445102
0 0.871966 0.805261 0.020224 0.074807 0.537143
0 0.819851 0.790299 0.0242688 0.0999035 0.676094
6 0.73491 0.77027 0.21593 0.15251 0.723241
