8 0.743165 0.771415 0.130923 0.0490857 0.381385
0 0.744532 0.752647 0.0194411 0.0433109 0.434179
2 0.384113 0.55871 0.02339 0.0182868 0.529886
0 0.714307 0.760346 0.0148846 0.0298364 0.545794
0 0.690006 0.760587 0.0167072 0.0360924 0.548281
0 0.786452 0.750241 0.0164034 0.0442733 0.577847
