0 0.361776 0.749636 0.00697181 0.0256907 0.257406
0 0.401334 0.709404 0.00909366 0.0305381 0.28205
0 0.443316 0.731944 0.00697181 0.0290839 0.334951
0 0.64171 0.774358 0.00909366 0.0334464 0.360215
0 0.566687 0.752545 0.010003 0.0266602 0.3831
0 0.742346 0.887058 0.00788118 0.0203587 0.391738
0 0.39224 0.758362 0.00727493 0.0256907 0.518023
0 0.427251 0.790354 0.00757805 0.032477 0.535868
0 0.722037 0.856035 0.0103062 0.0426563 0.539362
0 0.637617 0.833495 0.00879054 0.0353854 0.582968
0 0.413307 0.790354 0.00939679 0.0479884 0.640767
5 0.354956 0.689287 0.0703243 0.0416869 0.74469
5 0.459836 0.783568 0.0406184 0.0761028 0.825853
