0 0.961574 0.647533 0.0408661 0.0796964 0.288902
13 0.583105 0.629269 0.0323269 0.0241935 0.497696
0 0.958981 0.664848 0.0161635 0.0592979 0.547168
0 0.948155 0.633065 0.0170784 0.066888 0.747184
0 0.973925 0.652989 0.0192132 0.0820683 0.755497
