0 0.302712 0.788208 0.0155393 0.0811321 0.277724
17 0.480804 0.779717 0.0517977 0.0801887 0.388592
0 0.348873 0.806368 0.0298598 0.125 0.486916
17 0.694241 0.771462 0.0374771 0.0825472 0.647745
0 0.760055 0.77783 0.0149299 0.0688679 0.739213
17 0.620353 0.769811 0.0700792 0.0773585 0.801109
