0 0.201574 0.955252 0.0151332 0.044277 0.267977
0 0.105024 0.963966 0.0320823 0.0654734 0.278819
17 0.430993 0.926048 0.0266344 0.0395667 0.313658
0 0.665708 0.924635 0.0190678 0.0386246 0.314373
17 0.355932 0.935704 0.0284504 0.0390956 0.324169
17 0.319613 0.94277 0.0248184 0.0409797 0.331725
0 0.696126 0.917569 0.0108959 0.0386246 0.358908
0 0.0677966 0.961846 0.0266344 0.0687706 0.36353
0 0.0792978 0.962553 0.0236077 0.0664155 0.374035
0 0.897397 0.935469 0.0223971 0.0847857 0.382346
0 0.179631 0.959256 0.0154358 0.0645313 0.430263
0 0.0954903 0.962317 0.0184625 0.0687706 0.461041
0 0.058414 0.959727 0.0199758 0.073952 0.532642
0 0.139074 0.962789 0.0148305 0.05935 0.532862
0 0.779358 0.917098 0.0133172 0.0574659 0.544303
0 0.032385 0.958785 0.0266344 0.0777202 0.607608
0 0.759685 0.914979 0.0115012 0.0541686 0.608911
0 0.114558 0.966557 0.0178571 0.0612341 0.683547
