2 0.0690175 0.866341 0.0349608 0.0460251 0.359981
7 0.0691682 0.866574 0.0340567 0.0455602 0.370144
13 0.8805 0.851232 0.0467149 0.0251046 0.444297
74 0.85006 0.386099 0.00753466 0.0292887 0.461641
2 0.673146 0.858903 0.070223 0.0441655 0.550513
2 0.122815 0.870758 0.0545509 0.0539284 0.648928
74 0.807715 0.385867 0.0223026 0.0344026 0.842637
