0 0.360292 0.818225 0.0115537 0.0265781 0.274541
0 0.345546 0.820123 0.0112496 0.0313242 0.310345
0 0.32107 0.841006 0.0158103 0.0541054 0.403958
3 0.657191 0.858567 0.0337489 0.0579022 0.405063
74 0.172849 0.39962 0.020979 0.0275273 0.422748
0 0.656735 0.857855 0.0328367 0.0574276 0.517441
0 0.87671 0.85738 0.0179386 0.0669198 0.589462
5 0.774704 0.830565 0.117361 0.147129 0.650849
74 0.361964 0.192928 0.0313165 0.046037 0.755536
