2 0.437882 0.773337 0.0501836 0.0481629 0.356303
2 0.537179 0.760675 0.0223378 0.0367428 0.399759
2 0.281518 0.819513 0.0660955 0.140516 0.654078
2 0.610771 0.769364 0.0385557 0.0481629 0.691965
2 0.389688 0.785998 0.0376377 0.08143 0.739782
2 0.20257 0.834906 0.174419 0.173287 0.787747
2 0.681151 0.778302 0.0569155 0.0998014 0.800018
2 0.733629 0.797666 0.0817013 0.120655 0.806364
2 0.569308 0.778302 0.0517136 0.0829196 0.845583
2 0.345318 0.790715 0.0719094 0.118669 0.870273
2 0.809517 0.811321 0.128213 0.151936 0.895859
