0 0.301612 0.570628 0.0192188 0.0491963 0.331439
0 0.294482 0.571846 0.0130192 0.0496834 0.360897
0 0.674365 0.725037 0.0406076 0.0657574 0.470923
0 0.149876 0.575986 0.0114693 0.0452996 0.498538
0 0.122598 0.579883 0.0176689 0.0540672 0.504696
0 0.511779 0.616902 0.0303782 0.124208 0.54411
0 0.099969 0.58451 0.0120893 0.0467608 0.579315
0 0.194668 0.58451 0.016119 0.0613736 0.589412
0 0.25403 0.579883 0.0114693 0.057964 0.58983
0 0.24194 0.577448 0.0127092 0.0657574 0.614451
0 0.475666 0.645884 0.0288283 0.151973 0.653358
8 0.329665 0.718704 0.221637 0.0647832 0.681205
0 0.216987 0.58451 0.0148791 0.0535801 0.705702
0 0.74814 0.688505 0.0319281 0.0667316 0.752582
0 0.537508 0.679006 0.0402976 0.101315 0.755419
8 0.629107 0.751827 0.263174 0.13395 0.860033
