0 0.347282 0.679348 0.033598 0.0685255 0.269604
0 0.335064 0.668242 0.014661 0.0406427 0.291122
0 0.628894 0.747637 0.0574221 0.258034 0.311289
0 0.664325 0.748346 0.0403177 0.22448 0.365028
0 0.721136 0.724008 0.053146 0.228733 0.369127
0 0.372786 0.681475 0.0192425 0.0756144 0.379434
0 0.310476 0.663989 0.0222969 0.0444234 0.405058
0 0.393861 0.683837 0.0302382 0.0793951 0.494073
0 0.784209 0.725662 0.0552841 0.205577 0.53957
0 0.497709 0.690454 0.0326817 0.121928 0.659884
