0 0.676909 0.656453 0.0328567 0.145775 0.263638
0 0.483876 0.884169 0.0386371 0.156453 0.268193
25 0.0255552 0.604225 0.0498935 0.038533 0.32706
0 0.454061 0.741876 0.0550654 0.191272 0.386782
0 0.809553 0.612117 0.0340736 0.128598 0.415177
0 0.243079 0.854457 0.050502 0.141597 0.420419
0 0.445543 0.901114 0.0483724 0.168059 0.47853
0 0.147247 0.726091 0.0456343 0.181058 0.581225
0 0.131427 0.890436 0.0778826 0.189415 0.622884
0 0.201399 0.72493 0.0395497 0.177809 0.638364
0 0.0555218 0.780873 0.046547 0.22377 0.647306
0 0.20003 0.895775 0.0672346 0.178737 0.66225
0 0.283845 0.892293 0.065105 0.187558 0.67135
25 0.414207 0.53389 0.255248 0.162488 0.680554
0 0.372072 0.850046 0.0644965 0.265552 0.78582
