0 0.748466 0.899332 0.00920245 0.028626 0.319434
5 0.507362 0.894084 0.106748 0.122137 0.404628
2 0.483589 0.927004 0.0665644 0.0572519 0.414826
2 0.410276 0.93416 0.041411 0.0419847 0.419598
0 0.243098 0.929866 0.0432515 0.0477099 0.611864
5 0.32684 0.892414 0.151227 0.124523 0.638956
