0 0.157791 0.583973 0.0283019 0.163148 0.254749
0 0.336732 0.595489 0.0325624 0.135317 0.304087
0 0.207547 0.591411 0.0298235 0.166507 0.366612
0 0.260499 0.590211 0.0298235 0.165067 0.397918
0 0.181832 0.59333 0.033171 0.176104 0.412605
0 0.283323 0.586612 0.025563 0.165547 0.433142
0 0.101795 0.603887 0.0386488 0.205854 0.472784
0 0.435027 0.580614 0.0258673 0.145873 0.473588
0 0.367012 0.571977 0.034084 0.162188 0.514559
0 0.234023 0.590931 0.0316494 0.164587 0.524422
0 0.0585819 0.628119 0.0410834 0.226488 0.527228
0 0.405356 0.574376 0.034084 0.154511 0.531744
0 0.587188 0.53143 0.0173463 0.0945297 0.549613
0 0.642118 0.521593 0.0176506 0.0882917 0.549843
0 0.309495 0.591411 0.034084 0.15691 0.556425
0 0.681832 0.539827 0.0307365 0.1238 0.565077
0 0.470633 0.580374 0.0295192 0.142514 0.57695
0 0.50213 0.584453 0.0292149 0.142994 0.588577
0 0.865946 0.537188 0.026476 0.101248 0.616519
0 0.532106 0.583013 0.0289105 0.151631 0.743693
