8 0.783065 0.775954 0.0370828 0.082086 0.260002
0 0.688195 0.763158 0.119901 0.0970546 0.328742
8 0.780284 0.812651 0.31026 0.0666345 0.59083
0 0.877472 0.761468 0.0411001 0.0791888 0.606016
0 0.72157 0.777402 0.0580964 0.0724288 0.776133
0 0.654975 0.752776 0.0553152 0.109126 0.782841
0 0.78322 0.775712 0.0361557 0.0806374 0.828908
