27 0.878443 0.66317 0.0371257 0.228125 0.264277
2 0.13997 0.403571 0.0523952 0.0473214 0.274534
7 0.229192 0.385714 0.0607784 0.0830357 0.275508
13 0.404641 0.774777 0.13024 0.0549107 0.383339
13 0.726198 0.75067 0.13024 0.223661 0.567494
13 0.527994 0.831027 0.170359 0.230804 0.606936
0 0.351946 0.408929 0.0655689 0.317857 0.671366
0 0.749551 0.456473 0.0853293 0.195982 0.761193
0 0.883383 0.676116 0.061976 0.287054 0.799755
0 0.597455 0.488839 0.0625748 0.263393 0.88434
0 0.528892 0.518304 0.0949102 0.3 0.912556
0 0.420509 0.549777 0.0877246 0.369196 0.915337
