file,num_males,num_females
49_1930s_photographs_of_men,4,0
16_Tintypes,0,1
27_1960s_family,2,6
16,0,2
1_1920s_photos,1,1
8_old_family_photographs,0,3
19_1940s_photographs_of_women,0,4
96_1960s_family,10,6
30_early_1900s_photography,1,1
0_Ambrotypes,1,0
27_1900s_photographs_of_men_with_mustaches,1,0
3_1940s_photographs_of_women,0,6
13_photos_from_the_1950s,0,2
20_1930s_photographs_of_men,2,0
27_1940s_family,1,4
23_20th_century_family,6,3
43_Ambrotypes,1,0
1_victorian_photography,0,2
36_photos_from_the_1950s,1,1
26_1900s_photographs_of_women,0,1
24_1960s_family,3,7
16_1920s_photos,1,8
6_1920s_photographs_of_women,1,1
30_1950s_photos_of_women,0,1
4_1900s_photographs_of_women,0,1
0_1930s_photographs_of_men,6,0
10_early_1900s_photography,0,1
36_20th_century_photos_of_men,6,0
40_Cabinet_Cards,0,1
40_1920s_photos,0,1
24_1930s_photographs_of_men,1,0
14_1920s_photographs_of_women,0,1
75_20th_century_family,1,3
49_Daguerreotype,1,0
22_1900s_photographs_of_men_with_mustaches,1,0
24_mid_20th_century_family,1,5
35_Cabinet_Cards,0,1
5,0,1
13_1940s_family,2,1
37_1940s_family,3,1
45_1920s_photographs_of_women,0,1
19_1930s_photographs_of_women,0,1
23_1950s_pictures_of_men,1,0
47_victorian_photography,1,0
50,2,2
5_Ambrotypes,0,2
3_mid_20th_century_family,7,6
20_1900s_photographs_of_men_with_mustaches,1,0
25_Ambrotypes,1,0
46,2,1
31_1940s_photographs_of_women,0,2
13_Daguerreotype,2,0
7_1940s_pictures_of_men,1,0
98_1960s_family,5,2
15_1930s_photographs_of_men,1,0
48_1900s_photographs_of_men_with_mustaches,1,0
5_early_20th_century_photos,0,1
11_old_family_photographs,0,1
12,2,1
11_1930s_photographs_of_men,1,0
12_1950s_photos_of_women,0,2
12_1930s_photographs_of_men,1,0
15_1950s_pictures_of_men,1,0
2_1930s_photographs_of_women,0,1
17_old_pictures,4,7
27_Tintypes,0,1
16_1900s_photographs_of_women,0,1
42_1900s_photographs_of_men_with_mustaches,1,0
57,0,1
13_1940s_people,2,2
45_early_1900s_photography,3,0
37_1940s_photographs_of_women,0,1
40_Ambrotypes,1,0
38_1900s_photographs_of_women,0,5
21_Tintypes,2,2
13_1940s_pictures_of_men,3,0
38,1,0
56_20th_century_photos_of_men,1,0
41_1900s_photographs_of_men_with_mustaches,1,0
44_1950s_pictures_of_men,1,0
16_1940s_photographs_of_women,0,1
30_early_20th_century_photos,3,2
42_1930s_photographs_of_women,0,1
25_Tintypes,0,1
27_victorian_photography,0,1
44_Daguerreotype,1,0
40_1920s_pictures_of_men,1,0
11_candid_old_photos,0,2
32_1920s_photographs_of_women,0,1
65,0,1
47_1900s_photographs_of_men_with_mustaches,1,0
2_1950s_photos_of_women,0,1
13_1920s_family,2,3
75_20th_century_photos_of_men,1,0
15_20th_century_photos_of_men,1,0
21_1950s_pictures_of_men,1,0
4_Daguerreotype,1,1
43_old_pictures,4,3
24_early_20th_century_photos,0,2
47_1950s_photos_of_women,0,2
16_early_1900s_photography,0,1
34_1920s_photos,0,1
9_Tintypes,0,1
47_1940s_family,2,3
32_1920s_photos,1,1
3_20th_century_photos_of_men,1,0
41_1930s_photographs_of_men,2,0
33_Daguerreotype,1,0
0_1920s_photos,1,2
29_photos_from_the_1890s,0,1
49_1920s_photographs_of_women,2,2
52_1960s_family,3,1
0_1960s_family,1,3
58_1960s_family,2,2
10_1940s_photographs_of_women,0,1
49_1920s_photos,0,1
25_1900s_photographs_of_men_with_mustaches,1,0
9_photos_from_the_1960s,0,2
31_1940s_pictures_of_men,2,0
34_1960s_family,3,1
8_Tintypes,1,0
43_1960s_family,4,3
39_1920s_pictures_of_men,5,0
51_1930s_photographs_of_men,1,0
75_1960s_family,2,3
43_Cabinet_Cards,1,1
46_1940s_photographs_of_women,1,4
37_1950s_photos_of_women,0,1
7_photos_from_the_1950s,1,1
8_old_pictures,1,1
30_1930s_photographs_of_men,2,0
10_1900s_photographs_of_men_with_mustaches,1,0
2_early_1900s_photography,1,0
19_Ambrotypes,1,0
50_1930s_photographs_of_women,0,1
9_victorian_photography,0,2
33_1940s_pictures_of_men,1,0
39_1940s_pictures_of_men,1,0
80_1930s_photographs_of_women,1,5
3_early_1900s_photography,0,2
8_1960s_family,2,2
29_victorian_photography,0,2
12_1940s_photographs_of_women,1,1
21_20th_century_photos_of_females,0,2
49_20th_century_photos_of_females,0,1
95_mid_20th_century_family,3,4
6_photos_from_the_1950s,2,0
53,0,1
59_1960s_family,3,1
4_1940s_photographs_of_women,0,1
33,0,2
44_1900s_photographs_of_men_with_mustaches,4,2
45_20th_century_photos_of_men,4,0
18_1940s_family,2,2
44_1920s_photos,0,1
38_1940s_family,3,4
45_Daguerreotype,1,0
10_20th_century_family,2,2
16_1960s_family,2,4
33_Tintypes,1,0
59_1930s_photographs_of_men,1,0
8_1920s_pictures_of_men,1,0
16_Daguerreotype,1,0
17_1940s_pictures_of_men,2,0
21_1940s_family,1,2
33_1900s_photographs_of_women,0,2
15_1950s_photos_of_women,0,1
34_photos_from_the_1890s,1,3
12_old_postcards_picture_people,8,8
20_victorian_photography,0,1
32_1920s_pictures_of_men,5,0
35,2,0
10,1,4
9_1920s_family,1,4
35_Tintypes,1,0
23_1960s_family,3,2
19_photos_from_the_1890s,0,2
30_1920s_photographs_of_women,0,1
9_mid_20th_century_family,2,0
48_early_1900s_photography,0,3
18_1940s_photographs_of_women,0,1
19_candid_old_photos,0,2
13_early_1900s_photography,1,3
8_1930s_people,1,1
38_1920s_photos,0,4
18_victorian_photography,0,1
41_1940s_photographs_of_women,0,1
73_1960s_family,2,2
21,3,0
20_Cabinet_Cards,0,1
44_Tintypes,1,0
25_early_1900s_photography,3,0
0_Tintypes,0,2
85_20th_century_family,2,2
18_Daguerreotype,2,1
28_1900s_photographs_of_men_with_mustaches,1,0
24_Cabinet_Cards,0,1
22_1940s_people,1,1
51,0,3
13,3,0
46_1920s_photographs_of_women,0,1
3_1950s_pictures_of_men,1,0
6_1920s_family,2,2
18_Tintypes,0,1
19_1950s_pictures_of_men,1,0
39_Cabinet_Cards,1,1
22_1920s_photographs_of_women,0,1
10_1960s_family,1,2
8_1800s_pictures,0,1
10_1920s_photos,0,5
92_1960s_family,2,1
21_1930s_photographs_of_men,1,0
1_early_20th_century_photos,3,0
81_1960s_family,1,3
65_1930s_photographs_of_women,0,2
41_1950s_photos_of_women,0,10
46_early_1900s_photography,4,0
20,3,0
44_1900s_photographs_of_women,0,13
33_1920s_photographs_of_women,2,2
76_1930s_photographs_of_women,0,2
45_1940s_family,1,3
23_1920s_family,3,1
7_1930s_photographs_of_men,1,0
39_1950s_photos_of_women,0,3
16_Ambrotypes,0,1
32_1940s_people,0,1
49_Tintypes,1,3
43_1930s_photographs_of_women,0,1
31_Tintypes,1,0
22_Tintypes,1,1
52_1930s_photographs_of_men,1,0
14_1900s_photographs_of_women,0,1
22_1920s_pictures_of_men,1,0
12_victorian_photography,1,2
14_1800s_pictures,1,1
23_20th_century_photos_of_men,3,0
34_Cabinet_Cards,1,0
36_Ambrotypes,3,1
4_photos_from_the_1950s,1,1
11_Tintypes,1,0
62_1960s_family,3,0
4_Ambrotypes,1,0
47_1940s_photographs_of_women,0,2
12_1920s_photos,0,1
9_1940s_family,2,1
10_1920s_family,2,2
48,0,1
12_1920s_family,2,3
25_photos_from_the_1950s,1,0
40_1940s_photographs_of_women,0,17
9_1800s_pictures,0,2
44_photos_from_the_1890s,11,0
48_1950s_pictures_of_men,1,0
27_photos_from_the_1890s,0,2
2_1920s_photographs_of_women,0,4
37_1930s_photographs_of_women,0,1
93_1960s_family,0,6
7_1900s_photographs_of_men_with_mustaches,1,0
2_1940s_photographs_of_women,0,6
19_1920s_pictures_of_men,1,0
27_1920s_photographs_of_women,1,3
7_1920s_pictures_of_men,1,0
8_Daguerreotype,2,0
63_1930s_photographs_of_women,0,1
2_1940s_people,10,4
24_1920s_photographs_of_women,0,2
20_old_pictures,0,1
19_20th_century_photos_of_females,0,1
6_Old_Portraits,1,0
25,1,0
18_early_1900s_photography,0,1
13_1920s_pictures_of_men,1,0
27_Cabinet_Cards,0,1
15_1920s_photos,0,1
30_Tintypes,1,0
17_Tintypes,2,0
12_Ambrotypes,0,1
15_Tintypes,1,0
10_1930s_photographs_of_men,1,0
31_photos_from_the_1950s,1,6
48_1940s_people,0,2
66,0,1
19_early_1900s_photography,0,1
42_1950s_photos_of_women,1,1
11_1930s_people,1,0
5_1920s_pictures_of_men,1,0
39_1920s_photos,0,3
6_1900s_photographs_of_women,0,1
8_1940s_pictures_of_men,1,0
46_old_family_photographs,2,2
18_1940s_pictures_of_men,2,0
27_1950s_pictures_of_men,1,0
31_old_pictures,1,0
17_Cabinet_Cards,0,1
29_1930s_photographs_of_women,0,3
0_photos_from_the_1890s,0,1
94_1930s_photographs_of_women,0,1
21_1920s_photographs_of_women,0,2
9_photos_from_the_1950s,9,1
20_Ambrotypes,0,1
16_1920s_pictures_of_men,1,0
5_candid_old_photos,0,1
32_photos_from_the_1950s,1,4
13_1950s_pictures_of_men,1,0
27_old_pictures,1,1
9_1920s_pictures_of_men,1,0
8_1920s_photos,1,0
46_photos_from_the_1890s,1,0
0_Cabinet_Cards,0,1
28_Tintypes,4,0
83_20th_century_photos_of_men,1,0
31_photos_from_the_1890s,1,1
27_1920s_pictures_of_men,2,0
34_1930s_photographs_of_men,0,1
43_Tintypes,0,1
39_Tintypes,1,0
27_photos_from_the_1950s,0,3
37_1900s_photographs_of_women,0,1
47_1900s_photographs_of_women,0,3
24_1900s_photographs_of_women,0,1
41_1940s_people,2,4
39_Daguerreotype,0,1
30,1,5
67_1930s_photographs_of_men,1,0
37_1920s_photographs_of_women,0,2
47_1950s_pictures_of_men,1,0
41_old_family_photographs,2,2
37_1930s_photographs_of_men,6,0
20_1940s_pictures_of_men,3,0
7_early_1900s_photography,1,0
14_1960s_family,3,2
42,1,1
45_1920s_pictures_of_men,5,0
30_Ambrotypes,1,0
37_early_20th_century_photos,0,2
1_1800s_pictures,0,13
16_1920s_family,2,1
5_1900s_photographs_of_men_with_mustaches,1,0
47,0,2
7,0,3
20_1900s_photographs_of_women,0,1
62_1930s_photographs_of_women,0,5
3_1930s_photographs_of_men,1,0
43_early_1900s_photography,1,3
20_photos_from_the_1960s,2,1
37_Cabinet_Cards,0,1
42_Daguerreotype,0,1
40_1940s_people,0,4
47_early_1900s_photography,1,1
48_photos_from_the_1970s,0,19
87_1930s_photographs_of_women,0,1
7_old_family_photographs,6,6
34_Ambrotypes,1,0
26_1920s_photographs_of_women,0,1
41_1950s_pictures_of_men,2,0
24_Daguerreotype,0,1
82_20th_century_family,4,2
34_1950s_photos_of_women,0,1
5_Daguerreotype,1,1
1_1950s_photos_of_women,0,2
29,0,2
72_20th_century_photos_of_men,2,0
37_early_1900s_photography,1,0
19_1950s_photos_of_women,0,1
7_20th_century_photos_of_females,0,1
58_1930s_photographs_of_women,0,1
25_1950s_pictures_of_men,1,0
11_1920s_photos,0,5
25_1930s_people,1,1
6_Cabinet_Cards,0,1
82_1930s_photographs_of_women,0,2
17_victorian_photography,0,1
53_1930s_photographs_of_men,1,0
17,1,1
12_1940s_family,1,2
11_1920s_family,2,1
42_1960s_family,3,3
10_20th_century_photos_of_females,0,1
36_photos_from_the_1960s,0,3
20_Daguerreotype,1,0
47_photos_from_the_1950s,2,3
5_1950s_photos_of_women,0,2
34_1940s_pictures_of_men,1,0
26_1920s_photos,1,0
14_early_1900s_photography,0,1
47_mid_20th_century_family,2,5
98_20th_century_family,1,1
29_1950s_photos_of_women,0,1
55_20th_century_photos_of_men,3,0
3_old_family_photographs,4,6
14_20th_century_photos_of_men,5,0
0_old_pictures,0,1
33_1900s_photographs_of_men_with_mustaches,1,0
85_1930s_photographs_of_women,0,2
23_1920s_photos,0,2
36_1900s_photographs_of_women,0,1
14_1940s_pictures_of_men,2,1
34_1930s_photographs_of_women,0,1
35_20th_century_family,1,12
15_old_family_photographs,2,2
3_1940s_people,2,2
27,1,2
13_20th_century_photos_of_men,2,0
57_20th_century_family,5,0
32_Tintypes,1,0
46_1950s_pictures_of_men,1,0
0_1940s_pictures_of_men,2,0
77_1930s_photographs_of_women,0,1
34_Tintypes,1,0
8_early_20th_century_photos,0,1
44_1960s_family,3,3
0_victorian_photography,0,2
30_1930s_photographs_of_women,0,5
38_1940s_photographs_of_women,0,1
15_1900s_photographs_of_women,0,1
35_photos_from_the_1960s,2,0
33_1920s_photos,0,1
3_1800s_pictures,1,1
22_1930s_people,0,2
38_1920s_pictures_of_men,1,0
9_1950s_pictures_of_men,1,0
8_1950s_photos_of_women,0,6
34_photos_from_the_1950s,0,1
62,0,2
55_20th_century_family,5,1
12_1930s_photographs_of_women,0,2
36_1930s_photographs_of_men,1,0
56_1930s_photographs_of_men,1,1
33_1930s_people,0,1
18_1930s_photographs_of_women,0,1
32_1930s_photographs_of_women,0,3
53_20th_century_photos_of_females,0,3
16_1930s_people,2,0
94_mid_20th_century_family,1,3
5_1930s_photographs_of_women,0,1
41_Ambrotypes,0,1
12_Daguerreotype,8,4
40_1900s_photographs_of_men_with_mustaches,1,0
13_candid_old_photos,3,0
59_1930s_photographs_of_women,1,1
67,0,2
40_1920s_photographs_of_women,0,1
29_Ambrotypes,0,1
23_1930s_photographs_of_men,1,0
57_20th_century_photos_of_females,0,1
92_1930s_photographs_of_women,0,2
3_1910s,1,1
12_1900s_photographs_of_women,1,4
78_1960s_family,4,1
44_old_family_photographs,1,1
23_1940s_pictures_of_men,1,0
55_1930s_photographs_of_men,1,0
47_20th_century_photos_of_females,0,10
11_1940s_photographs_of_women,0,1
36_Cabinet_Cards,0,1
28,1,1
48_1930s_photographs_of_women,0,1
2_1900s_photographs_of_women,0,5
33_1950s_pictures_of_men,1,0
29_1920s_photos,0,1
28_1930s_photographs_of_women,0,1
39_1900s_photographs_of_men_with_mustaches,1,0
41_1940s_pictures_of_men,4,0
26_1940s_photographs_of_women,0,7
2_old_postcards_picture_people,0,3
14_1930s_photographs_of_men,2,0
29_1900s_photographs_of_men_with_mustaches,3,0
47_old_pictures,0,1
2_1960s_family,3,1
69_20th_century_photos_of_men,0,1
10_1940s_pictures_of_men,3,0
43_1900s_photographs_of_men_with_mustaches,1,0
25_1920s_photographs_of_women,0,1
24_1900s_photographs_of_men_with_mustaches,1,0
42_Tintypes,1,0
27_1900s_photographs_of_women,1,1
23_1920s_pictures_of_men,1,0
6_20th_century_photos_of_men,1,0
93_20th_century_family,0,1
64_1930s_photographs_of_women,0,1
23_photos_from_the_1960s,1,1
40_1950s_photos_of_women,0,2
67_1930s_photographs_of_women,0,1
69,0,1
26_1920s_pictures_of_men,1,0
7_old_pictures,0,1
77_1960s_family,3,2
45_old_pictures,1,1
55,0,2
40_Tintypes,1,0
15_candid_old_photos,1,1
33_old_family_photographs,4,2
15_Daguerreotype,0,1
0_1900s_people,1,1
86_1960s_family,8,10
26_1950s_photos_of_women,0,1
12_1900s_photographs_of_men_with_mustaches,1,0
16_old_postcards_picture_people,7,3
44_1940s_photographs_of_women,0,3
14_1930s_photographs_of_women,0,1
58_20th_century_photos_of_men,3,0
32_1930s_photographs_of_men,1,0
44_1940s_pictures_of_men,1,0
48_Daguerreotype,1,0
49_1950s_pictures_of_men,1,0
1_Daguerreotype,5,2
31,2,7
39_old_postcards_picture_people,1,0
19_victorian_photography,0,1
98_1930s_photographs_of_women,0,1
28_1950s_pictures_of_men,1,0
51_1930s_photographs_of_women,0,1
32_photos_from_the_1890s,0,2
31_1900s_photographs_of_men_with_mustaches,1,0
62_1930s_photographs_of_men,2,0
10_mid_20th_century_family,1,3
35_1920s_photographs_of_women,0,1
8_1900s_photographs_of_women,0,1
48_1920s_pictures_of_men,1,0
4,0,1
28_20th_century_photos_of_females,0,4
42_Cabinet_Cards,3,3
13_victorian_photography,0,1
17_1930s_people,1,1
32_Cabinet_Cards,0,1
1_1940s_photographs_of_women,0,2
30_Cabinet_Cards,2,0
19_1960s_family,2,3
29_1940s_photographs_of_women,0,1
16_1900s_photographs_of_men_with_mustaches,1,0
54_1930s_photographs_of_women,0,3
15_20th_century_family,2,1
1_old_pictures,1,3
13_1900s_photographs_of_men_with_mustaches,1,0
42_1920s_photos,0,3
50_1960s_family,1,1
37_Daguerreotype,1,0
1_1920s_family,1,3
1_candid_old_photos,0,1
31_1960s_family,2,2
44_1950s_photos_of_women,0,1
17_Daguerreotype,1,0
16_20th_century_family,1,9
22_1940s_photographs_of_women,0,4
38_1930s_people,2,4
46_victorian_photography,6,3
45,0,1
33_1930s_photographs_of_women,0,2
18_1920s_photos,5,2
24_photos_from_the_1950s,1,1
38_photos_from_the_1950s,2,2
24_1930s_photographs_of_women,0,3
29_photos_from_the_1950s,1,0
22_early_20th_century_photos,5,1
11_photos_from_the_1890s,0,2
1_1950s_pictures_of_men,1,0
75_mid_20th_century_family,2,9
34_1940s_photographs_of_women,0,1
8_Ambrotypes,1,1
9_1940s_pictures_of_men,5,1
31_1930s_people,1,1
89_1960s_family,3,2
89_20th_century_family,2,10
22_1900s_photographs_of_women,0,2
64_1960s_family,3,1
18,0,6
34_1920s_photographs_of_women,0,2
24_1920s_pictures_of_men,1,0
22_1930s_photographs_of_women,0,1
23_victorian_photography,0,3
45_1950s_photos_of_women,0,1
34,6,0
2_1950s,0,2
36_1940s_people,1,1
32_old_family_photographs,1,2
43_1900s_photographs_of_women,0,1
29_Tintypes,1,0
28_1930s_people,1,2
16_1940s_pictures_of_men,3,0
75_1930s_photographs_of_women,0,1
9_1960s_family,3,3
48_old_pictures,1,0
24_early_1900s_photography,1,0
65_1930s_photographs_of_men,1,0
0_photos_from_the_1950s,0,3
6_photos_from_the_1960s,0,10
39_1940s_photographs_of_women,1,6
65_mid_20th_century_family,3,4
2_1900s_photographs_of_men_with_mustaches,1,0
7_Tintypes,0,1
2_candid_old_photos,1,1
14_old_pictures,0,1
4_1920s_photos,0,4
14_Daguerreotype,0,1
13_1950s_photos_of_women,0,6
46_Daguerreotype,1,0
17_photos_from_the_1890s,18,0
12_candid_old_photos,0,4
45_Cabinet_Cards,0,1
30_1940s_pictures_of_men,1,1
44_Ambrotypes,0,4
37,14,0
3_1930s_photographs_of_women,0,1
13_Tintypes,0,1
24_1930s_people,0,1
32_1960s_family,1,2
42_Ambrotypes,0,1
32_1950s_pictures_of_men,1,0
37_Ambrotypes,0,1
14_1920s_pictures_of_men,1,0
42_1900s_photographs_of_women,0,2
35_1940s_people,3,6
44_1930s_photographs_of_women,0,1
10_1800s_pictures,4,4
2_early_20th_century_photos,0,1
43_photos_from_the_1950s,0,4
38_old_pictures,0,4
27_1930s_photographs_of_men,1,0
42_victorian_photography,0,1
27_20th_century_photos_of_men,1,0
35_1900s_photographs_of_men_with_mustaches,1,0
49_1920s_pictures_of_men,3,0
46_1930s_photographs_of_men,1,0
12_1930s_people,5,0
17_1930s_photographs_of_men,1,0
16_1950s_pictures_of_men,1,0
27_1940s_pictures_of_men,2,0
48_old_family_photographs,0,2
24_20th_century_photos_of_men,1,0
7_1960s_family,2,2
7_20th_century_photos_of_men,1,0
35_victorian_photography,1,0
49_1940s_pictures_of_men,5,0
60_1930s_photographs_of_women,0,1
20_20th_century_family,4,4
39_1940s_family,2,4
5_20th_century_photos_of_females,0,2
61_20th_century_photos_of_men,3,0
51_20th_century_photos_of_females,0,1
2_1940s_family,3,1
3_photos_from_the_1890s,0,2
86_1930s_photographs_of_women,0,1
70_1930s_photographs_of_women,0,1
72_1960s_family,3,2
32_1940s_photographs_of_women,0,1
32_early_1900s_photography,0,1
28_Cabinet_Cards,1,0
32_Daguerreotype,1,1
5_1930s_photographs_of_men,1,0
9_1930s_photographs_of_women,0,1
48_20th_century_photos_of_females,0,1
17_1900s_photographs_of_women,0,1
16_mid_20th_century_family,8,2
16_1920s_photographs_of_women,2,2
23,1,0
0_1900s_photographs_of_men_with_mustaches,1,0
33_1940s_photographs_of_women,2,4
14_1950s_pictures_of_men,3,0
16_1950s_photos_of_women,1,2
13_1800s_pictures,0,1
19_Tintypes,0,1
40_Daguerreotype,1,0
28_old_pictures,0,2
5_mid_20th_century_family,2,2
40_1930s_photographs_of_men,1,0
12_photos_from_the_1950s,0,6
21_early_1900s_photography,0,1
20_1950s_pictures_of_men,1,0
23_1940s_photographs_of_women,0,1
43_1920s_pictures_of_men,1,0
38_1930s_photographs_of_men,1,0
37_20th_century_photos_of_females,0,1
46_1900s_photographs_of_women,0,2
17_candid_old_photos,0,1
16_early_20th_century_photos,0,2
26_1950s_pictures_of_men,3,1
38_1920s_photographs_of_women,0,4
6_1930s_photographs_of_men,1,0
30_photos_from_the_1950s,0,1
48_Cabinet_Cards,0,1
19,0,1
29_1950s_pictures_of_men,5,0
2_Cabinet_Cards,0,2
49_20th_century_family,5,7
25_1940s_pictures_of_men,3,0
30_1920s_pictures_of_men,1,0
4_victorian_photography,1,1
31_early_1900s_photography,1,0
41_1930s_people,1,3
29_1940s_pictures_of_men,2,0
9_photos_from_the_1890s,2,1
8_1940s_photographs_of_women,0,1
7_1940s_people,2,0
3_1900s_photographs_of_women,0,1
21_1900s_photographs_of_women,0,1
0_Daguerreotype,1,0
47_1930s_photographs_of_men,3,0
1_Old_Portraits,0,1
13_1900s_photographs_of_women,0,1
34_1940s_people,0,3
30_1950s_pictures_of_men,1,0
4_old_postcards_picture_people,1,1
6_victorian_photography,1,1
36_1920s_photographs_of_women,0,2
22_photos_from_the_1950s,9,0
6_1900s_photographs_of_men_with_mustaches,1,0
12_1920s_photographs_of_women,0,12
13_1930s_photographs_of_men,1,0
10_1930s_photographs_of_women,0,3
25_1920s_pictures_of_men,7,0
19_1930s_photographs_of_men,1,0
41_old_pictures,9,0
21_Ambrotypes,0,1
33_Ambrotypes,6,0
21_1940s_people,0,1
18_1900s_photographs_of_men_with_mustaches,1,0
45_1930s_photographs_of_women,0,1
35_1920s_pictures_of_men,1,0
3_1940s_pictures_of_men,1,0
10_1930s_people,0,7
25_1940s_people,3,0
42_1920s_photographs_of_women,0,1
36_old_family_photographs,2,2
3,2,0
15,1,1
31_1950s_photos_of_women,0,1
9_1950s_photos_of_women,0,1
19_1900s_photographs_of_men_with_mustaches,1,0
8_mid_20th_century_family,13,11
23_early_1900s_photography,1,0
93_1930s_photographs_of_women,0,7
12_old_pictures,0,2
3_Daguerreotype,1,0
25_1940s_photographs_of_women,0,1
40_20th_century_photos_of_females,0,1
47_1940s_pictures_of_men,1,0
18_candid_old_photos,0,1
3_1920s_photographs_of_women,0,8
8_20th_century_family,2,4
78_20th_century_family,0,1
4_1950s_pictures_of_men,1,0
35_Daguerreotype,0,1
21_Cabinet_Cards,1,0
20_20th_century_photos_of_men,1,0
4_1920s_pictures_of_men,1,0
66_1930s_photographs_of_women,3,3
17_1940s_photographs_of_women,0,1
88_1930s_photographs_of_women,0,1
94_1960s_family,1,1
28_1920s_photos,1,0
22_Daguerreotype,0,2
16_candid_old_photos,2,1
27_1950s_photos_of_women,1,1
27_old_family_photographs,1,2
14_20th_century_family,6,6
49_1940s_photographs_of_women,0,1
18_1920s_photographs_of_women,0,5
17_Ambrotypes,3,0
57_1930s_photographs_of_men,1,0
11_20th_century_photos_of_females,0,1
2_20th_century_family,2,2
40_victorian_photography,3,3
4_1950s_photos_of_women,8,1
44_1920s_photographs_of_women,3,5
41_Tintypes,0,2
6_photos_from_the_1890s,0,1
5_1900s_photographs_of_women,0,1
34_1900s_photographs_of_men_with_mustaches,1,0
9,1,4
18_1960s_family,2,4
10_Cabinet_Cards,1,0
2_photos_from_the_1890s,0,5
5_1940s_pictures_of_men,1,0
39_1950s_pictures_of_men,1,0
4_Tintypes,0,1
45_Tintypes,2,3
45_1900s_photographs_of_women,0,1
6_1950s_photos_of_women,0,1
25_1900s_photographs_of_women,0,1
58_20th_century_photos_of_females,0,1
15_mid_20th_century_family,1,2
31_1920s_photographs_of_women,0,12
10_1920s_pictures_of_men,3,0
39_victorian_photography,0,1
11,0,1
41_1900s_photographs_of_women,0,1
70_1960s_family,2,2
31_Daguerreotype,0,1
42_1940s_photographs_of_women,0,1
99_1930s_photographs_of_women,0,1
18_Cabinet_Cards,2,0
39_photos_from_the_1890s,0,1
44_Cabinet_Cards,0,1
23_1900s_photographs_of_women,0,1
43_1940s_photographs_of_women,0,3
22_1940s_family,1,3
21_1920s_photos,1,3
52_20th_century_photos_of_men,1,0
33_victorian_photography,0,1
40_photos_from_the_1890s,0,1
0_20th_century_photos_of_men,1,0
39_1960s_family,2,2
28_1940s_photographs_of_women,0,1
23_1940s_people,3,0
11_Daguerreotype,1,0
0_1920s_pictures_of_men,3,0
45_1900s_photographs_of_men_with_mustaches,1,0
4_1930s_people,0,1
23_1900s_photographs_of_men_with_mustaches,1,0
23_photos_from_the_1890s,5,0
5_photos_from_the_1890s,0,1
2_Daguerreotype,1,0
15_photos_from_the_1890s,1,0
18_Ambrotypes,1,0
3_candid_old_photos,0,1
36_1900s_photographs_of_men_with_mustaches,1,0
0_1950s_photos_of_women,0,2
32,0,1
48_1900s_photographs_of_women,0,1
19_1930s_people,0,2
46_20th_century_photos_of_females,0,3
18_1950s_photos_of_women,0,3
32_1950s_photos_of_women,0,3
90_20th_century_family,0,8
8_1930s_photographs_of_men,4,0
4_20th_century_photos_of_men,1,0
26_Cabinet_Cards,1,0
39_photos_from_the_1950s,0,2
44_1940s_people,2,2
61,0,1
21_old_pictures,1,0
8_1920s_family,1,2
38_Daguerreotype,1,0
36_1920s_photos,0,4
66_mid_20th_century_family,4,1
35_1940s_pictures_of_men,4,0
12_early_1900s_photography,0,1
30_1900s_photographs_of_women,0,1
10_victorian_photography,0,5
13_photos_from_the_1890s,3,7
41_Daguerreotype,1,2
21_1920s_pictures_of_men,1,0
38_1950s_pictures_of_men,1,0
13_1930s_photographs_of_women,0,1
23_early_20th_century_photos,2,0
30_1900s_photographs_of_men_with_mustaches,1,0
47_1920s_pictures_of_men,1,0
10_Tintypes,0,1
41_Cabinet_Cards,1,0
49_20th_century_photos_of_men,3,0
16_1930s_photographs_of_women,0,1
24_1920s_photos,2,1
56_mid_20th_century_family,2,7
15_1940s_people,2,2
69_1930s_photographs_of_men,1,0
18_1950s_pictures_of_men,1,0
35_20th_century_photos_of_men,1,0
17_1920s_pictures_of_men,1,0
9_Ambrotypes,1,0
34_old_pictures,1,0
12_1800s_pictures,2,0
8,1,1
28_1920s_pictures_of_men,3,0
51_20th_century_photos_of_men,3,0
63,0,2
41_1920s_photos,1,1
37_old_family_photographs,0,2
8_1930s_photographs_of_women,0,1
11_Ambrotypes,3,0
48_1960s_family,4,3
31_1950s_pictures_of_men,1,0
7_1920s_photos,0,1
26,6,1
29_1940s_people,0,1
12_Tintypes,1,1
33_1920s_pictures_of_men,1,0
63_1960s_family,2,1
19_1940s_people,0,2
44_photos_from_the_1960s,1,1
61_1960s_family,3,1
17_1950s_photos_of_women,0,1
10_old_pictures,0,2
7_1930s_photographs_of_women,0,1
1_1930s_photographs_of_men,1,0
0_1900s_photographs_of_women,0,1
37_old_pictures,0,1
3_1950s_photos_of_women,0,1
43_victorian_photography,0,1
82_20th_century_photos_of_men,1,0
44_photos_from_the_1950s,0,7
26_20th_century_photos_of_females,0,1
41_photos_from_the_1960s,1,1
17_1930s_photographs_of_women,0,1
39_1930s_photographs_of_women,0,4
27_1940s_people,0,1
15_1800s_pictures,2,2
58,0,1
11_1800s_pictures,3,0
2_1800s_pictures,1,0
7_1950s_pictures_of_men,6,0
42_1920s_pictures_of_men,1,0
6_20th_century_family,1,3
10_1900s_photographs_of_women,0,1
10_20th_century_photos_of_men,4,0
33_early_1900s_photography,0,1
7_Cabinet_Cards,0,1
45_victorian_photography,0,5
0_1940s_family,2,2
3_1930s,0,5
34_old_family_photographs,0,1
79_mid_20th_century_family,4,6
23_Cabinet_Cards,0,1
30_1940s_people,7,0
24_1940s_family,2,2
40_1930s_photographs_of_women,1,1
8_1920s_photographs_of_women,0,1
37_1920s_pictures_of_men,2,2
44_early_1900s_photography,10,0
46_1960s_family,6,6
15_1940s_photographs_of_women,0,1
56_20th_century_photos_of_females,0,1
67_20th_century_family,7,4
11_1950s_photos_of_women,0,1
48_photos_from_the_1890s,0,1
22_old_pictures,0,2
29_1930s_photographs_of_men,4,0
12_photos_from_the_1890s,0,1
16_1930s_photographs_of_men,1,0
39_Ambrotypes,0,2
14_1940s_photographs_of_women,0,1
15_Ambrotypes,4,0
37_Tintypes,1,1
38_1900s_photographs_of_men_with_mustaches,1,0
33_photos_from_the_1950s,0,1
15_1940s_family,1,4
35_1900s_photographs_of_women,0,2
24,0,1
9_1900s_photographs_of_women,0,1
10_1950s_photos_of_women,1,3
88_20th_century_family,6,4
6_Tintypes,2,0
34_old_postcards_picture_people,0,1
65_20th_century_family,1,2
8_1950s_pictures_of_men,1,0
22_1950s_pictures_of_men,1,0
22_1920s_family,2,2
42_old_family_photographs,2,1
7_1940s_photographs_of_women,0,3
5_Tintypes,1,0
21_1940s_photographs_of_women,0,1
45_photos_from_the_1950s,1,1
42_early_20th_century_photos,0,6
2_Old_Portraits,1,0
36,1,0
12_1940s_people,0,6
14_Tintypes,1,0
2,2,5
11_1920s_photographs_of_women,0,2
4_1900s_photographs_of_men_with_mustaches,1,0
44,1,1
11_20th_century_photos_of_men,1,0
11_old_pictures,1,0
23_1940s_family,3,4
90_1930s_photographs_of_women,0,7
14_Ambrotypes,1,1
49_Ambrotypes,1,0
44_20th_century_photos_of_females,0,4
18_1920s_pictures_of_men,7,0
47_Ambrotypes,2,2
74_20th_century_family,7,6
45_1950s_pictures_of_men,6,0
14_1920s_family,3,3
79_20th_century_photos_of_men,1,0
30_Daguerreotype,0,1
12_20th_century_photos_of_men,2,0
43_1950s_photos_of_women,0,3
download,0,3
8_1900s_photographs_of_men_with_mustaches,1,0
34_20th_century_family,7,4
17_20th_century_photos_of_men,5,0
9_1900s_photographs_of_men_with_mustaches,1,0
57_20th_century_photos_of_men,2,0
91_1960s_family,4,3
6_old_pictures,0,1
27_early_20th_century_photos,2,4
64,0,1
22_1950s_photos_of_women,0,1
52_20th_century_photos_of_females,2,4
14_1900s_photographs_of_men_with_mustaches,1,0
4_early_20th_century_photos,2,0
9_1940s_people,0,3
42_20th_century_photos_of_men,1,0
19_Cabinet_Cards,1,0
22_1930s_photographs_of_men,1,0
5_1920s_photos,8,0
7_old_postcards_picture_people,3,3
7_photos_from_the_1890s,1,1
19_1920s_photographs_of_women,1,3
41_1920s_pictures_of_men,1,0
36_early_1900s_photography,0,2
15_1920s_pictures_of_men,1,0
28_1940s_people,0,1
0_Old_Portraits,1,0
27_1930s_photographs_of_women,0,1
12_Cabinet_Cards,1,1
4_Old_Portraits,0,1
5_1920s_photographs_of_women,0,4
0_1940s_photographs_of_women,0,1
48_Ambrotypes,3,2
45_1930s_photographs_of_men,1,0
36_1920s_pictures_of_men,2,0
19_1920s_family,3,3
34_1920s_pictures_of_men,1,0
33_1940s_family,2,2
8_Cabinet_Cards,0,1
5_old_pictures,0,6
32_1940s_family,1,2
32_1900s_photographs_of_women,0,1
0_1920s_family,2,2
16_victorian_photography,0,1
83_1930s_photographs_of_women,0,1
